2/8/2022 8:05:54 AM
SendOTP - START -farooque.ali@redington.co.in
-----------------------------------------------------------------------------------------------------
2/8/2022 8:06:01 AM
CheckMail - START -farooque.ali@redington.co.in
-----------------------------------------------------------------------------------------------------
2/8/2022 8:07:13 AM
SendOTP - START -farooque.ali@redington.co.in
-----------------------------------------------------------------------------------------------------
2/8/2022 8:07:31 AM
SendOTP - START -FAROOQUE.ALI@REDINGTON.CO.IN
-----------------------------------------------------------------------------------------------------
2/8/2022 8:07:33 AM
CheckMail - START -FAROOQUE.ALI@REDINGTON.CO.IN
-----------------------------------------------------------------------------------------------------
2/8/2022 8:09:13 AM
SendOTP - SUCCESS -FAROOQUE.ALI@REDINGTON.CO.IN
-----------------------------------------------------------------------------------------------------
2/8/2022 8:20:59 AM
SendOTP - START -farooque.ali@redington.co.in
-----------------------------------------------------------------------------------------------------
2/8/2022 8:21:04 AM
CheckMail - START -farooque.ali@redington.co.in
-----------------------------------------------------------------------------------------------------
2/8/2022 8:21:13 AM
SendOTP - SUCCESS -farooque.ali@redington.co.in
-----------------------------------------------------------------------------------------------------
2/8/2022 8:24:35 AM
SendOTP - START -farooque.ali@redington.co.in
-----------------------------------------------------------------------------------------------------
2/8/2022 8:24:39 AM
CheckMail - START -farooque.ali@redington.co.in
-----------------------------------------------------------------------------------------------------
2/8/2022 8:24:54 AM
SendOTP - SUCCESS -farooque.ali@redington.co.in
-----------------------------------------------------------------------------------------------------
2/8/2022 8:29:14 AM
SendOTP - START -farooque.ali@redington.co.in
-----------------------------------------------------------------------------------------------------
2/8/2022 8:29:17 AM
CheckMail - START -farooque.ali@redington.co.in
-----------------------------------------------------------------------------------------------------
2/8/2022 8:29:34 AM
SendOTP - SUCCESS -farooque.ali@redington.co.in
-----------------------------------------------------------------------------------------------------
2/8/2022 8:34:06 AM
SendOTP - START -farooque.ali@redginton.co.in
-----------------------------------------------------------------------------------------------------
2/8/2022 8:34:10 AM
CheckMail - START -farooque.ali@redginton.co.in
-----------------------------------------------------------------------------------------------------
2/8/2022 8:51:27 AM
SendOTP - START -farooque.ali@redginton.co.in
-----------------------------------------------------------------------------------------------------
2/8/2022 8:51:30 AM
CheckMail - START -farooque.ali@redginton.co.in
-----------------------------------------------------------------------------------------------------
2/8/2022 8:53:38 AM
SendOTP - START -farooque.ali@redington.co.in
-----------------------------------------------------------------------------------------------------
2/8/2022 8:53:41 AM
CheckMail - START -farooque.ali@redington.co.in
-----------------------------------------------------------------------------------------------------
2/8/2022 8:53:43 AM
SendOTP - SUCCESS -farooque.ali@redington.co.in
-----------------------------------------------------------------------------------------------------
2/8/2022 8:54:52 AM
SendOTP - START -farooque.ali@redington.co.in
-----------------------------------------------------------------------------------------------------
2/8/2022 8:54:54 AM
CheckMail - START -farooque.ali@redington.co.in
-----------------------------------------------------------------------------------------------------
2/8/2022 8:54:55 AM
SendOTP - SUCCESS -farooque.ali@redington.co.in
-----------------------------------------------------------------------------------------------------
2/8/2022 8:55:34 AM
SendOTP - START -farooque.ali@redington.co.in
-----------------------------------------------------------------------------------------------------
2/8/2022 8:55:37 AM
CheckMail - START -farooque.ali@redington.co.in
-----------------------------------------------------------------------------------------------------
2/8/2022 8:55:39 AM
SendOTP - SUCCESS -farooque.ali@redington.co.in
-----------------------------------------------------------------------------------------------------
2/8/2022 8:55:39 AM
Request URL => http://localhost:50246/Order/OrderHistory
-----------------------------------------------------------------------------------------------------
2/8/2022 10:22:02 AM
SendOTP - START -farooque.ali@redington.co.in
-----------------------------------------------------------------------------------------------------
2/8/2022 10:22:04 AM
CheckMail - START -farooque.ali@redington.co.in
-----------------------------------------------------------------------------------------------------
2/8/2022 10:36:49 AM
SendOTP - ERROR -farooque.ali@redington.co.in
-----------------------------------------------------------------------------------------------------
2/8/2022 10:42:14 AM
SendOTP - START -farooque.ali@redington.co.in
-----------------------------------------------------------------------------------------------------
2/8/2022 10:42:20 AM
CheckMail - START -farooque.ali@redington.co.in
-----------------------------------------------------------------------------------------------------
2/8/2022 10:42:43 AM
SendOTP - SUCCESS -farooque.ali@redington.co.in
-----------------------------------------------------------------------------------------------------
2/8/2022 10:42:51 AM
Request URL => http://localhost:50246/Order/OrderHistory
-----------------------------------------------------------------------------------------------------
2/8/2022 10:52:23 AM
SendOTP - START -farooque.ali@redginton.co.in
-----------------------------------------------------------------------------------------------------
2/8/2022 10:52:23 AM
SendOTP - ERROR -Object reference not set to an instance of an object.
-----------------------------------------------------------------------------------------------------
2/8/2022 10:52:54 AM
SendOTP - START -farooque.ali@redginton.co.in
-----------------------------------------------------------------------------------------------------
2/8/2022 10:52:54 AM
SendOTP - ERROR -Object reference not set to an instance of an object.
-----------------------------------------------------------------------------------------------------
2/8/2022 10:53:12 AM
SendOTP - START -farooque.ali@redginton.co.in
-----------------------------------------------------------------------------------------------------
2/8/2022 10:54:49 AM
SendOTP - START -farooque.ali@redington.co.in
-----------------------------------------------------------------------------------------------------
2/8/2022 10:54:52 AM
CheckMail - START -farooque.ali@redington.co.in
-----------------------------------------------------------------------------------------------------
2/8/2022 10:59:52 AM
SendOTP - START -FAROOQUE.ALI@REDINGTON.CO.IN
-----------------------------------------------------------------------------------------------------
2/8/2022 10:59:55 AM
CheckMail - START -FAROOQUE.ALI@REDINGTON.CO.IN
-----------------------------------------------------------------------------------------------------
2/8/2022 11:09:17 AM
SendOTP - START -FAROOQUE.ALI@REDINGTON.CO.IN
-----------------------------------------------------------------------------------------------------
2/8/2022 11:09:21 AM
CheckMail - START -FAROOQUE.ALI@REDINGTON.CO.IN
-----------------------------------------------------------------------------------------------------
2/8/2022 11:10:01 AM
CheckEmailSAP - Success -FAROOQUE.ALI@REDINGTON.CO.IN
-----------------------------------------------------------------------------------------------------
2/8/2022 11:10:47 AM
CheckMail - ERROR -FAROOQUE.ALI@REDINGTON.CO.INOnly allowed with an email id which got this communication.
-----------------------------------------------------------------------------------------------------
2/8/2022 11:10:51 AM
InsertOTP - START -
-----------------------------------------------------------------------------------------------------
2/8/2022 11:10:51 AM
InsertOTP - Error -FAROOQUE.ALI@REDINGTON.CO.IN
-----------------------------------------------------------------------------------------------------
2/8/2022 11:10:51 AM
SendOTP - SUCCESS -FAROOQUE.ALI@REDINGTON.CO.IN
-----------------------------------------------------------------------------------------------------
2/8/2022 11:11:17 AM
SendOTP - START -YUKESH.BALA@REDINGTON.CO.IN
-----------------------------------------------------------------------------------------------------
2/8/2022 11:11:25 AM
CheckMail - START -YUKESH.BALA@REDINGTON.CO.IN
-----------------------------------------------------------------------------------------------------
2/8/2022 11:14:05 AM
SendOTP - START -YUKESH.BALA@REDINGTON.CO.IN
-----------------------------------------------------------------------------------------------------
2/8/2022 11:14:07 AM
CheckMail - START -YUKESH.BALA@REDINGTON.CO.IN
-----------------------------------------------------------------------------------------------------
2/8/2022 11:14:27 AM
InsertOTP - START -
-----------------------------------------------------------------------------------------------------
2/8/2022 11:14:27 AM
InsertOTP - Error -YUKESH.BALA@REDINGTON.CO.IN
-----------------------------------------------------------------------------------------------------
2/8/2022 11:14:30 AM
SendOTP - SUCCESS -YUKESH.BALA@REDINGTON.CO.IN
-----------------------------------------------------------------------------------------------------
2/8/2022 11:15:21 AM
SendOTP - START -YUKESH.BALA@REDINGTON.CO.IN
-----------------------------------------------------------------------------------------------------
2/8/2022 11:15:24 AM
CheckMail - START -YUKESH.BALA@REDINGTON.CO.IN
-----------------------------------------------------------------------------------------------------
2/8/2022 11:15:59 AM
InsertOTP - START -
-----------------------------------------------------------------------------------------------------
2/8/2022 11:15:59 AM
InsertOTP - Error -YUKESH.BALA@REDINGTON.CO.IN
-----------------------------------------------------------------------------------------------------
2/8/2022 11:15:59 AM
SendOTP - SUCCESS -YUKESH.BALA@REDINGTON.CO.IN
-----------------------------------------------------------------------------------------------------
2/8/2022 11:20:42 AM
SendOTP - START -YUKESH.BALA@REDINGTON.CO.IN
-----------------------------------------------------------------------------------------------------
2/8/2022 11:20:44 AM
CheckMail - START -YUKESH.BALA@REDINGTON.CO.IN
-----------------------------------------------------------------------------------------------------
2/8/2022 11:20:48 AM
InsertOTP - START -
-----------------------------------------------------------------------------------------------------
2/8/2022 11:20:48 AM
InsertOTP - Error -YUKESH.BALA@REDINGTON.CO.IN
-----------------------------------------------------------------------------------------------------
2/8/2022 11:20:48 AM
SendOTP - SUCCESS -YUKESH.BALA@REDINGTON.CO.IN
-----------------------------------------------------------------------------------------------------
2/8/2022 11:22:31 AM
SendOTP - START -YUKESH.BALA@REDINGTON.CO.IN
-----------------------------------------------------------------------------------------------------
2/8/2022 11:22:31 AM
CheckMail - START -YUKESH.BALA@REDINGTON.CO.IN
-----------------------------------------------------------------------------------------------------
2/8/2022 11:22:36 AM
InsertOTP - START -
-----------------------------------------------------------------------------------------------------
2/8/2022 11:22:36 AM
InsertOTP - Error -YUKESH.BALA@REDINGTON.CO.IN
-----------------------------------------------------------------------------------------------------
2/8/2022 11:22:36 AM
SendOTP - SUCCESS -YUKESH.BALA@REDINGTON.CO.IN
-----------------------------------------------------------------------------------------------------
2/8/2022 11:27:19 AM
SendOTP - START -YUKESH.BALA@REDINGTON.CO.IN
-----------------------------------------------------------------------------------------------------
2/8/2022 11:27:19 AM
CheckMail - START -YUKESH.BALA@REDINGTON.CO.IN
-----------------------------------------------------------------------------------------------------
2/8/2022 11:27:20 AM
InsertOTP - START -
-----------------------------------------------------------------------------------------------------
2/8/2022 11:27:20 AM
InsertOTP - Error -YUKESH.BALA@REDINGTON.CO.IN
-----------------------------------------------------------------------------------------------------
2/8/2022 11:27:20 AM
SendOTP - SUCCESS -YUKESH.BALA@REDINGTON.CO.IN
-----------------------------------------------------------------------------------------------------
2/8/2022 11:30:37 AM
SendOTP - START -YUKESH.BALA@REDINGTON.CO.IN
-----------------------------------------------------------------------------------------------------
2/8/2022 11:30:37 AM
CheckMail - START -YUKESH.BALA@REDINGTON.CO.IN
-----------------------------------------------------------------------------------------------------
2/8/2022 11:30:38 AM
InsertOTP - START -
-----------------------------------------------------------------------------------------------------
2/8/2022 11:30:38 AM
InsertOTP - Error -YUKESH.BALA@REDINGTON.CO.IN
-----------------------------------------------------------------------------------------------------
2/8/2022 11:30:38 AM
SendOTP - SUCCESS -YUKESH.BALA@REDINGTON.CO.IN
-----------------------------------------------------------------------------------------------------
2/8/2022 11:51:03 AM
SendOTP - START -farooque.ali@redington.co.in
-----------------------------------------------------------------------------------------------------
2/8/2022 11:51:26 AM
CheckMail - START -farooque.ali@redington.co.in
-----------------------------------------------------------------------------------------------------
2/8/2022 11:51:26 AM
InsertOTP - START -
-----------------------------------------------------------------------------------------------------
2/8/2022 11:51:26 AM
InsertOTP - Error -farooque.ali@redington.co.in
-----------------------------------------------------------------------------------------------------
2/8/2022 11:51:26 AM
SendOTP - SUCCESS -farooque.ali@redington.co.in
-----------------------------------------------------------------------------------------------------
2/8/2022 11:55:19 AM
SendOTP - START -YUKESH.BALA@REDINGTON.CO.IN
-----------------------------------------------------------------------------------------------------
2/8/2022 11:55:19 AM
CheckMail - START -YUKESH.BALA@REDINGTON.CO.IN
-----------------------------------------------------------------------------------------------------
2/8/2022 11:55:20 AM
InsertOTP - START -
-----------------------------------------------------------------------------------------------------
2/8/2022 11:55:20 AM
InsertOTP - Error -YUKESH.BALA@REDINGTON.CO.IN
-----------------------------------------------------------------------------------------------------
2/8/2022 11:55:20 AM
SendOTP - SUCCESS -YUKESH.BALA@REDINGTON.CO.IN
-----------------------------------------------------------------------------------------------------
2/8/2022 11:57:05 AM
SendOTP - START -YUKESH.BALA@REDINGTON.CO.IN
-----------------------------------------------------------------------------------------------------
2/8/2022 11:57:05 AM
CheckMail - START -YUKESH.BALA@REDINGTON.CO.IN
-----------------------------------------------------------------------------------------------------
2/8/2022 11:57:05 AM
InsertOTP - START -
-----------------------------------------------------------------------------------------------------
2/8/2022 11:57:05 AM
InsertOTP - Error -YUKESH.BALA@REDINGTON.CO.IN
-----------------------------------------------------------------------------------------------------
2/8/2022 11:57:05 AM
SendOTP - SUCCESS -YUKESH.BALA@REDINGTON.CO.IN
-----------------------------------------------------------------------------------------------------
2/8/2022 12:01:27 PM
SendOTP - START -YUKESH.BALA@REDINGTON.CO.IN
-----------------------------------------------------------------------------------------------------
2/8/2022 12:01:27 PM
CheckMail - START -YUKESH.BALA@REDINGTON.CO.IN
-----------------------------------------------------------------------------------------------------
2/8/2022 12:01:27 PM
InsertOTP - START -
-----------------------------------------------------------------------------------------------------
2/8/2022 12:01:28 PM
InsertOTP - Error -YUKESH.BALA@REDINGTON.CO.IN
-----------------------------------------------------------------------------------------------------
2/8/2022 12:01:28 PM
SendOTP - SUCCESS -YUKESH.BALA@REDINGTON.CO.IN
-----------------------------------------------------------------------------------------------------
2/8/2022 12:16:24 PM
SendOTP - START -FAROOQUE.ALI@REDINGTON.CO.IN
-----------------------------------------------------------------------------------------------------
2/8/2022 12:16:24 PM
CheckMail - START -FAROOQUE.ALI@REDINGTON.CO.IN
-----------------------------------------------------------------------------------------------------
2/8/2022 12:16:26 PM
InsertOTP - START -
-----------------------------------------------------------------------------------------------------
2/8/2022 12:16:26 PM
InsertOTP - Error -FAROOQUE.ALI@REDINGTON.CO.IN
-----------------------------------------------------------------------------------------------------
2/8/2022 12:16:26 PM
SendOTP - SUCCESS -FAROOQUE.ALI@REDINGTON.CO.IN
-----------------------------------------------------------------------------------------------------
2/8/2022 12:18:29 PM
SendOTP - START -FAROOQUE.ALI@REDINGTON.CO.IN
-----------------------------------------------------------------------------------------------------
2/8/2022 12:18:29 PM
CheckMail - START -FAROOQUE.ALI@REDINGTON.CO.IN
-----------------------------------------------------------------------------------------------------
2/8/2022 12:18:30 PM
InsertOTP - START -
-----------------------------------------------------------------------------------------------------
2/8/2022 12:18:30 PM
InsertOTP - Error -FAROOQUE.ALI@REDINGTON.CO.IN
-----------------------------------------------------------------------------------------------------
2/8/2022 12:18:30 PM
SendOTP - SUCCESS -FAROOQUE.ALI@REDINGTON.CO.IN
-----------------------------------------------------------------------------------------------------
2/8/2022 12:19:21 PM
SendOTP - START -FAROOQUE.ALI@REDINGTON.CO.IN
-----------------------------------------------------------------------------------------------------
2/8/2022 12:19:21 PM
CheckMail - START -FAROOQUE.ALI@REDINGTON.CO.IN
-----------------------------------------------------------------------------------------------------
2/8/2022 12:19:23 PM
InsertOTP - START -
-----------------------------------------------------------------------------------------------------
2/8/2022 12:19:23 PM
InsertOTP - Error -FAROOQUE.ALI@REDINGTON.CO.IN
-----------------------------------------------------------------------------------------------------
2/8/2022 12:19:23 PM
SendOTP - SUCCESS -FAROOQUE.ALI@REDINGTON.CO.IN
-----------------------------------------------------------------------------------------------------
2/8/2022 12:21:43 PM
SendOTP - START -FAROOQUE.ALI@REDINGTON.CO.IN
-----------------------------------------------------------------------------------------------------
2/8/2022 12:21:43 PM
CheckMail - START -FAROOQUE.ALI@REDINGTON.CO.IN
-----------------------------------------------------------------------------------------------------
2/8/2022 12:21:43 PM
InsertOTP - START -
-----------------------------------------------------------------------------------------------------
2/8/2022 12:21:44 PM
InsertOTP - Error -FAROOQUE.ALI@REDINGTON.CO.IN
-----------------------------------------------------------------------------------------------------
2/8/2022 12:21:44 PM
SendOTP - SUCCESS -FAROOQUE.ALI@REDINGTON.CO.IN
-----------------------------------------------------------------------------------------------------
2/8/2022 12:30:54 PM
SendOTP - START -FAROOQUE.ALI@REDINGTON.CO.IN
-----------------------------------------------------------------------------------------------------
2/8/2022 12:30:54 PM
CheckMail - START -FAROOQUE.ALI@REDINGTON.CO.IN
-----------------------------------------------------------------------------------------------------
2/8/2022 12:30:57 PM
InsertOTP - START -
-----------------------------------------------------------------------------------------------------
2/8/2022 12:30:57 PM
InsertOTP - Error -FAROOQUE.ALI@REDINGTON.CO.IN
-----------------------------------------------------------------------------------------------------
2/8/2022 12:30:57 PM
SendOTP - SUCCESS -FAROOQUE.ALI@REDINGTON.CO.IN
-----------------------------------------------------------------------------------------------------
2/8/2022 12:32:12 PM
SendOTP - START -FAROOQUE.ALI@REDINGTON.CO.IN
-----------------------------------------------------------------------------------------------------
2/8/2022 12:32:12 PM
CheckMail - START -FAROOQUE.ALI@REDINGTON.CO.IN
-----------------------------------------------------------------------------------------------------
2/8/2022 12:32:13 PM
InsertOTP - START -
-----------------------------------------------------------------------------------------------------
2/8/2022 12:32:13 PM
InsertOTP - Error -FAROOQUE.ALI@REDINGTON.CO.IN
-----------------------------------------------------------------------------------------------------
2/8/2022 12:32:13 PM
SendOTP - SUCCESS -FAROOQUE.ALI@REDINGTON.CO.IN
-----------------------------------------------------------------------------------------------------
2/8/2022 12:32:52 PM
SendOTP - START -FAROOQUE.ALI@REDINGTON.CO.IN
-----------------------------------------------------------------------------------------------------
2/8/2022 12:32:52 PM
CheckMail - START -FAROOQUE.ALI@REDINGTON.CO.IN
-----------------------------------------------------------------------------------------------------
2/8/2022 12:32:53 PM
InsertOTP - START -
-----------------------------------------------------------------------------------------------------
2/8/2022 12:32:53 PM
InsertOTP - Error -FAROOQUE.ALI@REDINGTON.CO.IN
-----------------------------------------------------------------------------------------------------
2/8/2022 12:32:53 PM
SendOTP - SUCCESS -FAROOQUE.ALI@REDINGTON.CO.IN
-----------------------------------------------------------------------------------------------------
2/8/2022 12:35:01 PM
SendOTP - START -FAROOQUE.ALI@REDINGTON.CO.IN
-----------------------------------------------------------------------------------------------------
2/8/2022 12:35:01 PM
CheckMail - START -FAROOQUE.ALI@REDINGTON.CO.IN
-----------------------------------------------------------------------------------------------------
2/8/2022 12:35:02 PM
InsertOTP - START -
-----------------------------------------------------------------------------------------------------
2/8/2022 12:35:02 PM
InsertOTP - Error -FAROOQUE.ALI@REDINGTON.CO.IN
-----------------------------------------------------------------------------------------------------
2/8/2022 12:35:02 PM
SendOTP - SUCCESS -FAROOQUE.ALI@REDINGTON.CO.IN
-----------------------------------------------------------------------------------------------------
2/8/2022 12:35:59 PM
SendOTP - START -FAROOQUE.ALI@REDINGTON.CO.IN
-----------------------------------------------------------------------------------------------------
2/8/2022 12:35:59 PM
CheckMail - START -FAROOQUE.ALI@REDINGTON.CO.IN
-----------------------------------------------------------------------------------------------------
2/8/2022 12:36:01 PM
InsertOTP - START -
-----------------------------------------------------------------------------------------------------
2/8/2022 12:36:01 PM
InsertOTP - Error -FAROOQUE.ALI@REDINGTON.CO.IN
-----------------------------------------------------------------------------------------------------
2/8/2022 12:36:01 PM
SendOTP - SUCCESS -FAROOQUE.ALI@REDINGTON.CO.IN
-----------------------------------------------------------------------------------------------------
2/8/2022 12:37:12 PM
SendOTP - START -FAROOQUE.ALI@REDINGTON.CO.IN
-----------------------------------------------------------------------------------------------------
2/8/2022 12:37:12 PM
CheckMail - START -FAROOQUE.ALI@REDINGTON.CO.IN
-----------------------------------------------------------------------------------------------------
2/8/2022 12:37:13 PM
InsertOTP - START -
-----------------------------------------------------------------------------------------------------
2/8/2022 12:37:13 PM
InsertOTP - Error -FAROOQUE.ALI@REDINGTON.CO.IN
-----------------------------------------------------------------------------------------------------
2/8/2022 12:37:13 PM
SendOTP - SUCCESS -FAROOQUE.ALI@REDINGTON.CO.IN
-----------------------------------------------------------------------------------------------------
2/8/2022 12:38:08 PM
SendOTP - START -FAROOQUE.ALI@REDINGTON.CO.IN
-----------------------------------------------------------------------------------------------------
2/8/2022 12:38:08 PM
CheckMail - START -FAROOQUE.ALI@REDINGTON.CO.IN
-----------------------------------------------------------------------------------------------------
2/8/2022 12:38:09 PM
InsertOTP - START -
-----------------------------------------------------------------------------------------------------
2/8/2022 12:38:09 PM
InsertOTP - Error -FAROOQUE.ALI@REDINGTON.CO.IN
-----------------------------------------------------------------------------------------------------
2/8/2022 12:38:09 PM
SendOTP - SUCCESS -FAROOQUE.ALI@REDINGTON.CO.IN
-----------------------------------------------------------------------------------------------------
2/8/2022 12:38:55 PM
SendOTP - START -FAROOQUE.ALI@REDINGTON.CO.IN
-----------------------------------------------------------------------------------------------------
2/8/2022 12:38:55 PM
CheckMail - START -FAROOQUE.ALI@REDINGTON.CO.IN
-----------------------------------------------------------------------------------------------------
2/8/2022 12:38:56 PM
InsertOTP - START -
-----------------------------------------------------------------------------------------------------
2/8/2022 12:38:56 PM
InsertOTP - Error -FAROOQUE.ALI@REDINGTON.CO.IN
-----------------------------------------------------------------------------------------------------
2/8/2022 12:38:56 PM
SendOTP - SUCCESS -FAROOQUE.ALI@REDINGTON.CO.IN
-----------------------------------------------------------------------------------------------------
2/8/2022 12:40:11 PM
SendOTP - START -FAROOQUE.ALI@REDINGTON.CO.IN
-----------------------------------------------------------------------------------------------------
2/8/2022 12:40:11 PM
CheckMail - START -FAROOQUE.ALI@REDINGTON.CO.IN
-----------------------------------------------------------------------------------------------------
2/8/2022 12:40:11 PM
InsertOTP - START -
-----------------------------------------------------------------------------------------------------
2/8/2022 12:40:11 PM
InsertOTP - Error -FAROOQUE.ALI@REDINGTON.CO.IN
-----------------------------------------------------------------------------------------------------
2/8/2022 12:40:11 PM
SendOTP - SUCCESS -FAROOQUE.ALI@REDINGTON.CO.IN
-----------------------------------------------------------------------------------------------------
2/8/2022 12:45:45 PM
SendOTP - START -YUKESH.BALA@REDINGTON.CO.IN
-----------------------------------------------------------------------------------------------------
2/8/2022 12:45:45 PM
CheckMail - START -YUKESH.BALA@REDINGTON.CO.IN
-----------------------------------------------------------------------------------------------------
2/8/2022 12:45:45 PM
InsertOTP - START -
-----------------------------------------------------------------------------------------------------
2/8/2022 12:45:45 PM
InsertOTP - Error -YUKESH.BALA@REDINGTON.CO.IN
-----------------------------------------------------------------------------------------------------
2/8/2022 12:45:45 PM
SendOTP - SUCCESS -YUKESH.BALA@REDINGTON.CO.IN
-----------------------------------------------------------------------------------------------------
2/8/2022 12:49:13 PM
SendOTP - START -YUKESH.BALA@REDINGTON.CO.IN
-----------------------------------------------------------------------------------------------------
2/8/2022 12:49:13 PM
CheckMail - START -YUKESH.BALA@REDINGTON.CO.IN
-----------------------------------------------------------------------------------------------------
2/8/2022 12:49:14 PM
InsertOTP - START -
-----------------------------------------------------------------------------------------------------
2/8/2022 12:49:14 PM
InsertOTP - Error -YUKESH.BALA@REDINGTON.CO.IN
-----------------------------------------------------------------------------------------------------
2/8/2022 12:49:14 PM
SendOTP - SUCCESS -YUKESH.BALA@REDINGTON.CO.IN
-----------------------------------------------------------------------------------------------------
2/8/2022 12:49:21 PM
SendOTP - START -FAROOQUE.ALI@REDINGTON.CO.IN
-----------------------------------------------------------------------------------------------------
2/8/2022 12:49:25 PM
CheckMail - START -FAROOQUE.ALI@REDINGTON.CO.IN
-----------------------------------------------------------------------------------------------------
2/8/2022 12:49:35 PM
InsertOTP - START -
-----------------------------------------------------------------------------------------------------
2/8/2022 12:49:35 PM
InsertOTP - Error -FAROOQUE.ALI@REDINGTON.CO.IN
-----------------------------------------------------------------------------------------------------
2/8/2022 12:49:36 PM
SendOTP - SUCCESS -FAROOQUE.ALI@REDINGTON.CO.IN
-----------------------------------------------------------------------------------------------------
2/8/2022 12:51:28 PM
SendOTP - START -FAROOQUE.ALI@REDINGTON.CO.IN
-----------------------------------------------------------------------------------------------------
2/8/2022 12:51:28 PM
CheckMail - START -FAROOQUE.ALI@REDINGTON.CO.IN
-----------------------------------------------------------------------------------------------------
2/8/2022 12:51:29 PM
InsertOTP - START -
-----------------------------------------------------------------------------------------------------
2/8/2022 12:51:29 PM
InsertOTP - Error -FAROOQUE.ALI@REDINGTON.CO.IN
-----------------------------------------------------------------------------------------------------
2/8/2022 12:51:29 PM
SendOTP - SUCCESS -FAROOQUE.ALI@REDINGTON.CO.IN
-----------------------------------------------------------------------------------------------------
2/8/2022 1:00:26 PM
SendOTP - START -FAROOQUE.ALI@REDINGTON.CO.IN
-----------------------------------------------------------------------------------------------------
2/8/2022 1:00:26 PM
CheckMail - START -FAROOQUE.ALI@REDINGTON.CO.IN
-----------------------------------------------------------------------------------------------------
2/8/2022 1:00:28 PM
InsertOTP - START -
-----------------------------------------------------------------------------------------------------
2/8/2022 1:00:28 PM
InsertOTP - Error -FAROOQUE.ALI@REDINGTON.CO.IN
-----------------------------------------------------------------------------------------------------
2/8/2022 1:00:28 PM
SendOTP - SUCCESS -FAROOQUE.ALI@REDINGTON.CO.IN
-----------------------------------------------------------------------------------------------------
2/8/2022 1:02:46 PM
SendOTP - START -FAROOQUE.ALI@REDINGTON.CO.IN
-----------------------------------------------------------------------------------------------------
2/8/2022 1:02:46 PM
CheckMail - START -FAROOQUE.ALI@REDINGTON.CO.IN
-----------------------------------------------------------------------------------------------------
2/8/2022 1:02:47 PM
InsertOTP - START -
-----------------------------------------------------------------------------------------------------
2/8/2022 1:02:47 PM
InsertOTP - Error -FAROOQUE.ALI@REDINGTON.CO.IN
-----------------------------------------------------------------------------------------------------
2/8/2022 1:02:47 PM
SendOTP - SUCCESS -FAROOQUE.ALI@REDINGTON.CO.IN
-----------------------------------------------------------------------------------------------------
2/8/2022 1:08:14 PM
SendOTP - START -FAROOQUE.ALI@REDINGTON.CO.IN
-----------------------------------------------------------------------------------------------------
2/8/2022 1:08:14 PM
CheckMail - START -FAROOQUE.ALI@REDINGTON.CO.IN
-----------------------------------------------------------------------------------------------------
2/8/2022 1:08:15 PM
InsertOTP - START -
-----------------------------------------------------------------------------------------------------
2/8/2022 1:08:15 PM
InsertOTP - Error -FAROOQUE.ALI@REDINGTON.CO.IN
-----------------------------------------------------------------------------------------------------
2/8/2022 1:08:15 PM
SendOTP - SUCCESS -FAROOQUE.ALI@REDINGTON.CO.IN
-----------------------------------------------------------------------------------------------------
2/8/2022 1:09:08 PM
SendOTP - START -FAROOQUE.ALI@REDINGTON.CO.IN
-----------------------------------------------------------------------------------------------------
2/8/2022 1:09:08 PM
CheckMail - START -FAROOQUE.ALI@REDINGTON.CO.IN
-----------------------------------------------------------------------------------------------------
2/8/2022 1:09:10 PM
InsertOTP - START -
-----------------------------------------------------------------------------------------------------
2/8/2022 1:09:10 PM
InsertOTP - Error -FAROOQUE.ALI@REDINGTON.CO.IN
-----------------------------------------------------------------------------------------------------
2/8/2022 1:09:10 PM
SendOTP - SUCCESS -FAROOQUE.ALI@REDINGTON.CO.IN
-----------------------------------------------------------------------------------------------------
2/8/2022 1:12:17 PM
SendOTP - START -FAROOQUE.ALI@REDINGTON.CO.IN
-----------------------------------------------------------------------------------------------------
2/8/2022 1:12:17 PM
CheckMail - START -FAROOQUE.ALI@REDINGTON.CO.IN
-----------------------------------------------------------------------------------------------------
2/8/2022 1:12:17 PM
InsertOTP - START -
-----------------------------------------------------------------------------------------------------
2/8/2022 1:12:17 PM
InsertOTP - Error -FAROOQUE.ALI@REDINGTON.CO.IN
-----------------------------------------------------------------------------------------------------
2/8/2022 1:12:17 PM
SendOTP - SUCCESS -FAROOQUE.ALI@REDINGTON.CO.IN
-----------------------------------------------------------------------------------------------------
2/8/2022 1:14:58 PM
SendOTP - START -FAROOQUE.ALI@REDINGTON.CO.IN
-----------------------------------------------------------------------------------------------------
2/8/2022 1:14:58 PM
CheckMail - START -FAROOQUE.ALI@REDINGTON.CO.IN
-----------------------------------------------------------------------------------------------------
2/8/2022 1:14:59 PM
InsertOTP - START -
-----------------------------------------------------------------------------------------------------
2/8/2022 1:14:59 PM
InsertOTP - Error -FAROOQUE.ALI@REDINGTON.CO.IN
-----------------------------------------------------------------------------------------------------
2/8/2022 1:14:59 PM
SendOTP - SUCCESS -FAROOQUE.ALI@REDINGTON.CO.IN
-----------------------------------------------------------------------------------------------------
2/8/2022 1:15:34 PM
ValidateOTP - START -FAROOQUE.ALI@REDINGTON.CO.IN
-----------------------------------------------------------------------------------------------------
2/8/2022 1:16:21 PM
GetOTPData - START -FAROOQUE.ALI@REDINGTON.CO.IN
-----------------------------------------------------------------------------------------------------
2/8/2022 1:16:21 PM
GetOTPData - Error -FAROOQUE.ALI@REDINGTON.CO.IN
-----------------------------------------------------------------------------------------------------
2/8/2022 1:16:37 PM
GetOTPData - START -FAROOQUE.ALI@REDINGTON.CO.IN
-----------------------------------------------------------------------------------------------------
2/8/2022 1:17:36 PM
SendOTP - START -FAROOQUE.ALI@REDINGTON.CO.IN
-----------------------------------------------------------------------------------------------------
2/8/2022 1:17:36 PM
CheckMail - START -FAROOQUE.ALI@REDINGTON.CO.IN
-----------------------------------------------------------------------------------------------------
2/8/2022 1:17:37 PM
InsertOTP - START -
-----------------------------------------------------------------------------------------------------
2/8/2022 1:17:37 PM
InsertOTP - Error -FAROOQUE.ALI@REDINGTON.CO.IN
-----------------------------------------------------------------------------------------------------
2/8/2022 1:17:37 PM
SendOTP - SUCCESS -FAROOQUE.ALI@REDINGTON.CO.IN
-----------------------------------------------------------------------------------------------------
2/8/2022 1:18:24 PM
ValidateOTP - START -FAROOQUE.ALI@REDINGTON.CO.IN
-----------------------------------------------------------------------------------------------------
2/8/2022 1:18:32 PM
GetOTPData - START -FAROOQUE.ALI@REDINGTON.CO.IN
-----------------------------------------------------------------------------------------------------
2/8/2022 1:21:55 PM
SendOTP - START -FAROOQUE.ALI@REDINGTON.CO.IN
-----------------------------------------------------------------------------------------------------
2/8/2022 1:21:55 PM
CheckMail - START -FAROOQUE.ALI@REDINGTON.CO.IN
-----------------------------------------------------------------------------------------------------
2/8/2022 1:22:00 PM
InsertOTP - START -
-----------------------------------------------------------------------------------------------------
2/8/2022 1:26:53 PM
SendOTP - START -FAROOQUE.ALI@REDINGTON.CO.IN
-----------------------------------------------------------------------------------------------------
2/8/2022 1:26:53 PM
CheckMail - START -FAROOQUE.ALI@REDINGTON.CO.IN
-----------------------------------------------------------------------------------------------------
2/8/2022 1:26:56 PM
InsertOTP - START -
-----------------------------------------------------------------------------------------------------
2/8/2022 1:27:00 PM
InsertOTP - Error -FAROOQUE.ALI@REDINGTON.CO.IN
-----------------------------------------------------------------------------------------------------
2/8/2022 1:27:00 PM
SendOTP - SUCCESS -FAROOQUE.ALI@REDINGTON.CO.IN
-----------------------------------------------------------------------------------------------------
2/8/2022 1:27:34 PM
SendOTP - START -FAROOQUE.ALI@REDINGTON.CO.IN
-----------------------------------------------------------------------------------------------------
2/8/2022 1:27:41 PM
CheckMail - START -FAROOQUE.ALI@REDINGTON.CO.IN
-----------------------------------------------------------------------------------------------------
2/8/2022 1:28:11 PM
InsertOTP - START -
-----------------------------------------------------------------------------------------------------
2/8/2022 1:28:58 PM
SendOTP - START -FAROOQUE.ALI@REDINGTON.CO.IN
-----------------------------------------------------------------------------------------------------
2/8/2022 1:28:58 PM
CheckMail - START -FAROOQUE.ALI@REDINGTON.CO.IN
-----------------------------------------------------------------------------------------------------
2/8/2022 1:29:13 PM
InsertOTP - START -
-----------------------------------------------------------------------------------------------------
2/8/2022 1:29:13 PM
InsertOTP - Success -FAROOQUE.ALI@REDINGTON.CO.IN
-----------------------------------------------------------------------------------------------------
2/8/2022 1:29:13 PM
SendOTP - SUCCESS -FAROOQUE.ALI@REDINGTON.CO.IN
-----------------------------------------------------------------------------------------------------
2/8/2022 1:29:28 PM
SendOTP - START -FAROOQUE.ALI@REDINGTON.CO.IN
-----------------------------------------------------------------------------------------------------
2/8/2022 1:29:28 PM
CheckMail - START -FAROOQUE.ALI@REDINGTON.CO.IN
-----------------------------------------------------------------------------------------------------
2/8/2022 1:29:31 PM
InsertOTP - START -
-----------------------------------------------------------------------------------------------------
2/8/2022 1:29:38 PM
InsertOTP - Success -FAROOQUE.ALI@REDINGTON.CO.IN
-----------------------------------------------------------------------------------------------------
2/8/2022 1:29:56 PM
SendOTP - SUCCESS -FAROOQUE.ALI@REDINGTON.CO.IN
-----------------------------------------------------------------------------------------------------
2/8/2022 1:30:18 PM
ValidateOTP - START -FAROOQUE.ALI@REDINGTON.CO.IN
-----------------------------------------------------------------------------------------------------
2/8/2022 1:30:30 PM
GetOTPData - START -FAROOQUE.ALI@REDINGTON.CO.IN
-----------------------------------------------------------------------------------------------------
2/8/2022 1:30:43 PM
GetOTPData - Success -FAROOQUE.ALI@REDINGTON.CO.IN
-----------------------------------------------------------------------------------------------------
2/8/2022 1:30:55 PM
ValidateOTP - SUCCESS -FAROOQUE.ALI@REDINGTON.CO.IN
-----------------------------------------------------------------------------------------------------
2/8/2022 1:31:44 PM
ValidateOTP - START -FAROOQUE.ALI@REDINGTON.CO.IN
-----------------------------------------------------------------------------------------------------
2/8/2022 1:31:45 PM
GetOTPData - START -FAROOQUE.ALI@REDINGTON.CO.IN
-----------------------------------------------------------------------------------------------------
2/8/2022 1:31:45 PM
GetOTPData - Success -FAROOQUE.ALI@REDINGTON.CO.IN
-----------------------------------------------------------------------------------------------------
2/8/2022 1:31:45 PM
ValidateOTP - SUCCESS -FAROOQUE.ALI@REDINGTON.CO.IN
-----------------------------------------------------------------------------------------------------
2/8/2022 1:33:32 PM
SendOTP - START -FAROOQUE.ALI@REDINGTON.CO.IN
-----------------------------------------------------------------------------------------------------
2/8/2022 1:33:32 PM
CheckMail - START -FAROOQUE.ALI@REDINGTON.CO.IN
-----------------------------------------------------------------------------------------------------
2/8/2022 1:33:38 PM
InsertOTP - START -
-----------------------------------------------------------------------------------------------------
2/8/2022 1:33:38 PM
InsertOTP - Success -FAROOQUE.ALI@REDINGTON.CO.IN
-----------------------------------------------------------------------------------------------------
2/8/2022 1:33:38 PM
SendOTP - SUCCESS -FAROOQUE.ALI@REDINGTON.CO.IN
-----------------------------------------------------------------------------------------------------
2/8/2022 1:34:08 PM
ValidateOTP - START -FAROOQUE.ALI@REDINGTON.CO.IN
-----------------------------------------------------------------------------------------------------
2/8/2022 1:34:09 PM
GetOTPData - START -FAROOQUE.ALI@REDINGTON.CO.IN
-----------------------------------------------------------------------------------------------------
2/8/2022 1:34:09 PM
GetOTPData - Success -FAROOQUE.ALI@REDINGTON.CO.IN
-----------------------------------------------------------------------------------------------------
2/8/2022 1:34:09 PM
ValidateOTP - SUCCESS -FAROOQUE.ALI@REDINGTON.CO.IN
-----------------------------------------------------------------------------------------------------
2/8/2022 1:35:20 PM
SendOTP - START -FAROOQUE.ALI@REDINGTON.CO.IN
-----------------------------------------------------------------------------------------------------
2/8/2022 1:35:20 PM
CheckMail - START -FAROOQUE.ALI@REDINGTON.CO.IN
-----------------------------------------------------------------------------------------------------
2/8/2022 1:35:22 PM
InsertOTP - START -
-----------------------------------------------------------------------------------------------------
2/8/2022 1:35:23 PM
InsertOTP - Success -FAROOQUE.ALI@REDINGTON.CO.IN
-----------------------------------------------------------------------------------------------------
2/8/2022 1:35:23 PM
SendOTP - SUCCESS -FAROOQUE.ALI@REDINGTON.CO.IN
-----------------------------------------------------------------------------------------------------
2/8/2022 1:35:58 PM
ValidateOTP - START -FAROOQUE.ALI@REDINGTON.CO.IN
-----------------------------------------------------------------------------------------------------
2/8/2022 1:36:07 PM
GetOTPData - START -FAROOQUE.ALI@REDINGTON.CO.IN
-----------------------------------------------------------------------------------------------------
2/8/2022 1:36:07 PM
GetOTPData - Success -FAROOQUE.ALI@REDINGTON.CO.IN
-----------------------------------------------------------------------------------------------------
2/8/2022 1:36:07 PM
ValidateOTP - SUCCESS -FAROOQUE.ALI@REDINGTON.CO.IN
-----------------------------------------------------------------------------------------------------
2/8/2022 1:39:55 PM
SendOTP - START -FAROOQUE.ALI@REDINGTON.CO.IN
-----------------------------------------------------------------------------------------------------
2/8/2022 1:39:55 PM
CheckMail - START -FAROOQUE.ALI@REDINGTON.CO.IN
-----------------------------------------------------------------------------------------------------
2/8/2022 1:40:06 PM
InsertOTP - START -
-----------------------------------------------------------------------------------------------------
2/8/2022 1:40:07 PM
InsertOTP - Success -FAROOQUE.ALI@REDINGTON.CO.IN
-----------------------------------------------------------------------------------------------------
2/8/2022 1:40:07 PM
SendOTP - SUCCESS -FAROOQUE.ALI@REDINGTON.CO.IN
-----------------------------------------------------------------------------------------------------
2/8/2022 1:40:35 PM
ValidateOTP - START -FAROOQUE.ALI@REDINGTON.CO.IN
-----------------------------------------------------------------------------------------------------
2/8/2022 1:40:36 PM
GetOTPData - START -FAROOQUE.ALI@REDINGTON.CO.IN
-----------------------------------------------------------------------------------------------------
2/8/2022 1:40:36 PM
GetOTPData - Success -FAROOQUE.ALI@REDINGTON.CO.IN
-----------------------------------------------------------------------------------------------------
2/8/2022 1:40:36 PM
ValidateOTP - SUCCESS -FAROOQUE.ALI@REDINGTON.CO.IN
-----------------------------------------------------------------------------------------------------
2/8/2022 1:44:48 PM
SendOTP - START -FAROOQUE.ALI@REDINGTON.CO.IN
-----------------------------------------------------------------------------------------------------
2/8/2022 1:44:48 PM
CheckMail - START -FAROOQUE.ALI@REDINGTON.CO.IN
-----------------------------------------------------------------------------------------------------
2/8/2022 1:44:50 PM
InsertOTP - START -
-----------------------------------------------------------------------------------------------------
2/8/2022 1:44:52 PM
InsertOTP - Success -FAROOQUE.ALI@REDINGTON.CO.IN
-----------------------------------------------------------------------------------------------------
2/8/2022 1:44:52 PM
SendOTP - SUCCESS -FAROOQUE.ALI@REDINGTON.CO.IN
-----------------------------------------------------------------------------------------------------
2/8/2022 1:45:24 PM
ValidateOTP - START -FAROOQUE.ALI@REDINGTON.CO.IN
-----------------------------------------------------------------------------------------------------
2/8/2022 1:45:27 PM
GetOTPData - START -FAROOQUE.ALI@REDINGTON.CO.IN
-----------------------------------------------------------------------------------------------------
2/8/2022 1:45:27 PM
GetOTPData - Success -FAROOQUE.ALI@REDINGTON.CO.IN
-----------------------------------------------------------------------------------------------------
2/8/2022 1:45:27 PM
ValidateOTP - SUCCESS -FAROOQUE.ALI@REDINGTON.CO.IN
-----------------------------------------------------------------------------------------------------
2/8/2022 1:46:35 PM
SendOTP - START -FAROOQUE.ALI@REDINGTON.CO.IN
-----------------------------------------------------------------------------------------------------
2/8/2022 1:46:35 PM
CheckMail - START -FAROOQUE.ALI@REDINGTON.CO.IN
-----------------------------------------------------------------------------------------------------
2/8/2022 1:46:40 PM
InsertOTP - START -
-----------------------------------------------------------------------------------------------------
2/8/2022 1:46:40 PM
InsertOTP - Success -FAROOQUE.ALI@REDINGTON.CO.IN
-----------------------------------------------------------------------------------------------------
2/8/2022 1:46:40 PM
SendOTP - SUCCESS -FAROOQUE.ALI@REDINGTON.CO.IN
-----------------------------------------------------------------------------------------------------
2/8/2022 1:47:32 PM
ValidateOTP - START -FAROOQUE.ALI@REDINGTON.CO.IN
-----------------------------------------------------------------------------------------------------
2/8/2022 1:47:33 PM
GetOTPData - START -FAROOQUE.ALI@REDINGTON.CO.IN
-----------------------------------------------------------------------------------------------------
2/8/2022 1:47:34 PM
GetOTPData - Success -FAROOQUE.ALI@REDINGTON.CO.IN
-----------------------------------------------------------------------------------------------------
2/8/2022 1:47:34 PM
ValidateOTP - SUCCESS -FAROOQUE.ALI@REDINGTON.CO.IN
-----------------------------------------------------------------------------------------------------
2/8/2022 1:54:13 PM
SendOTP - START -FAROOQUE.ALI@REDINGTON.CO.IN
-----------------------------------------------------------------------------------------------------
2/8/2022 1:54:13 PM
CheckMail - START -FAROOQUE.ALI@REDINGTON.CO.IN
-----------------------------------------------------------------------------------------------------
2/8/2022 1:54:16 PM
InsertOTP - START -
-----------------------------------------------------------------------------------------------------
2/8/2022 1:54:17 PM
InsertOTP - Success -FAROOQUE.ALI@REDINGTON.CO.IN
-----------------------------------------------------------------------------------------------------
2/8/2022 1:54:17 PM
SendOTP - SUCCESS -FAROOQUE.ALI@REDINGTON.CO.IN
-----------------------------------------------------------------------------------------------------
2/8/2022 1:54:41 PM
ValidateOTP - START -FAROOQUE.ALI@REDINGTON.CO.IN
-----------------------------------------------------------------------------------------------------
2/8/2022 1:54:45 PM
GetOTPData - START -FAROOQUE.ALI@REDINGTON.CO.IN
-----------------------------------------------------------------------------------------------------
2/8/2022 1:54:45 PM
GetOTPData - Success -FAROOQUE.ALI@REDINGTON.CO.IN
-----------------------------------------------------------------------------------------------------
2/8/2022 1:55:03 PM
ValidateOTP - SUCCESS -FAROOQUE.ALI@REDINGTON.CO.IN
-----------------------------------------------------------------------------------------------------
2/8/2022 2:30:42 PM
SendOTP - START -FAROOQUE.ALI@REDINGTON.CO.IN
-----------------------------------------------------------------------------------------------------
2/8/2022 2:30:42 PM
CheckMail - START -FAROOQUE.ALI@REDINGTON.CO.IN
-----------------------------------------------------------------------------------------------------
2/8/2022 2:30:45 PM
InsertOTP - START -
-----------------------------------------------------------------------------------------------------
2/8/2022 2:30:45 PM
InsertOTP - Success -FAROOQUE.ALI@REDINGTON.CO.IN
-----------------------------------------------------------------------------------------------------
2/8/2022 2:30:45 PM
SendOTP - SUCCESS -FAROOQUE.ALI@REDINGTON.CO.IN
-----------------------------------------------------------------------------------------------------
2/8/2022 2:31:10 PM
ValidateOTP - START -FAROOQUE.ALI@REDINGTON.CO.IN
-----------------------------------------------------------------------------------------------------
2/8/2022 2:31:11 PM
GetOTPData - START -FAROOQUE.ALI@REDINGTON.CO.IN
-----------------------------------------------------------------------------------------------------
2/8/2022 2:31:11 PM
GetOTPData - Success -FAROOQUE.ALI@REDINGTON.CO.IN
-----------------------------------------------------------------------------------------------------
2/8/2022 2:31:11 PM
ValidateOTP - SUCCESS -FAROOQUE.ALI@REDINGTON.CO.IN
-----------------------------------------------------------------------------------------------------
2/8/2022 2:33:18 PM
SendOTP - START -FAROOQUE.ALI@REDINGTON.CO.IN
-----------------------------------------------------------------------------------------------------
2/8/2022 2:33:18 PM
CheckMail - START -FAROOQUE.ALI@REDINGTON.CO.IN
-----------------------------------------------------------------------------------------------------
2/8/2022 2:33:21 PM
InsertOTP - START -
-----------------------------------------------------------------------------------------------------
2/8/2022 2:33:21 PM
InsertOTP - Success -FAROOQUE.ALI@REDINGTON.CO.IN
-----------------------------------------------------------------------------------------------------
2/8/2022 2:33:21 PM
SendOTP - SUCCESS -FAROOQUE.ALI@REDINGTON.CO.IN
-----------------------------------------------------------------------------------------------------
2/8/2022 2:33:45 PM
ValidateOTP - START -FAROOQUE.ALI@REDINGTON.CO.IN
-----------------------------------------------------------------------------------------------------
2/8/2022 2:33:46 PM
GetOTPData - START -FAROOQUE.ALI@REDINGTON.CO.IN
-----------------------------------------------------------------------------------------------------
2/8/2022 2:33:46 PM
GetOTPData - Success -FAROOQUE.ALI@REDINGTON.CO.IN
-----------------------------------------------------------------------------------------------------
2/8/2022 2:33:46 PM
ValidateOTP - SUCCESS -FAROOQUE.ALI@REDINGTON.CO.IN
-----------------------------------------------------------------------------------------------------
2/8/2022 2:34:40 PM
SendOTP - START -FAROOQUE.ALI@REDINGTON.CO.IN
-----------------------------------------------------------------------------------------------------
2/8/2022 2:34:40 PM
CheckMail - START -FAROOQUE.ALI@REDINGTON.CO.IN
-----------------------------------------------------------------------------------------------------
2/8/2022 2:34:43 PM
InsertOTP - START -
-----------------------------------------------------------------------------------------------------
2/8/2022 2:34:43 PM
InsertOTP - Success -FAROOQUE.ALI@REDINGTON.CO.IN
-----------------------------------------------------------------------------------------------------
2/8/2022 2:34:43 PM
SendOTP - SUCCESS -FAROOQUE.ALI@REDINGTON.CO.IN
-----------------------------------------------------------------------------------------------------
2/8/2022 2:35:11 PM
ValidateOTP - START -FAROOQUE.ALI@REDINGTON.CO.IN
-----------------------------------------------------------------------------------------------------
2/8/2022 2:35:11 PM
GetOTPData - START -FAROOQUE.ALI@REDINGTON.CO.IN
-----------------------------------------------------------------------------------------------------
2/8/2022 2:35:12 PM
GetOTPData - Success -FAROOQUE.ALI@REDINGTON.CO.IN
-----------------------------------------------------------------------------------------------------
2/8/2022 2:35:12 PM
ValidateOTP - SUCCESS -FAROOQUE.ALI@REDINGTON.CO.IN
-----------------------------------------------------------------------------------------------------
2/8/2022 2:44:14 PM
SendOTP - START -FAROOQUE.ALI@REDINGTON.CO.IN
-----------------------------------------------------------------------------------------------------
2/8/2022 2:44:14 PM
CheckMail - START -FAROOQUE.ALI@REDINGTON.CO.IN
-----------------------------------------------------------------------------------------------------
2/8/2022 2:44:21 PM
InsertOTP - START -
-----------------------------------------------------------------------------------------------------
2/8/2022 2:44:23 PM
InsertOTP - Success -FAROOQUE.ALI@REDINGTON.CO.IN
-----------------------------------------------------------------------------------------------------
2/8/2022 2:44:23 PM
SendOTP - SUCCESS -FAROOQUE.ALI@REDINGTON.CO.IN
-----------------------------------------------------------------------------------------------------
2/8/2022 2:44:50 PM
ValidateOTP - START -FAROOQUE.ALI@REDINGTON.CO.IN
-----------------------------------------------------------------------------------------------------
2/8/2022 2:44:51 PM
GetOTPData - START -FAROOQUE.ALI@REDINGTON.CO.IN
-----------------------------------------------------------------------------------------------------
2/8/2022 2:44:53 PM
GetOTPData - Success -FAROOQUE.ALI@REDINGTON.CO.IN
-----------------------------------------------------------------------------------------------------
2/8/2022 2:44:53 PM
ValidateOTP - SUCCESS -FAROOQUE.ALI@REDINGTON.CO.IN
-----------------------------------------------------------------------------------------------------
2/8/2022 2:45:46 PM
SendOTP - START -FAROOQUE.ALI@REDINGTON.CO.IN
-----------------------------------------------------------------------------------------------------
2/8/2022 2:45:46 PM
CheckMail - START -FAROOQUE.ALI@REDINGTON.CO.IN
-----------------------------------------------------------------------------------------------------
2/8/2022 2:45:48 PM
InsertOTP - START -
-----------------------------------------------------------------------------------------------------
2/8/2022 2:45:49 PM
InsertOTP - Success -FAROOQUE.ALI@REDINGTON.CO.IN
-----------------------------------------------------------------------------------------------------
2/8/2022 2:45:49 PM
SendOTP - SUCCESS -FAROOQUE.ALI@REDINGTON.CO.IN
-----------------------------------------------------------------------------------------------------
2/8/2022 2:46:17 PM
ValidateOTP - START -FAROOQUE.ALI@REDINGTON.CO.IN
-----------------------------------------------------------------------------------------------------
2/8/2022 2:46:18 PM
GetOTPData - START -FAROOQUE.ALI@REDINGTON.CO.IN
-----------------------------------------------------------------------------------------------------
2/8/2022 2:46:18 PM
GetOTPData - Success -FAROOQUE.ALI@REDINGTON.CO.IN
-----------------------------------------------------------------------------------------------------
2/8/2022 2:46:18 PM
ValidateOTP - SUCCESS -FAROOQUE.ALI@REDINGTON.CO.IN
-----------------------------------------------------------------------------------------------------
2/8/2022 2:49:26 PM
SendOTP - START -FAROOQUE.ALI@REDINGTON.CO.IN
-----------------------------------------------------------------------------------------------------
2/8/2022 2:49:26 PM
CheckMail - START -FAROOQUE.ALI@REDINGTON.CO.IN
-----------------------------------------------------------------------------------------------------
2/8/2022 2:49:29 PM
InsertOTP - START -
-----------------------------------------------------------------------------------------------------
2/8/2022 2:49:29 PM
InsertOTP - Success -FAROOQUE.ALI@REDINGTON.CO.IN
-----------------------------------------------------------------------------------------------------
2/8/2022 2:49:29 PM
SendOTP - SUCCESS -FAROOQUE.ALI@REDINGTON.CO.IN
-----------------------------------------------------------------------------------------------------
2/8/2022 2:49:52 PM
ValidateOTP - START -FAROOQUE.ALI@REDINGTON.CO.IN
-----------------------------------------------------------------------------------------------------
2/8/2022 2:49:54 PM
GetOTPData - START -FAROOQUE.ALI@REDINGTON.CO.IN
-----------------------------------------------------------------------------------------------------
2/8/2022 2:49:54 PM
GetOTPData - Success -FAROOQUE.ALI@REDINGTON.CO.IN
-----------------------------------------------------------------------------------------------------
2/8/2022 2:49:54 PM
ValidateOTP - SUCCESS -FAROOQUE.ALI@REDINGTON.CO.IN
-----------------------------------------------------------------------------------------------------
2/8/2022 3:18:26 PM
SendOTP - START -FAROOQUE.ALI@REDINGTON.CO.IN
-----------------------------------------------------------------------------------------------------
2/8/2022 3:18:26 PM
CheckMail - START -FAROOQUE.ALI@REDINGTON.CO.IN
-----------------------------------------------------------------------------------------------------
2/8/2022 3:18:28 PM
InsertOTP - START -
-----------------------------------------------------------------------------------------------------
2/8/2022 3:18:28 PM
InsertOTP - Success -FAROOQUE.ALI@REDINGTON.CO.IN
-----------------------------------------------------------------------------------------------------
2/8/2022 3:18:28 PM
SendOTP - SUCCESS -FAROOQUE.ALI@REDINGTON.CO.IN
-----------------------------------------------------------------------------------------------------
2/8/2022 3:18:55 PM
ValidateOTP - START -FAROOQUE.ALI@REDINGTON.CO.IN
-----------------------------------------------------------------------------------------------------
2/8/2022 3:18:56 PM
GetOTPData - START -FAROOQUE.ALI@REDINGTON.CO.IN
-----------------------------------------------------------------------------------------------------
2/8/2022 3:18:56 PM
GetOTPData - Success -FAROOQUE.ALI@REDINGTON.CO.IN
-----------------------------------------------------------------------------------------------------
2/8/2022 3:18:56 PM
ValidateOTP - SUCCESS -FAROOQUE.ALI@REDINGTON.CO.IN
-----------------------------------------------------------------------------------------------------
2/8/2022 3:21:21 PM
SendOTP - START -FAROOQUE.ALI@REDINGTON.CO.IN
-----------------------------------------------------------------------------------------------------
2/8/2022 3:21:21 PM
CheckMail - START -FAROOQUE.ALI@REDINGTON.CO.IN
-----------------------------------------------------------------------------------------------------
2/8/2022 3:21:25 PM
InsertOTP - START -
-----------------------------------------------------------------------------------------------------
2/8/2022 3:21:26 PM
InsertOTP - Success -FAROOQUE.ALI@REDINGTON.CO.IN
-----------------------------------------------------------------------------------------------------
2/8/2022 3:21:26 PM
SendOTP - SUCCESS -FAROOQUE.ALI@REDINGTON.CO.IN
-----------------------------------------------------------------------------------------------------
2/8/2022 3:22:00 PM
ValidateOTP - START -FAROOQUE.ALI@REDINGTON.CO.IN
-----------------------------------------------------------------------------------------------------
2/8/2022 3:22:01 PM
GetOTPData - START -FAROOQUE.ALI@REDINGTON.CO.IN
-----------------------------------------------------------------------------------------------------
2/8/2022 3:22:01 PM
GetOTPData - Success -FAROOQUE.ALI@REDINGTON.CO.IN
-----------------------------------------------------------------------------------------------------
2/8/2022 3:24:30 PM
Request URL => http://localhost:50246/Order/OrderHistory
-----------------------------------------------------------------------------------------------------
2/8/2022 3:27:10 PM
SendOTP - START -FAROOQUE.ALI@REDINGTON.CO.IN
-----------------------------------------------------------------------------------------------------
2/8/2022 3:27:10 PM
CheckMail - START -FAROOQUE.ALI@REDINGTON.CO.IN
-----------------------------------------------------------------------------------------------------
2/8/2022 3:27:14 PM
InsertOTP - START -
-----------------------------------------------------------------------------------------------------
2/8/2022 3:27:14 PM
InsertOTP - Success -FAROOQUE.ALI@REDINGTON.CO.IN
-----------------------------------------------------------------------------------------------------
2/8/2022 3:27:14 PM
SendOTP - SUCCESS -FAROOQUE.ALI@REDINGTON.CO.IN
-----------------------------------------------------------------------------------------------------
2/8/2022 3:27:39 PM
ValidateOTP - START -FAROOQUE.ALI@REDINGTON.CO.IN
-----------------------------------------------------------------------------------------------------
2/8/2022 3:27:40 PM
GetOTPData - START -FAROOQUE.ALI@REDINGTON.CO.IN
-----------------------------------------------------------------------------------------------------
2/8/2022 3:27:40 PM
GetOTPData - Success -FAROOQUE.ALI@REDINGTON.CO.IN
-----------------------------------------------------------------------------------------------------
2/8/2022 3:29:39 PM
SendOTP - START -FAROOQUE.ALI@REDINGTON.CO.IN
-----------------------------------------------------------------------------------------------------
2/8/2022 3:29:39 PM
CheckMail - START -FAROOQUE.ALI@REDINGTON.CO.IN
-----------------------------------------------------------------------------------------------------
2/8/2022 3:29:42 PM
InsertOTP - START -
-----------------------------------------------------------------------------------------------------
2/8/2022 3:29:43 PM
InsertOTP - Success -FAROOQUE.ALI@REDINGTON.CO.IN
-----------------------------------------------------------------------------------------------------
2/8/2022 3:29:43 PM
SendOTP - SUCCESS -FAROOQUE.ALI@REDINGTON.CO.IN
-----------------------------------------------------------------------------------------------------
2/8/2022 3:30:06 PM
ValidateOTP - START -FAROOQUE.ALI@REDINGTON.CO.IN
-----------------------------------------------------------------------------------------------------
2/8/2022 3:30:06 PM
GetOTPData - START -FAROOQUE.ALI@REDINGTON.CO.IN
-----------------------------------------------------------------------------------------------------
2/8/2022 3:30:06 PM
GetOTPData - Success -FAROOQUE.ALI@REDINGTON.CO.IN
-----------------------------------------------------------------------------------------------------
2/8/2022 3:30:06 PM
ValidateOTP - SUCCESS -FAROOQUE.ALI@REDINGTON.CO.IN
-----------------------------------------------------------------------------------------------------
2/8/2022 3:32:59 PM
SendOTP - START -FAROOQUE.ALI@REDINGTON.CO.IN
-----------------------------------------------------------------------------------------------------
2/8/2022 3:32:59 PM
CheckMail - START -FAROOQUE.ALI@REDINGTON.CO.IN
-----------------------------------------------------------------------------------------------------
2/8/2022 3:33:01 PM
InsertOTP - START -
-----------------------------------------------------------------------------------------------------
2/8/2022 3:33:01 PM
InsertOTP - Success -FAROOQUE.ALI@REDINGTON.CO.IN
-----------------------------------------------------------------------------------------------------
2/8/2022 3:33:01 PM
SendOTP - SUCCESS -FAROOQUE.ALI@REDINGTON.CO.IN
-----------------------------------------------------------------------------------------------------
2/8/2022 3:33:26 PM
ValidateOTP - START -FAROOQUE.ALI@REDINGTON.CO.IN
-----------------------------------------------------------------------------------------------------
2/8/2022 3:33:27 PM
GetOTPData - START -FAROOQUE.ALI@REDINGTON.CO.IN
-----------------------------------------------------------------------------------------------------
2/8/2022 3:33:27 PM
GetOTPData - Success -FAROOQUE.ALI@REDINGTON.CO.IN
-----------------------------------------------------------------------------------------------------
2/8/2022 3:33:27 PM
ValidateOTP - SUCCESS -FAROOQUE.ALI@REDINGTON.CO.IN
-----------------------------------------------------------------------------------------------------
2/8/2022 3:35:18 PM
SendOTP - START -FAROOQUE.ALI@REDINGTON.CO.IN
-----------------------------------------------------------------------------------------------------
2/8/2022 3:35:18 PM
CheckMail - START -FAROOQUE.ALI@REDINGTON.CO.IN
-----------------------------------------------------------------------------------------------------
2/8/2022 3:35:21 PM
InsertOTP - START -
-----------------------------------------------------------------------------------------------------
2/8/2022 3:35:21 PM
InsertOTP - Success -FAROOQUE.ALI@REDINGTON.CO.IN
-----------------------------------------------------------------------------------------------------
2/8/2022 3:35:21 PM
SendOTP - SUCCESS -FAROOQUE.ALI@REDINGTON.CO.IN
-----------------------------------------------------------------------------------------------------
2/8/2022 3:35:52 PM
ValidateOTP - START -FAROOQUE.ALI@REDINGTON.CO.IN
-----------------------------------------------------------------------------------------------------
2/8/2022 3:35:52 PM
GetOTPData - START -FAROOQUE.ALI@REDINGTON.CO.IN
-----------------------------------------------------------------------------------------------------
2/8/2022 3:35:52 PM
GetOTPData - Success -FAROOQUE.ALI@REDINGTON.CO.IN
-----------------------------------------------------------------------------------------------------
2/8/2022 3:35:52 PM
ValidateOTP - SUCCESS -FAROOQUE.ALI@REDINGTON.CO.IN
-----------------------------------------------------------------------------------------------------
2/8/2022 3:41:21 PM
SendOTP - START -FAROOQUE.ALI@REDINGTON.CO.IN
-----------------------------------------------------------------------------------------------------
2/8/2022 3:41:21 PM
CheckMail - START -FAROOQUE.ALI@REDINGTON.CO.IN
-----------------------------------------------------------------------------------------------------
2/8/2022 3:41:24 PM
InsertOTP - START -
-----------------------------------------------------------------------------------------------------
2/8/2022 3:41:24 PM
InsertOTP - Success -FAROOQUE.ALI@REDINGTON.CO.IN
-----------------------------------------------------------------------------------------------------
2/8/2022 3:41:24 PM
SendOTP - SUCCESS -FAROOQUE.ALI@REDINGTON.CO.IN
-----------------------------------------------------------------------------------------------------
2/8/2022 3:41:45 PM
ValidateOTP - START -FAROOQUE.ALI@REDINGTON.CO.IN
-----------------------------------------------------------------------------------------------------
2/8/2022 3:41:46 PM
GetOTPData - START -FAROOQUE.ALI@REDINGTON.CO.IN
-----------------------------------------------------------------------------------------------------
2/8/2022 3:41:46 PM
GetOTPData - Success -FAROOQUE.ALI@REDINGTON.CO.IN
-----------------------------------------------------------------------------------------------------
2/8/2022 3:41:46 PM
ValidateOTP - SUCCESS -FAROOQUE.ALI@REDINGTON.CO.IN
-----------------------------------------------------------------------------------------------------
2/8/2022 3:42:00 PM
Request URL => http://localhost:50246/Order/OrderHistory
-----------------------------------------------------------------------------------------------------
2/8/2022 3:49:37 PM
SendOTP - START -FAROOQUE.ALI@REDINGTON.CO.IN
-----------------------------------------------------------------------------------------------------
2/8/2022 3:49:37 PM
CheckMail - START -FAROOQUE.ALI@REDINGTON.CO.IN
-----------------------------------------------------------------------------------------------------
2/8/2022 3:49:39 PM
InsertOTP - START -
-----------------------------------------------------------------------------------------------------
2/8/2022 3:49:40 PM
InsertOTP - Success -FAROOQUE.ALI@REDINGTON.CO.IN
-----------------------------------------------------------------------------------------------------
2/8/2022 3:49:40 PM
SendOTP - SUCCESS -FAROOQUE.ALI@REDINGTON.CO.IN
-----------------------------------------------------------------------------------------------------
2/8/2022 3:50:06 PM
ValidateOTP - START -FAROOQUE.ALI@REDINGTON.CO.IN
-----------------------------------------------------------------------------------------------------
2/8/2022 3:50:07 PM
GetOTPData - START -FAROOQUE.ALI@REDINGTON.CO.IN
-----------------------------------------------------------------------------------------------------
2/8/2022 3:50:07 PM
GetOTPData - Success -FAROOQUE.ALI@REDINGTON.CO.IN
-----------------------------------------------------------------------------------------------------
2/8/2022 3:50:07 PM
ValidateOTP - SUCCESS -FAROOQUE.ALI@REDINGTON.CO.IN
-----------------------------------------------------------------------------------------------------
2/8/2022 3:50:11 PM
Request URL => http://localhost:50246/Order/OrderHistory
-----------------------------------------------------------------------------------------------------
2/8/2022 3:50:31 PM
Request URL => http://localhost:50246/Order/OrderHistory
-----------------------------------------------------------------------------------------------------
2/8/2022 3:54:15 PM
SendOTP - START -FAROOQUE.ALI@REDINGTON.CO.IN
-----------------------------------------------------------------------------------------------------
2/8/2022 3:54:15 PM
CheckMail - START -FAROOQUE.ALI@REDINGTON.CO.IN
-----------------------------------------------------------------------------------------------------
2/8/2022 3:54:22 PM
InsertOTP - START -
-----------------------------------------------------------------------------------------------------
2/8/2022 3:54:22 PM
InsertOTP - Success -FAROOQUE.ALI@REDINGTON.CO.IN
-----------------------------------------------------------------------------------------------------
2/8/2022 3:54:22 PM
SendOTP - SUCCESS -FAROOQUE.ALI@REDINGTON.CO.IN
-----------------------------------------------------------------------------------------------------
2/8/2022 3:54:44 PM
ValidateOTP - START -FAROOQUE.ALI@REDINGTON.CO.IN
-----------------------------------------------------------------------------------------------------
2/8/2022 3:54:45 PM
GetOTPData - START -FAROOQUE.ALI@REDINGTON.CO.IN
-----------------------------------------------------------------------------------------------------
2/8/2022 3:54:45 PM
GetOTPData - Success -FAROOQUE.ALI@REDINGTON.CO.IN
-----------------------------------------------------------------------------------------------------
2/8/2022 3:54:45 PM
ValidateOTP - SUCCESS -FAROOQUE.ALI@REDINGTON.CO.IN
-----------------------------------------------------------------------------------------------------
2/8/2022 5:38:46 PM
SendOTP - START -accounts@netcon.in
-----------------------------------------------------------------------------------------------------
2/8/2022 5:38:46 PM
CheckMail - START -accounts@netcon.in
-----------------------------------------------------------------------------------------------------
2/8/2022 5:38:46 PM
CheckEmailSAP - Success -ACCOUNTS@NETCON.IN
-----------------------------------------------------------------------------------------------------
2/8/2022 5:38:46 PM
SendOTP - SUCCESS -accounts@netcon.in
-----------------------------------------------------------------------------------------------------
2/8/2022 5:39:05 PM
SendOTP - START -accounts@netcon.in
-----------------------------------------------------------------------------------------------------
2/8/2022 5:39:05 PM
CheckMail - START -accounts@netcon.in
-----------------------------------------------------------------------------------------------------
2/8/2022 5:39:05 PM
CheckEmailSAP - Success -ACCOUNTS@NETCON.IN
-----------------------------------------------------------------------------------------------------
2/8/2022 5:39:05 PM
SendOTP - SUCCESS -accounts@netcon.in
-----------------------------------------------------------------------------------------------------
2/8/2022 5:39:19 PM
SendOTP - START -accounts@netcon.in
-----------------------------------------------------------------------------------------------------
2/8/2022 5:39:23 PM
CheckMail - START -accounts@netcon.in
-----------------------------------------------------------------------------------------------------
2/8/2022 5:39:31 PM
CheckEmailSAP - Success -ACCOUNTS@NETCON.IN
-----------------------------------------------------------------------------------------------------
2/8/2022 5:39:52 PM
SendOTP - SUCCESS -accounts@netcon.in
-----------------------------------------------------------------------------------------------------
2/8/2022 5:40:31 PM
CheckMail - START -accounts@netcon.in
-----------------------------------------------------------------------------------------------------
2/8/2022 5:40:38 PM
CheckEmailSAP - Success -ACCOUNTS@NETCON.IN
-----------------------------------------------------------------------------------------------------
2/8/2022 5:41:02 PM
SendOTP - SUCCESS -accounts@netcon.in
-----------------------------------------------------------------------------------------------------
2/8/2022 5:42:13 PM
SendOTP - START -accounts@netcon.in
-----------------------------------------------------------------------------------------------------
2/8/2022 5:42:16 PM
CheckMail - START -accounts@netcon.in
-----------------------------------------------------------------------------------------------------
2/8/2022 5:42:18 PM
CheckEmailSAP - Success -ACCOUNTS@NETCON.IN
-----------------------------------------------------------------------------------------------------
2/8/2022 5:42:22 PM
SendOTP - SUCCESS -accounts@netcon.in
-----------------------------------------------------------------------------------------------------
2/8/2022 5:43:35 PM
SendOTP - START -ACCOUNTS@NETCON.IN
-----------------------------------------------------------------------------------------------------
2/8/2022 5:43:35 PM
CheckMail - START -ACCOUNTS@NETCON.IN
-----------------------------------------------------------------------------------------------------
2/8/2022 5:43:35 PM
CheckEmailSAP - Success -ACCOUNTS@NETCON.IN
-----------------------------------------------------------------------------------------------------
2/8/2022 5:43:35 PM
SendOTP - SUCCESS -ACCOUNTS@NETCON.IN
-----------------------------------------------------------------------------------------------------
2/8/2022 5:43:42 PM
InsertOTP - START -
-----------------------------------------------------------------------------------------------------
2/8/2022 5:43:47 PM
InsertOTP - Success -ACCOUNTS@NETCON.IN
-----------------------------------------------------------------------------------------------------
2/8/2022 5:43:52 PM
SendOTP - SUCCESS -ACCOUNTS@NETCON.IN
-----------------------------------------------------------------------------------------------------
2/8/2022 5:45:05 PM
ValidateOTP - START -ACCOUNTS@NETCON.IN
-----------------------------------------------------------------------------------------------------
2/8/2022 5:45:07 PM
GetOTPData - START -ACCOUNTS@NETCON.IN
-----------------------------------------------------------------------------------------------------
2/8/2022 5:45:07 PM
GetOTPData - Success -ACCOUNTS@NETCON.IN
-----------------------------------------------------------------------------------------------------
2/8/2022 5:45:13 PM
ValidateOTP - SUCCESS -ACCOUNTS@NETCON.IN
-----------------------------------------------------------------------------------------------------
2/8/2022 5:58:38 PM
SendOTP - START -accounts@netcon.in
-----------------------------------------------------------------------------------------------------
2/8/2022 5:58:38 PM
CheckMail - START -accounts@netcon.in
-----------------------------------------------------------------------------------------------------
2/8/2022 5:58:42 PM
CheckEmailSAP - Success -ACCOUNTS@NETCON.IN
-----------------------------------------------------------------------------------------------------
2/8/2022 5:58:42 PM
SendOTP - SUCCESS -accounts@netcon.in
-----------------------------------------------------------------------------------------------------
2/8/2022 5:58:47 PM
InsertOTP - START -
-----------------------------------------------------------------------------------------------------
2/8/2022 5:58:48 PM
InsertOTP - Success -accounts@netcon.in
-----------------------------------------------------------------------------------------------------
2/8/2022 5:58:48 PM
SendOTP - SUCCESS -accounts@netcon.in
-----------------------------------------------------------------------------------------------------
2/8/2022 5:59:04 PM
ValidateOTP - START -accounts@netcon.in
-----------------------------------------------------------------------------------------------------
2/8/2022 5:59:05 PM
GetOTPData - START -accounts@netcon.in
-----------------------------------------------------------------------------------------------------
2/8/2022 5:59:06 PM
GetOTPData - Success -accounts@netcon.in
-----------------------------------------------------------------------------------------------------
2/8/2022 5:59:06 PM
ValidateOTP - SUCCESS -accounts@netcon.in
-----------------------------------------------------------------------------------------------------
2/8/2022 5:59:35 PM
SendOTP - START -accounts@netcon.in
-----------------------------------------------------------------------------------------------------
2/8/2022 5:59:35 PM
CheckMail - START -accounts@netcon.in
-----------------------------------------------------------------------------------------------------
2/8/2022 5:59:37 PM
CheckEmailSAP - Success -ACCOUNTS@NETCON.IN
-----------------------------------------------------------------------------------------------------
2/8/2022 5:59:37 PM
SendOTP - SUCCESS -accounts@netcon.in
-----------------------------------------------------------------------------------------------------
2/8/2022 5:59:39 PM
InsertOTP - START -
-----------------------------------------------------------------------------------------------------
2/8/2022 5:59:39 PM
InsertOTP - Success -accounts@netcon.in
-----------------------------------------------------------------------------------------------------
2/8/2022 5:59:39 PM
SendOTP - SUCCESS -accounts@netcon.in
-----------------------------------------------------------------------------------------------------
2/8/2022 5:59:50 PM
ValidateOTP - START -accounts@netcon.in
-----------------------------------------------------------------------------------------------------
2/8/2022 5:59:51 PM
GetOTPData - START -accounts@netcon.in
-----------------------------------------------------------------------------------------------------
2/8/2022 5:59:51 PM
GetOTPData - Success -accounts@netcon.in
-----------------------------------------------------------------------------------------------------
2/8/2022 5:59:51 PM
ValidateOTP - SUCCESS -accounts@netcon.in
-----------------------------------------------------------------------------------------------------
2/8/2022 6:02:06 PM
SendOTP - START -accounts@netcon.in
-----------------------------------------------------------------------------------------------------
2/8/2022 6:02:06 PM
CheckMail - START -accounts@netcon.in
-----------------------------------------------------------------------------------------------------
2/8/2022 6:02:07 PM
CheckEmailSAP - Success -ACCOUNTS@NETCON.IN
-----------------------------------------------------------------------------------------------------
2/8/2022 6:02:07 PM
SendOTP - SUCCESS -accounts@netcon.in
-----------------------------------------------------------------------------------------------------
2/8/2022 6:02:08 PM
InsertOTP - START -
-----------------------------------------------------------------------------------------------------
2/8/2022 6:02:09 PM
InsertOTP - Success -accounts@netcon.in
-----------------------------------------------------------------------------------------------------
2/8/2022 6:02:09 PM
SendOTP - SUCCESS -accounts@netcon.in
-----------------------------------------------------------------------------------------------------
2/8/2022 6:02:25 PM
ValidateOTP - START -accounts@netcon.in
-----------------------------------------------------------------------------------------------------
2/8/2022 6:02:26 PM
GetOTPData - START -accounts@netcon.in
-----------------------------------------------------------------------------------------------------
2/8/2022 6:02:26 PM
GetOTPData - Success -accounts@netcon.in
-----------------------------------------------------------------------------------------------------
2/8/2022 6:02:26 PM
ValidateOTP - SUCCESS -accounts@netcon.in
-----------------------------------------------------------------------------------------------------
2/8/2022 6:04:13 PM
SendOTP - START -accounts@netcon.in
-----------------------------------------------------------------------------------------------------
2/8/2022 6:04:14 PM
CheckMail - START -accounts@netcon.in
-----------------------------------------------------------------------------------------------------
2/8/2022 6:05:05 PM
SendOTP - START -accounts@netcon.in
-----------------------------------------------------------------------------------------------------
2/8/2022 6:05:05 PM
CheckMail - START -accounts@netcon.in
-----------------------------------------------------------------------------------------------------
2/8/2022 6:05:06 PM
CheckEmailSAP - Success -ACCOUNTS@NETCON.IN
-----------------------------------------------------------------------------------------------------
2/8/2022 6:05:06 PM
SendOTP - SUCCESS -accounts@netcon.in
-----------------------------------------------------------------------------------------------------
2/8/2022 6:05:07 PM
InsertOTP - START -
-----------------------------------------------------------------------------------------------------
2/8/2022 6:05:08 PM
InsertOTP - Success -accounts@netcon.in
-----------------------------------------------------------------------------------------------------
2/8/2022 6:05:08 PM
SendOTP - SUCCESS -accounts@netcon.in
-----------------------------------------------------------------------------------------------------
2/8/2022 6:05:24 PM
ValidateOTP - START -accounts@netcon.in
-----------------------------------------------------------------------------------------------------
2/8/2022 6:05:27 PM
GetOTPData - START -accounts@netcon.in
-----------------------------------------------------------------------------------------------------
2/8/2022 6:05:27 PM
GetOTPData - Success -accounts@netcon.in
-----------------------------------------------------------------------------------------------------
2/8/2022 6:05:29 PM
ValidateOTP - SUCCESS -accounts@netcon.in
-----------------------------------------------------------------------------------------------------
2/8/2022 6:07:29 PM
SendOTP - START -accounts@netcon.in
-----------------------------------------------------------------------------------------------------
2/8/2022 6:07:29 PM
CheckMail - START -accounts@netcon.in
-----------------------------------------------------------------------------------------------------
2/8/2022 6:07:30 PM
CheckEmailSAP - Success -ACCOUNTS@NETCON.IN
-----------------------------------------------------------------------------------------------------
2/8/2022 6:07:35 PM
SendOTP - START -accounts@netcon.in
-----------------------------------------------------------------------------------------------------
2/8/2022 6:07:35 PM
CheckMail - START -accounts@netcon.in
-----------------------------------------------------------------------------------------------------
2/8/2022 6:07:35 PM
CheckEmailSAP - Success -ACCOUNTS@NETCON.IN
-----------------------------------------------------------------------------------------------------
2/8/2022 6:07:49 PM
SendOTP - START -accounts@netcon.in
-----------------------------------------------------------------------------------------------------
2/8/2022 6:07:51 PM
CheckMail - START -accounts@netcon.in
-----------------------------------------------------------------------------------------------------
2/8/2022 6:07:51 PM
CheckEmailSAP - Success -ACCOUNTS@NETCON.IN
-----------------------------------------------------------------------------------------------------
2/8/2022 6:08:03 PM
CheckMail - START -accounts@netcon.in
-----------------------------------------------------------------------------------------------------
2/8/2022 6:08:10 PM
CheckEmailSAP - Success -ACCOUNTS@NETCON.IN
-----------------------------------------------------------------------------------------------------
2/8/2022 6:10:02 PM
SendOTP - START -accounts@netcon.in
-----------------------------------------------------------------------------------------------------
2/8/2022 6:10:02 PM
CheckMail - START -accounts@netcon.in
-----------------------------------------------------------------------------------------------------
2/8/2022 6:10:02 PM
CheckEmailSAP - Success -ACCOUNTS@NETCON.IN
-----------------------------------------------------------------------------------------------------
2/8/2022 6:10:02 PM
SendOTP - SUCCESS -accounts@netcon.in
-----------------------------------------------------------------------------------------------------
2/8/2022 6:10:04 PM
InsertOTP - START -
-----------------------------------------------------------------------------------------------------
2/8/2022 6:10:04 PM
InsertOTP - Success -accounts@netcon.in
-----------------------------------------------------------------------------------------------------
2/8/2022 6:10:04 PM
SendOTP - SUCCESS -accounts@netcon.in
-----------------------------------------------------------------------------------------------------
2/8/2022 6:10:14 PM
ValidateOTP - START -accounts@netcon.in
-----------------------------------------------------------------------------------------------------
2/8/2022 6:10:14 PM
GetOTPData - START -accounts@netcon.in
-----------------------------------------------------------------------------------------------------
2/8/2022 6:10:14 PM
GetOTPData - Success -accounts@netcon.in
-----------------------------------------------------------------------------------------------------
2/8/2022 6:10:14 PM
ValidateOTP - SUCCESS -accounts@netcon.in
-----------------------------------------------------------------------------------------------------
2/8/2022 6:32:41 PM
SendOTP - START -accounts@supremeindia.com
-----------------------------------------------------------------------------------------------------
2/8/2022 6:32:41 PM
CheckMail - START -accounts@supremeindia.com
-----------------------------------------------------------------------------------------------------
2/8/2022 6:32:41 PM
CheckEmailSAP - Success -ACCOUNTS@SUPREMEINDIA.COM
-----------------------------------------------------------------------------------------------------
2/8/2022 6:32:41 PM
SendOTP - SUCCESS -accounts@supremeindia.com
-----------------------------------------------------------------------------------------------------
2/8/2022 6:32:45 PM
InsertOTP - START -
-----------------------------------------------------------------------------------------------------
2/8/2022 6:32:45 PM
InsertOTP - Success -accounts@supremeindia.com
-----------------------------------------------------------------------------------------------------
2/8/2022 6:32:45 PM
SendOTP - SUCCESS -accounts@supremeindia.com
-----------------------------------------------------------------------------------------------------
2/8/2022 6:33:12 PM
ValidateOTP - START -accounts@supremeindia.com
-----------------------------------------------------------------------------------------------------
2/8/2022 6:33:13 PM
GetOTPData - START -accounts@supremeindia.com
-----------------------------------------------------------------------------------------------------
2/8/2022 6:33:13 PM
GetOTPData - Success -accounts@supremeindia.com
-----------------------------------------------------------------------------------------------------
2/8/2022 6:33:13 PM
ValidateOTP - SUCCESS -accounts@supremeindia.com
-----------------------------------------------------------------------------------------------------
2/8/2022 6:57:45 PM
SendOTP - START -accounts@supremeindia.com
-----------------------------------------------------------------------------------------------------
2/8/2022 6:57:45 PM
CheckMail - START -accounts@supremeindia.com
-----------------------------------------------------------------------------------------------------
2/8/2022 6:57:45 PM
CheckEmailSAP - Success -ACCOUNTS@SUPREMEINDIA.COM
-----------------------------------------------------------------------------------------------------
2/8/2022 6:57:45 PM
SendOTP - SUCCESS -accounts@supremeindia.com
-----------------------------------------------------------------------------------------------------
2/8/2022 6:57:47 PM
InsertOTP - START -
-----------------------------------------------------------------------------------------------------
2/8/2022 6:57:47 PM
InsertOTP - Success -accounts@supremeindia.com
-----------------------------------------------------------------------------------------------------
2/8/2022 6:57:47 PM
SendOTP - SUCCESS -accounts@supremeindia.com
-----------------------------------------------------------------------------------------------------
2/8/2022 6:57:59 PM
ValidateOTP - START -accounts@supremeindia.com
-----------------------------------------------------------------------------------------------------
2/8/2022 6:57:59 PM
GetOTPData - START -accounts@supremeindia.com
-----------------------------------------------------------------------------------------------------
2/8/2022 6:57:59 PM
GetOTPData - Success -accounts@supremeindia.com
-----------------------------------------------------------------------------------------------------
2/8/2022 6:57:59 PM
ValidateOTP - SUCCESS -accounts@supremeindia.com
-----------------------------------------------------------------------------------------------------
2/8/2022 7:12:45 PM
SendOTP - START -accounts@supremeindia.com
-----------------------------------------------------------------------------------------------------
2/8/2022 7:12:45 PM
CheckMail - START -accounts@supremeindia.com
-----------------------------------------------------------------------------------------------------
2/8/2022 7:12:46 PM
CheckEmailSAP - Success -ACCOUNTS@SUPREMEINDIA.COM
-----------------------------------------------------------------------------------------------------
2/8/2022 7:12:46 PM
SendOTP - SUCCESS -accounts@supremeindia.com
-----------------------------------------------------------------------------------------------------
2/8/2022 7:12:46 PM
SendOTP - ERROR -accounts@supremeindia.com
-----------------------------------------------------------------------------------------------------
2/8/2022 7:13:17 PM
SendOTP - START -accounts@supremeindia.com
-----------------------------------------------------------------------------------------------------
2/8/2022 7:13:17 PM
CheckMail - START -accounts@supremeindia.com
-----------------------------------------------------------------------------------------------------
2/8/2022 7:13:18 PM
CheckEmailSAP - Success -ACCOUNTS@SUPREMEINDIA.COM
-----------------------------------------------------------------------------------------------------
2/8/2022 7:13:18 PM
SendOTP - SUCCESS -accounts@supremeindia.com
-----------------------------------------------------------------------------------------------------
2/8/2022 7:13:20 PM
InsertOTP - START -
-----------------------------------------------------------------------------------------------------
2/8/2022 7:13:20 PM
InsertOTP - Success -accounts@supremeindia.com
-----------------------------------------------------------------------------------------------------
2/8/2022 7:13:20 PM
SendOTP - SUCCESS -accounts@supremeindia.com
-----------------------------------------------------------------------------------------------------
2/8/2022 7:13:29 PM
ValidateOTP - START -accounts@supremeindia.com
-----------------------------------------------------------------------------------------------------
2/8/2022 7:13:31 PM
GetOTPData - START -accounts@supremeindia.com
-----------------------------------------------------------------------------------------------------
2/8/2022 7:13:31 PM
GetOTPData - Success -accounts@supremeindia.com
-----------------------------------------------------------------------------------------------------
2/8/2022 7:13:31 PM
ValidateOTP - SUCCESS -accounts@supremeindia.com
-----------------------------------------------------------------------------------------------------
2/8/2022 7:21:53 PM
SendOTP - START -accounts@supremeindia.com
-----------------------------------------------------------------------------------------------------
2/8/2022 7:21:53 PM
CheckMail - START -accounts@supremeindia.com
-----------------------------------------------------------------------------------------------------
2/8/2022 7:21:53 PM
CheckEmailSAP - Success -ACCOUNTS@SUPREMEINDIA.COM
-----------------------------------------------------------------------------------------------------
2/8/2022 7:21:53 PM
SendOTP - SUCCESS -accounts@supremeindia.com
-----------------------------------------------------------------------------------------------------
2/8/2022 7:21:55 PM
InsertOTP - START -
-----------------------------------------------------------------------------------------------------
2/8/2022 7:21:55 PM
InsertOTP - Success -accounts@supremeindia.com
-----------------------------------------------------------------------------------------------------
2/8/2022 7:21:55 PM
SendOTP - SUCCESS -accounts@supremeindia.com
-----------------------------------------------------------------------------------------------------
2/8/2022 7:22:08 PM
ValidateOTP - START -accounts@supremeindia.com
-----------------------------------------------------------------------------------------------------
2/8/2022 7:22:09 PM
GetOTPData - START -accounts@supremeindia.com
-----------------------------------------------------------------------------------------------------
2/8/2022 7:22:09 PM
GetOTPData - Success -accounts@supremeindia.com
-----------------------------------------------------------------------------------------------------
2/8/2022 7:22:09 PM
ValidateOTP - SUCCESS -accounts@supremeindia.com
-----------------------------------------------------------------------------------------------------
