9/9/2022 10:48:05 AM
SendOTP - START -Ponni.Kaliyamoorthy@nttdata.com
-----------------------------------------------------------------------------------------------------
9/9/2022 10:48:05 AM
CheckMail - START -Ponni.Kaliyamoorthy@nttdata.com
-----------------------------------------------------------------------------------------------------
9/9/2022 10:48:05 AM
InsertOTP - START -
-----------------------------------------------------------------------------------------------------
9/9/2022 10:48:05 AM
InsertOTP - Success -Ponni.Kaliyamoorthy@nttdata.com
-----------------------------------------------------------------------------------------------------
9/9/2022 10:48:05 AM
SendOTP - SUCCESS -Ponni.Kaliyamoorthy@nttdata.com
-----------------------------------------------------------------------------------------------------
9/9/2022 10:48:40 AM
ValidateOTP - START -Ponni.Kaliyamoorthy@nttdata.com
-----------------------------------------------------------------------------------------------------
9/9/2022 10:48:40 AM
GetOTPData - START -Ponni.Kaliyamoorthy@nttdata.com
-----------------------------------------------------------------------------------------------------
9/9/2022 10:48:40 AM
GetOTPData - Success -Ponni.Kaliyamoorthy@nttdata.com
-----------------------------------------------------------------------------------------------------
9/9/2022 10:48:40 AM
ValidateOTP - SUCCESS -Ponni.Kaliyamoorthy@nttdata.com
-----------------------------------------------------------------------------------------------------
9/9/2022 10:51:40 AM
SendOTP - START -Ponni.Kaliyamoorthy@nttdata.com
-----------------------------------------------------------------------------------------------------
9/9/2022 10:51:40 AM
CheckMail - START -Ponni.Kaliyamoorthy@nttdata.com
-----------------------------------------------------------------------------------------------------
9/9/2022 10:51:40 AM
InsertOTP - START -
-----------------------------------------------------------------------------------------------------
9/9/2022 10:51:40 AM
InsertOTP - Success -Ponni.Kaliyamoorthy@nttdata.com
-----------------------------------------------------------------------------------------------------
9/9/2022 10:51:40 AM
SendOTP - SUCCESS -Ponni.Kaliyamoorthy@nttdata.com
-----------------------------------------------------------------------------------------------------
9/9/2022 10:52:19 AM
ValidateOTP - START -Ponni.Kaliyamoorthy@nttdata.com
-----------------------------------------------------------------------------------------------------
9/9/2022 10:52:19 AM
GetOTPData - START -Ponni.Kaliyamoorthy@nttdata.com
-----------------------------------------------------------------------------------------------------
9/9/2022 10:52:19 AM
GetOTPData - Success -Ponni.Kaliyamoorthy@nttdata.com
-----------------------------------------------------------------------------------------------------
9/9/2022 10:52:19 AM
ValidateOTP - SUCCESS -Ponni.Kaliyamoorthy@nttdata.com
-----------------------------------------------------------------------------------------------------
9/9/2022 11:15:06 AM
SendOTP - START -yukesh.bala@redington.co.in
-----------------------------------------------------------------------------------------------------
9/9/2022 11:15:06 AM
CheckMail - START -yukesh.bala@redington.co.in
-----------------------------------------------------------------------------------------------------
9/9/2022 11:15:06 AM
InsertOTP - START -
-----------------------------------------------------------------------------------------------------
9/9/2022 11:15:06 AM
InsertOTP - Success -yukesh.bala@redington.co.in
-----------------------------------------------------------------------------------------------------
9/9/2022 11:15:06 AM
SendOTP - SUCCESS -yukesh.bala@redington.co.in
-----------------------------------------------------------------------------------------------------
9/9/2022 11:16:19 AM
ValidateOTP - START -yukesh.bala@redington.co.in
-----------------------------------------------------------------------------------------------------
9/9/2022 11:16:19 AM
GetOTPData - START -yukesh.bala@redington.co.in
-----------------------------------------------------------------------------------------------------
9/9/2022 11:16:19 AM
GetOTPData - Success -yukesh.bala@redington.co.in
-----------------------------------------------------------------------------------------------------
9/9/2022 11:16:19 AM
ValidateOTP - SUCCESS -yukesh.bala@redington.co.in
-----------------------------------------------------------------------------------------------------
9/9/2022 11:43:50 AM
SendOTP - START -yukesh.bala@redington.co.in
-----------------------------------------------------------------------------------------------------
9/9/2022 11:43:50 AM
CheckMail - START -yukesh.bala@redington.co.in
-----------------------------------------------------------------------------------------------------
9/9/2022 11:43:50 AM
InsertOTP - START -
-----------------------------------------------------------------------------------------------------
9/9/2022 11:43:50 AM
InsertOTP - Success -yukesh.bala@redington.co.in
-----------------------------------------------------------------------------------------------------
9/9/2022 11:43:50 AM
SendOTP - SUCCESS -yukesh.bala@redington.co.in
-----------------------------------------------------------------------------------------------------
9/9/2022 11:44:59 AM
SendOTP - START -yukesh.bala@redington.co.in
-----------------------------------------------------------------------------------------------------
9/9/2022 11:44:59 AM
CheckMail - START -yukesh.bala@redington.co.in
-----------------------------------------------------------------------------------------------------
9/9/2022 11:44:59 AM
InsertOTP - START -
-----------------------------------------------------------------------------------------------------
9/9/2022 11:44:59 AM
InsertOTP - Success -yukesh.bala@redington.co.in
-----------------------------------------------------------------------------------------------------
9/9/2022 11:44:59 AM
SendOTP - SUCCESS -yukesh.bala@redington.co.in
-----------------------------------------------------------------------------------------------------
9/9/2022 11:45:24 AM
ValidateOTP - START -yukesh.bala@redington.co.in
-----------------------------------------------------------------------------------------------------
9/9/2022 11:45:24 AM
GetOTPData - START -yukesh.bala@redington.co.in
-----------------------------------------------------------------------------------------------------
9/9/2022 11:45:24 AM
GetOTPData - Success -yukesh.bala@redington.co.in
-----------------------------------------------------------------------------------------------------
9/9/2022 11:45:24 AM
ValidateOTP - SUCCESS -yukesh.bala@redington.co.in
-----------------------------------------------------------------------------------------------------
9/9/2022 11:56:17 AM
SendOTP - START -Ponni.Kaliyamoorthy@nttdata.com
-----------------------------------------------------------------------------------------------------
9/9/2022 11:56:17 AM
CheckMail - START -Ponni.Kaliyamoorthy@nttdata.com
-----------------------------------------------------------------------------------------------------
9/9/2022 11:56:17 AM
InsertOTP - START -
-----------------------------------------------------------------------------------------------------
9/9/2022 11:56:17 AM
InsertOTP - Success -Ponni.Kaliyamoorthy@nttdata.com
-----------------------------------------------------------------------------------------------------
9/9/2022 11:56:17 AM
SendOTP - SUCCESS -Ponni.Kaliyamoorthy@nttdata.com
-----------------------------------------------------------------------------------------------------
9/9/2022 11:57:02 AM
ValidateOTP - START -Ponni.Kaliyamoorthy@nttdata.com
-----------------------------------------------------------------------------------------------------
9/9/2022 11:57:02 AM
GetOTPData - START -Ponni.Kaliyamoorthy@nttdata.com
-----------------------------------------------------------------------------------------------------
9/9/2022 11:57:02 AM
GetOTPData - Success -Ponni.Kaliyamoorthy@nttdata.com
-----------------------------------------------------------------------------------------------------
9/9/2022 11:57:02 AM
ValidateOTP - SUCCESS -Ponni.Kaliyamoorthy@nttdata.com
-----------------------------------------------------------------------------------------------------
9/9/2022 5:30:43 PM
SendOTP - START -Ponni.Kaliyamoorthy@nttdata.com
-----------------------------------------------------------------------------------------------------
9/9/2022 5:30:43 PM
CheckMail - START -Ponni.Kaliyamoorthy@nttdata.com
-----------------------------------------------------------------------------------------------------
9/9/2022 5:30:43 PM
InsertOTP - START -
-----------------------------------------------------------------------------------------------------
9/9/2022 5:30:43 PM
InsertOTP - Success -Ponni.Kaliyamoorthy@nttdata.com
-----------------------------------------------------------------------------------------------------
9/9/2022 5:30:43 PM
SendOTP - SUCCESS -Ponni.Kaliyamoorthy@nttdata.com
-----------------------------------------------------------------------------------------------------
9/9/2022 5:31:17 PM
ValidateOTP - START -Ponni.Kaliyamoorthy@nttdata.com
-----------------------------------------------------------------------------------------------------
9/9/2022 5:31:17 PM
GetOTPData - START -Ponni.Kaliyamoorthy@nttdata.com
-----------------------------------------------------------------------------------------------------
9/9/2022 5:31:17 PM
GetOTPData - Success -Ponni.Kaliyamoorthy@nttdata.com
-----------------------------------------------------------------------------------------------------
9/9/2022 5:31:17 PM
ValidateOTP - SUCCESS -Ponni.Kaliyamoorthy@nttdata.com
-----------------------------------------------------------------------------------------------------
9/9/2022 10:06:13 PM
SendOTP - START -ACCOUNTS@SUPREMEINDIA.COM
-----------------------------------------------------------------------------------------------------
9/9/2022 10:06:13 PM
CheckMail - START -ACCOUNTS@SUPREMEINDIA.COM
-----------------------------------------------------------------------------------------------------
9/9/2022 10:06:13 PM
CheckEmailSAP - Success -ACCOUNTS@SUPREMEINDIA.COM
-----------------------------------------------------------------------------------------------------
9/9/2022 10:06:13 PM
SendOTP - SUCCESS -ACCOUNTS@SUPREMEINDIA.COM
-----------------------------------------------------------------------------------------------------
9/9/2022 10:06:24 PM
InsertOTP - START -
-----------------------------------------------------------------------------------------------------
9/9/2022 10:06:24 PM
InsertOTP - Success -ACCOUNTS@SUPREMEINDIA.COM
-----------------------------------------------------------------------------------------------------
9/9/2022 10:06:24 PM
SendOTP - SUCCESS -ACCOUNTS@SUPREMEINDIA.COM
-----------------------------------------------------------------------------------------------------
9/9/2022 10:06:29 PM
ValidateOTP - START -ACCOUNTS@SUPREMEINDIA.COM
-----------------------------------------------------------------------------------------------------
9/9/2022 10:06:29 PM
GetOTPData - START -ACCOUNTS@SUPREMEINDIA.COM
-----------------------------------------------------------------------------------------------------
9/9/2022 10:06:29 PM
GetOTPData - Success -ACCOUNTS@SUPREMEINDIA.COM
-----------------------------------------------------------------------------------------------------
9/9/2022 10:06:29 PM
ValidateOTP - SUCCESS -ACCOUNTS@SUPREMEINDIA.COM
-----------------------------------------------------------------------------------------------------
9/9/2022 10:07:22 PM
ValidateOTP - START -ACCOUNTS@SUPREMEINDIA.COM
-----------------------------------------------------------------------------------------------------
9/9/2022 10:07:22 PM
GetOTPData - START -ACCOUNTS@SUPREMEINDIA.COM
-----------------------------------------------------------------------------------------------------
9/9/2022 10:07:22 PM
GetOTPData - Success -ACCOUNTS@SUPREMEINDIA.COM
-----------------------------------------------------------------------------------------------------
9/9/2022 10:07:22 PM
ValidateOTP - SUCCESS -ACCOUNTS@SUPREMEINDIA.COM
-----------------------------------------------------------------------------------------------------
9/9/2022 10:49:26 PM
SendOTP - START -yukesh.bala@redington.co.in
-----------------------------------------------------------------------------------------------------
9/9/2022 10:49:26 PM
CheckMail - START -yukesh.bala@redington.co.in
-----------------------------------------------------------------------------------------------------
9/9/2022 10:49:28 PM
InsertOTP - START -
-----------------------------------------------------------------------------------------------------
9/9/2022 10:49:28 PM
InsertOTP - Success -yukesh.bala@redington.co.in
-----------------------------------------------------------------------------------------------------
9/9/2022 10:49:28 PM
SendOTP - SUCCESS -yukesh.bala@redington.co.in
-----------------------------------------------------------------------------------------------------
9/9/2022 10:50:08 PM
SendOTP - START -ACCOUNTS@SUPREMEINDIA.COM
-----------------------------------------------------------------------------------------------------
9/9/2022 10:50:08 PM
CheckMail - START -ACCOUNTS@SUPREMEINDIA.COM
-----------------------------------------------------------------------------------------------------
9/9/2022 10:50:08 PM
CheckEmailSAP - Success -ACCOUNTS@SUPREMEINDIA.COM
-----------------------------------------------------------------------------------------------------
9/9/2022 10:50:08 PM
SendOTP - SUCCESS -ACCOUNTS@SUPREMEINDIA.COM
-----------------------------------------------------------------------------------------------------
9/9/2022 11:30:08 PM
SendOTP - START -yukesh.bala@redington.co.in
-----------------------------------------------------------------------------------------------------
9/9/2022 11:30:08 PM
CheckMail - START -yukesh.bala@redington.co.in
-----------------------------------------------------------------------------------------------------
9/9/2022 11:30:16 PM
InsertOTP - START -
-----------------------------------------------------------------------------------------------------
9/9/2022 11:30:16 PM
InsertOTP - Success -yukesh.bala@redington.co.in
-----------------------------------------------------------------------------------------------------
9/9/2022 11:30:16 PM
SendOTP - SUCCESS -yukesh.bala@redington.co.in
-----------------------------------------------------------------------------------------------------
9/9/2022 11:30:20 PM
ValidateOTP - START -yukesh.bala@redington.co.in
-----------------------------------------------------------------------------------------------------
9/9/2022 11:30:20 PM
GetOTPData - START -yukesh.bala@redington.co.in
-----------------------------------------------------------------------------------------------------
9/9/2022 11:30:20 PM
GetOTPData - Success -yukesh.bala@redington.co.in
-----------------------------------------------------------------------------------------------------
9/9/2022 11:30:20 PM
ValidateOTP - SUCCESS -yukesh.bala@redington.co.in
-----------------------------------------------------------------------------------------------------
9/9/2022 11:32:13 PM
SendOTP - START -yukesh.bala@redington.co.in
-----------------------------------------------------------------------------------------------------
9/9/2022 11:32:13 PM
CheckMail - START -yukesh.bala@redington.co.in
-----------------------------------------------------------------------------------------------------
9/9/2022 11:32:15 PM
InsertOTP - START -
-----------------------------------------------------------------------------------------------------
9/9/2022 11:32:15 PM
InsertOTP - Success -yukesh.bala@redington.co.in
-----------------------------------------------------------------------------------------------------
9/9/2022 11:32:15 PM
SendOTP - SUCCESS -yukesh.bala@redington.co.in
-----------------------------------------------------------------------------------------------------
9/9/2022 11:33:17 PM
ValidateOTP - START -yukesh.bala@redington.co.in
-----------------------------------------------------------------------------------------------------
9/9/2022 11:33:19 PM
GetOTPData - START -yukesh.bala@redington.co.in
-----------------------------------------------------------------------------------------------------
9/9/2022 11:33:19 PM
GetOTPData - Success -yukesh.bala@redington.co.in
-----------------------------------------------------------------------------------------------------
9/9/2022 11:33:21 PM
ValidateOTP - SUCCESS -yukesh.bala@redington.co.in
-----------------------------------------------------------------------------------------------------
