12-08-2022 09:14:28
SendOTP - START -Ponni.kaliyamoorthy@nttdata.com
-----------------------------------------------------------------------------------------------------
12-08-2022 09:14:28
CheckMail - START -Ponni.kaliyamoorthy@nttdata.com
-----------------------------------------------------------------------------------------------------
12-08-2022 09:14:30
CheckEmailSAP - Success -PONNI.KALIYAMOORTHY@NTTDATA.COM
-----------------------------------------------------------------------------------------------------
12-08-2022 09:14:30
CheckMail - ERROR -Ponni.kaliyamoorthy@nttdata.com
-----------------------------------------------------------------------------------------------------
12-08-2022 09:14:47
SendOTP - START -Ponni.kaliyamoorthy@nttdata.com
-----------------------------------------------------------------------------------------------------
12-08-2022 09:14:47
CheckMail - START -Ponni.kaliyamoorthy@nttdata.com
-----------------------------------------------------------------------------------------------------
12-08-2022 09:14:47
CheckEmailSAP - Success -PONNI.KALIYAMOORTHY@NTTDATA.COM
-----------------------------------------------------------------------------------------------------
12-08-2022 09:14:47
CheckMail - ERROR -Ponni.kaliyamoorthy@nttdata.com
-----------------------------------------------------------------------------------------------------
12-08-2022 09:14:51
SendOTP - START -Ponni.kaliyamoorthy@nttdata.com
-----------------------------------------------------------------------------------------------------
12-08-2022 09:14:51
CheckMail - START -Ponni.kaliyamoorthy@nttdata.com
-----------------------------------------------------------------------------------------------------
12-08-2022 09:14:51
CheckEmailSAP - Success -PONNI.KALIYAMOORTHY@NTTDATA.COM
-----------------------------------------------------------------------------------------------------
12-08-2022 09:14:51
CheckMail - ERROR -Ponni.kaliyamoorthy@nttdata.com
-----------------------------------------------------------------------------------------------------
12-08-2022 09:15:51
SendOTP - START -Ponni.kaliyamoorthy@nttdata.com
-----------------------------------------------------------------------------------------------------
12-08-2022 09:15:51
CheckMail - START -Ponni.kaliyamoorthy@nttdata.com
-----------------------------------------------------------------------------------------------------
12-08-2022 09:15:52
CheckEmailSAP - Success -PONNI.KALIYAMOORTHY@NTTDATA.COM
-----------------------------------------------------------------------------------------------------
12-08-2022 09:15:52
CheckMail - ERROR -Ponni.kaliyamoorthy@nttdata.com
-----------------------------------------------------------------------------------------------------
12-08-2022 09:16:24
SendOTP - START -Ponni.kaliyamoorthy@nttdata.com
-----------------------------------------------------------------------------------------------------
12-08-2022 09:16:24
CheckMail - START -Ponni.kaliyamoorthy@nttdata.com
-----------------------------------------------------------------------------------------------------
12-08-2022 09:16:24
CheckEmailSAP - Success -PONNI.KALIYAMOORTHY@NTTDATA.COM
-----------------------------------------------------------------------------------------------------
12-08-2022 09:16:24
CheckMail - ERROR -Ponni.kaliyamoorthy@nttdata.com
-----------------------------------------------------------------------------------------------------
12-08-2022 09:18:13
SendOTP - START -Ponni.kaliyamoorthy@nttdata.com
-----------------------------------------------------------------------------------------------------
12-08-2022 09:18:13
CheckMail - START -Ponni.kaliyamoorthy@nttdata.com
-----------------------------------------------------------------------------------------------------
12-08-2022 09:18:14
CheckEmailSAP - Success -PONNI.KALIYAMOORTHY@NTTDATA.COM
-----------------------------------------------------------------------------------------------------
12-08-2022 09:18:14
CheckMail - ERROR -Ponni.kaliyamoorthy@nttdata.com
-----------------------------------------------------------------------------------------------------
12-08-2022 09:20:14
SendOTP - START -Ponni.kaliyamoorthy@nttdata.com
-----------------------------------------------------------------------------------------------------
12-08-2022 09:20:15
CheckMail - START -Ponni.kaliyamoorthy@nttdata.com
-----------------------------------------------------------------------------------------------------
12-08-2022 09:20:15
CheckEmailSAP - Success -PONNI.KALIYAMOORTHY@NTTDATA.COM
-----------------------------------------------------------------------------------------------------
12-08-2022 09:20:15
CheckMail - ERROR -Ponni.kaliyamoorthy@nttdata.com
-----------------------------------------------------------------------------------------------------
12-08-2022 09:21:45
SendOTP - START -Ponni.kaliyamoorthy@nttdata.com
-----------------------------------------------------------------------------------------------------
12-08-2022 09:21:45
CheckMail - START -Ponni.kaliyamoorthy@nttdata.com
-----------------------------------------------------------------------------------------------------
12-08-2022 09:21:45
CheckEmailSAP - Success -PONNI.KALIYAMOORTHY@NTTDATA.COM
-----------------------------------------------------------------------------------------------------
12-08-2022 09:21:45
CheckMail - ERROR -Ponni.kaliyamoorthy@nttdata.com
-----------------------------------------------------------------------------------------------------
12-08-2022 09:58:16
SendOTP - START -Ponni.kaliyamoorthy@nttdata.com
-----------------------------------------------------------------------------------------------------
12-08-2022 09:58:16
CheckMail - START -Ponni.kaliyamoorthy@nttdata.com
-----------------------------------------------------------------------------------------------------
12-08-2022 09:58:16
CheckEmailSAP - Success -PONNI.KALIYAMOORTHY@NTTDATA.COM
-----------------------------------------------------------------------------------------------------
12-08-2022 09:58:16
CheckMail - ERROR -Ponni.kaliyamoorthy@nttdata.com
-----------------------------------------------------------------------------------------------------
12-08-2022 10:12:19
SendOTP - START -Ponni.kaliyamoorthy@nttdata.com
-----------------------------------------------------------------------------------------------------
12-08-2022 10:12:19
CheckMail - START -Ponni.kaliyamoorthy@nttdata.com
-----------------------------------------------------------------------------------------------------
12-08-2022 10:12:20
CheckEmailSAP - Success -PONNI.KALIYAMOORTHY@NTTDATA.COM
-----------------------------------------------------------------------------------------------------
12-08-2022 10:12:20
CheckMail - ERROR -Ponni.kaliyamoorthy@nttdata.com
-----------------------------------------------------------------------------------------------------
12-08-2022 10:13:26
SendOTP - START -Ponni.kaliyamoorthy@nttdata.com
-----------------------------------------------------------------------------------------------------
12-08-2022 10:13:26
CheckMail - START -Ponni.kaliyamoorthy@nttdata.com
-----------------------------------------------------------------------------------------------------
12-08-2022 10:13:27
CheckEmailSAP - Success -PONNI.KALIYAMOORTHY@NTTDATA.COM
-----------------------------------------------------------------------------------------------------
12-08-2022 10:13:27
CheckMail - ERROR -Ponni.kaliyamoorthy@nttdata.com
-----------------------------------------------------------------------------------------------------
12-08-2022 10:17:52
SendOTP - START -Ponni.kaliyamoorthy@nttdata.com
-----------------------------------------------------------------------------------------------------
12-08-2022 10:17:52
CheckMail - START -Ponni.kaliyamoorthy@nttdata.com
-----------------------------------------------------------------------------------------------------
12-08-2022 10:17:52
CheckEmailSAP - Success -PONNI.KALIYAMOORTHY@NTTDATA.COM
-----------------------------------------------------------------------------------------------------
12-08-2022 10:17:52
CheckMail - ERROR -Ponni.kaliyamoorthy@nttdata.com
-----------------------------------------------------------------------------------------------------
12-08-2022 10:51:24
SendOTP - START -Ponni.kaliyamoorthy@nttdata.com
-----------------------------------------------------------------------------------------------------
12-08-2022 10:51:24
CheckMail - START -Ponni.kaliyamoorthy@nttdata.com
-----------------------------------------------------------------------------------------------------
12-08-2022 10:51:49
SendOTP - START -Ponni.kaliyamoorthy@nttdata.com
-----------------------------------------------------------------------------------------------------
12-08-2022 10:51:49
CheckMail - START -Ponni.kaliyamoorthy@nttdata.com
-----------------------------------------------------------------------------------------------------
12-08-2022 10:51:52
CheckEmailSAP - Success -PONNI.KALIYAMOORTHY@NTTDATA.COM
-----------------------------------------------------------------------------------------------------
12-08-2022 10:51:52
SendOTP - SUCCESS -Ponni.kaliyamoorthy@nttdata.com
-----------------------------------------------------------------------------------------------------
12-08-2022 10:51:52
InsertOTP - START -
-----------------------------------------------------------------------------------------------------
12-08-2022 10:51:53
InsertOTP - Success -Ponni.kaliyamoorthy@nttdata.com
-----------------------------------------------------------------------------------------------------
12-08-2022 10:51:53
SendOTP - SUCCESS -Ponni.kaliyamoorthy@nttdata.com
-----------------------------------------------------------------------------------------------------
12-08-2022 10:52:28
ValidateOTP - START -Ponni.kaliyamoorthy@nttdata.com
-----------------------------------------------------------------------------------------------------
12-08-2022 10:52:28
GetOTPData - START -Ponni.kaliyamoorthy@nttdata.com
-----------------------------------------------------------------------------------------------------
12-08-2022 10:52:28
GetOTPData - Success -Ponni.kaliyamoorthy@nttdata.com
-----------------------------------------------------------------------------------------------------
12-08-2022 10:52:28
ValidateOTP - SUCCESS -Ponni.kaliyamoorthy@nttdata.com
-----------------------------------------------------------------------------------------------------
12-08-2022 11:45:06
SendOTP - START -Ponni.kaliyamoorthy@nttdata.com
-----------------------------------------------------------------------------------------------------
12-08-2022 11:45:06
CheckMail - START -Ponni.kaliyamoorthy@nttdata.com
-----------------------------------------------------------------------------------------------------
12-08-2022 11:45:07
CheckEmailSAP - Success -PONNI.KALIYAMOORTHY@NTTDATA.COM
-----------------------------------------------------------------------------------------------------
12-08-2022 11:45:07
SendOTP - SUCCESS -Ponni.kaliyamoorthy@nttdata.com
-----------------------------------------------------------------------------------------------------
12-08-2022 11:45:07
InsertOTP - START -
-----------------------------------------------------------------------------------------------------
12-08-2022 11:45:07
InsertOTP - Success -Ponni.kaliyamoorthy@nttdata.com
-----------------------------------------------------------------------------------------------------
12-08-2022 11:45:07
SendOTP - SUCCESS -Ponni.kaliyamoorthy@nttdata.com
-----------------------------------------------------------------------------------------------------
12-08-2022 11:45:41
ValidateOTP - START -Ponni.kaliyamoorthy@nttdata.com
-----------------------------------------------------------------------------------------------------
12-08-2022 11:45:41
GetOTPData - START -Ponni.kaliyamoorthy@nttdata.com
-----------------------------------------------------------------------------------------------------
12-08-2022 11:45:41
GetOTPData - Success -Ponni.kaliyamoorthy@nttdata.com
-----------------------------------------------------------------------------------------------------
12-08-2022 11:45:41
ValidateOTP - SUCCESS -Ponni.kaliyamoorthy@nttdata.com
-----------------------------------------------------------------------------------------------------
12-08-2022 15:12:40
SendOTP - START -Ponni.kaliyamoorthy@nttdata.com
-----------------------------------------------------------------------------------------------------
12-08-2022 15:12:40
CheckMail - START -Ponni.kaliyamoorthy@nttdata.com
-----------------------------------------------------------------------------------------------------
12-08-2022 15:12:40
CheckEmailSAP - Success -PONNI.KALIYAMOORTHY@NTTDATA.COM
-----------------------------------------------------------------------------------------------------
12-08-2022 15:12:40
SendOTP - SUCCESS -Ponni.kaliyamoorthy@nttdata.com
-----------------------------------------------------------------------------------------------------
12-08-2022 15:12:40
InsertOTP - START -
-----------------------------------------------------------------------------------------------------
12-08-2022 15:12:40
InsertOTP - Success -Ponni.kaliyamoorthy@nttdata.com
-----------------------------------------------------------------------------------------------------
12-08-2022 15:12:40
SendOTP - SUCCESS -Ponni.kaliyamoorthy@nttdata.com
-----------------------------------------------------------------------------------------------------
12-08-2022 15:13:21
ValidateOTP - START -Ponni.kaliyamoorthy@nttdata.com
-----------------------------------------------------------------------------------------------------
12-08-2022 15:13:21
GetOTPData - START -Ponni.kaliyamoorthy@nttdata.com
-----------------------------------------------------------------------------------------------------
12-08-2022 15:13:21
GetOTPData - Success -Ponni.kaliyamoorthy@nttdata.com
-----------------------------------------------------------------------------------------------------
12-08-2022 15:13:21
ValidateOTP - SUCCESS -Ponni.kaliyamoorthy@nttdata.com
-----------------------------------------------------------------------------------------------------
12-08-2022 15:30:58
SendOTP - START -Ponni.kaliyamoorthy@nttdata.com
-----------------------------------------------------------------------------------------------------
12-08-2022 15:30:58
CheckMail - START -Ponni.kaliyamoorthy@nttdata.com
-----------------------------------------------------------------------------------------------------
12-08-2022 15:30:58
CheckEmailSAP - Success -PONNI.KALIYAMOORTHY@NTTDATA.COM
-----------------------------------------------------------------------------------------------------
12-08-2022 15:30:58
SendOTP - SUCCESS -Ponni.kaliyamoorthy@nttdata.com
-----------------------------------------------------------------------------------------------------
12-08-2022 15:30:59
InsertOTP - START -
-----------------------------------------------------------------------------------------------------
12-08-2022 15:30:59
InsertOTP - Success -Ponni.kaliyamoorthy@nttdata.com
-----------------------------------------------------------------------------------------------------
12-08-2022 15:30:59
SendOTP - SUCCESS -Ponni.kaliyamoorthy@nttdata.com
-----------------------------------------------------------------------------------------------------
12-08-2022 15:31:36
ValidateOTP - START -Ponni.kaliyamoorthy@nttdata.com
-----------------------------------------------------------------------------------------------------
12-08-2022 15:31:36
GetOTPData - START -Ponni.kaliyamoorthy@nttdata.com
-----------------------------------------------------------------------------------------------------
12-08-2022 15:31:37
GetOTPData - Success -Ponni.kaliyamoorthy@nttdata.com
-----------------------------------------------------------------------------------------------------
12-08-2022 15:31:37
ValidateOTP - SUCCESS -Ponni.kaliyamoorthy@nttdata.com
-----------------------------------------------------------------------------------------------------
12-08-2022 15:58:04
SendOTP - START -Ponni.kaliyamoorthy@nttdata.com
-----------------------------------------------------------------------------------------------------
12-08-2022 15:58:04
CheckMail - START -Ponni.kaliyamoorthy@nttdata.com
-----------------------------------------------------------------------------------------------------
12-08-2022 15:58:05
CheckEmailSAP - Success -PONNI.KALIYAMOORTHY@NTTDATA.COM
-----------------------------------------------------------------------------------------------------
12-08-2022 15:58:05
SendOTP - SUCCESS -Ponni.kaliyamoorthy@nttdata.com
-----------------------------------------------------------------------------------------------------
12-08-2022 15:58:05
InsertOTP - START -
-----------------------------------------------------------------------------------------------------
12-08-2022 15:58:05
InsertOTP - Success -Ponni.kaliyamoorthy@nttdata.com
-----------------------------------------------------------------------------------------------------
12-08-2022 15:58:05
SendOTP - SUCCESS -Ponni.kaliyamoorthy@nttdata.com
-----------------------------------------------------------------------------------------------------
12-08-2022 15:59:10
ValidateOTP - START -Ponni.kaliyamoorthy@nttdata.com
-----------------------------------------------------------------------------------------------------
12-08-2022 15:59:10
GetOTPData - START -Ponni.kaliyamoorthy@nttdata.com
-----------------------------------------------------------------------------------------------------
12-08-2022 15:59:10
GetOTPData - Success -Ponni.kaliyamoorthy@nttdata.com
-----------------------------------------------------------------------------------------------------
12-08-2022 15:59:10
ValidateOTP - SUCCESS -Ponni.kaliyamoorthy@nttdata.com
-----------------------------------------------------------------------------------------------------
12-08-2022 16:17:14
SendOTP - START -Ponni.kaliyamoorthy@nttdata.com
-----------------------------------------------------------------------------------------------------
12-08-2022 16:17:14
CheckMail - START -Ponni.kaliyamoorthy@nttdata.com
-----------------------------------------------------------------------------------------------------
12-08-2022 16:17:15
CheckEmailSAP - Success -PONNI.KALIYAMOORTHY@NTTDATA.COM
-----------------------------------------------------------------------------------------------------
12-08-2022 16:17:15
SendOTP - SUCCESS -Ponni.kaliyamoorthy@nttdata.com
-----------------------------------------------------------------------------------------------------
12-08-2022 16:17:15
InsertOTP - START -
-----------------------------------------------------------------------------------------------------
12-08-2022 16:17:15
InsertOTP - Success -Ponni.kaliyamoorthy@nttdata.com
-----------------------------------------------------------------------------------------------------
12-08-2022 16:17:15
SendOTP - SUCCESS -Ponni.kaliyamoorthy@nttdata.com
-----------------------------------------------------------------------------------------------------
12-08-2022 16:17:48
ValidateOTP - START -Ponni.kaliyamoorthy@nttdata.com
-----------------------------------------------------------------------------------------------------
12-08-2022 16:17:48
GetOTPData - START -Ponni.kaliyamoorthy@nttdata.com
-----------------------------------------------------------------------------------------------------
12-08-2022 16:17:48
GetOTPData - Success -Ponni.kaliyamoorthy@nttdata.com
-----------------------------------------------------------------------------------------------------
12-08-2022 16:17:48
ValidateOTP - SUCCESS -Ponni.kaliyamoorthy@nttdata.com
-----------------------------------------------------------------------------------------------------
12-08-2022 17:01:15
SendOTP - START -Ponni.kaliyamoorthy@nttdata.com
-----------------------------------------------------------------------------------------------------
12-08-2022 17:01:15
CheckMail - START -Ponni.kaliyamoorthy@nttdata.com
-----------------------------------------------------------------------------------------------------
12-08-2022 17:01:15
CheckEmailSAP - Success -PONNI.KALIYAMOORTHY@NTTDATA.COM
-----------------------------------------------------------------------------------------------------
12-08-2022 17:01:15
SendOTP - SUCCESS -Ponni.kaliyamoorthy@nttdata.com
-----------------------------------------------------------------------------------------------------
12-08-2022 17:01:15
InsertOTP - START -
-----------------------------------------------------------------------------------------------------
12-08-2022 17:01:15
InsertOTP - Success -Ponni.kaliyamoorthy@nttdata.com
-----------------------------------------------------------------------------------------------------
12-08-2022 17:01:15
SendOTP - SUCCESS -Ponni.kaliyamoorthy@nttdata.com
-----------------------------------------------------------------------------------------------------
12-08-2022 17:01:50
ValidateOTP - START -Ponni.kaliyamoorthy@nttdata.com
-----------------------------------------------------------------------------------------------------
12-08-2022 17:01:50
GetOTPData - START -Ponni.kaliyamoorthy@nttdata.com
-----------------------------------------------------------------------------------------------------
12-08-2022 17:01:50
GetOTPData - Success -Ponni.kaliyamoorthy@nttdata.com
-----------------------------------------------------------------------------------------------------
12-08-2022 17:01:50
ValidateOTP - SUCCESS -Ponni.kaliyamoorthy@nttdata.com
-----------------------------------------------------------------------------------------------------
12-08-2022 17:12:21
SendOTP - START -Ponni.kaliyamoorthy@nttdata.com
-----------------------------------------------------------------------------------------------------
12-08-2022 17:12:21
CheckMail - START -Ponni.kaliyamoorthy@nttdata.com
-----------------------------------------------------------------------------------------------------
12-08-2022 17:12:22
CheckEmailSAP - Success -PONNI.KALIYAMOORTHY@NTTDATA.COM
-----------------------------------------------------------------------------------------------------
12-08-2022 17:12:22
SendOTP - SUCCESS -Ponni.kaliyamoorthy@nttdata.com
-----------------------------------------------------------------------------------------------------
12-08-2022 17:12:24
InsertOTP - START -
-----------------------------------------------------------------------------------------------------
12-08-2022 17:12:24
InsertOTP - Success -Ponni.kaliyamoorthy@nttdata.com
-----------------------------------------------------------------------------------------------------
12-08-2022 17:12:24
SendOTP - SUCCESS -Ponni.kaliyamoorthy@nttdata.com
-----------------------------------------------------------------------------------------------------
12-08-2022 17:12:59
ValidateOTP - START -Ponni.kaliyamoorthy@nttdata.com
-----------------------------------------------------------------------------------------------------
12-08-2022 17:12:59
GetOTPData - START -Ponni.kaliyamoorthy@nttdata.com
-----------------------------------------------------------------------------------------------------
12-08-2022 17:12:59
GetOTPData - Success -Ponni.kaliyamoorthy@nttdata.com
-----------------------------------------------------------------------------------------------------
12-08-2022 17:12:59
ValidateOTP - SUCCESS -Ponni.kaliyamoorthy@nttdata.com
-----------------------------------------------------------------------------------------------------
12-08-2022 17:24:41
SendOTP - START -Ponni.kaliyamoorthy@nttdata.com
-----------------------------------------------------------------------------------------------------
12-08-2022 17:24:41
CheckMail - START -Ponni.kaliyamoorthy@nttdata.com
-----------------------------------------------------------------------------------------------------
12-08-2022 17:24:42
CheckEmailSAP - Success -PONNI.KALIYAMOORTHY@NTTDATA.COM
-----------------------------------------------------------------------------------------------------
12-08-2022 17:24:42
SendOTP - SUCCESS -Ponni.kaliyamoorthy@nttdata.com
-----------------------------------------------------------------------------------------------------
12-08-2022 17:24:42
InsertOTP - START -
-----------------------------------------------------------------------------------------------------
12-08-2022 17:24:42
InsertOTP - Success -Ponni.kaliyamoorthy@nttdata.com
-----------------------------------------------------------------------------------------------------
12-08-2022 17:24:42
SendOTP - SUCCESS -Ponni.kaliyamoorthy@nttdata.com
-----------------------------------------------------------------------------------------------------
12-08-2022 17:25:20
ValidateOTP - START -Ponni.kaliyamoorthy@nttdata.com
-----------------------------------------------------------------------------------------------------
12-08-2022 17:25:20
GetOTPData - START -Ponni.kaliyamoorthy@nttdata.com
-----------------------------------------------------------------------------------------------------
12-08-2022 17:25:20
GetOTPData - Success -Ponni.kaliyamoorthy@nttdata.com
-----------------------------------------------------------------------------------------------------
12-08-2022 17:25:20
ValidateOTP - SUCCESS -Ponni.kaliyamoorthy@nttdata.com
-----------------------------------------------------------------------------------------------------
12-08-2022 17:49:35
SendOTP - START -Ponni.kaliyamoorthy@nttdata.com
-----------------------------------------------------------------------------------------------------
12-08-2022 17:49:35
CheckMail - START -Ponni.kaliyamoorthy@nttdata.com
-----------------------------------------------------------------------------------------------------
12-08-2022 17:49:36
CheckEmailSAP - Success -PONNI.KALIYAMOORTHY@NTTDATA.COM
-----------------------------------------------------------------------------------------------------
12-08-2022 17:49:36
SendOTP - SUCCESS -Ponni.kaliyamoorthy@nttdata.com
-----------------------------------------------------------------------------------------------------
12-08-2022 17:49:36
InsertOTP - START -
-----------------------------------------------------------------------------------------------------
12-08-2022 17:49:37
InsertOTP - Success -Ponni.kaliyamoorthy@nttdata.com
-----------------------------------------------------------------------------------------------------
12-08-2022 17:49:37
SendOTP - SUCCESS -Ponni.kaliyamoorthy@nttdata.com
-----------------------------------------------------------------------------------------------------
12-08-2022 17:50:09
ValidateOTP - START -Ponni.kaliyamoorthy@nttdata.com
-----------------------------------------------------------------------------------------------------
12-08-2022 17:50:09
GetOTPData - START -Ponni.kaliyamoorthy@nttdata.com
-----------------------------------------------------------------------------------------------------
12-08-2022 17:50:09
GetOTPData - Success -Ponni.kaliyamoorthy@nttdata.com
-----------------------------------------------------------------------------------------------------
12-08-2022 17:50:09
ValidateOTP - SUCCESS -Ponni.kaliyamoorthy@nttdata.com
-----------------------------------------------------------------------------------------------------
12-08-2022 23:02:35
SendOTP - START -Ponni.kaliyamoorthy@nttdata.com
-----------------------------------------------------------------------------------------------------
12-08-2022 23:02:35
CheckMail - START -Ponni.kaliyamoorthy@nttdata.com
-----------------------------------------------------------------------------------------------------
12-08-2022 23:02:39
CheckEmailSAP - Success -PONNI.KALIYAMOORTHY@NTTDATA.COM
-----------------------------------------------------------------------------------------------------
12-08-2022 23:02:39
SendOTP - SUCCESS -Ponni.kaliyamoorthy@nttdata.com
-----------------------------------------------------------------------------------------------------
12-08-2022 23:02:39
InsertOTP - START -
-----------------------------------------------------------------------------------------------------
12-08-2022 23:02:40
InsertOTP - Success -Ponni.kaliyamoorthy@nttdata.com
-----------------------------------------------------------------------------------------------------
12-08-2022 23:02:40
SendOTP - SUCCESS -Ponni.kaliyamoorthy@nttdata.com
-----------------------------------------------------------------------------------------------------
12-08-2022 23:03:11
ValidateOTP - START -Ponni.kaliyamoorthy@nttdata.com
-----------------------------------------------------------------------------------------------------
12-08-2022 23:03:11
GetOTPData - START -Ponni.kaliyamoorthy@nttdata.com
-----------------------------------------------------------------------------------------------------
12-08-2022 23:03:11
GetOTPData - Success -Ponni.kaliyamoorthy@nttdata.com
-----------------------------------------------------------------------------------------------------
12-08-2022 23:03:11
ValidateOTP - SUCCESS -Ponni.kaliyamoorthy@nttdata.com
-----------------------------------------------------------------------------------------------------
