20-09-2022 09:56:32
SendOTP - START -raviteja.raavi@nttdata.com
-----------------------------------------------------------------------------------------------------
20-09-2022 09:56:32
CheckMail - START -raviteja.raavi@nttdata.com
-----------------------------------------------------------------------------------------------------
20-09-2022 09:56:32
InsertOTP - START -
-----------------------------------------------------------------------------------------------------
20-09-2022 09:56:32
InsertOTP - Success -raviteja.raavi@nttdata.com
-----------------------------------------------------------------------------------------------------
20-09-2022 09:56:32
SendOTP - SUCCESS -raviteja.raavi@nttdata.com
-----------------------------------------------------------------------------------------------------
20-09-2022 09:57:04
ValidateOTP - START -raviteja.raavi@nttdata.com
-----------------------------------------------------------------------------------------------------
20-09-2022 09:57:04
GetOTPData - START -raviteja.raavi@nttdata.com
-----------------------------------------------------------------------------------------------------
20-09-2022 09:57:04
GetOTPData - Success -raviteja.raavi@nttdata.com
-----------------------------------------------------------------------------------------------------
20-09-2022 09:57:04
ValidateOTP - SUCCESS -raviteja.raavi@nttdata.com
-----------------------------------------------------------------------------------------------------
20-09-2022 10:07:59
SendOTP - START -raviteja.raavi@nttdata.com
-----------------------------------------------------------------------------------------------------
20-09-2022 10:07:59
CheckMail - START -raviteja.raavi@nttdata.com
-----------------------------------------------------------------------------------------------------
20-09-2022 10:08:00
InsertOTP - START -
-----------------------------------------------------------------------------------------------------
20-09-2022 10:08:00
InsertOTP - Success -raviteja.raavi@nttdata.com
-----------------------------------------------------------------------------------------------------
20-09-2022 10:08:00
SendOTP - SUCCESS -raviteja.raavi@nttdata.com
-----------------------------------------------------------------------------------------------------
20-09-2022 10:08:31
ValidateOTP - START -raviteja.raavi@nttdata.com
-----------------------------------------------------------------------------------------------------
20-09-2022 10:08:31
GetOTPData - START -raviteja.raavi@nttdata.com
-----------------------------------------------------------------------------------------------------
20-09-2022 10:08:31
GetOTPData - Success -raviteja.raavi@nttdata.com
-----------------------------------------------------------------------------------------------------
20-09-2022 10:08:31
ValidateOTP - SUCCESS -raviteja.raavi@nttdata.com
-----------------------------------------------------------------------------------------------------
20-09-2022 10:10:33
SendOTP - START -raviteja.raavi@nttdata.com
-----------------------------------------------------------------------------------------------------
20-09-2022 10:10:33
CheckMail - START -raviteja.raavi@nttdata.com
-----------------------------------------------------------------------------------------------------
20-09-2022 10:10:34
InsertOTP - START -
-----------------------------------------------------------------------------------------------------
20-09-2022 10:10:34
InsertOTP - Success -raviteja.raavi@nttdata.com
-----------------------------------------------------------------------------------------------------
20-09-2022 10:10:34
SendOTP - SUCCESS -raviteja.raavi@nttdata.com
-----------------------------------------------------------------------------------------------------
20-09-2022 10:11:06
ValidateOTP - START -raviteja.raavi@nttdata.com
-----------------------------------------------------------------------------------------------------
20-09-2022 10:11:06
GetOTPData - START -raviteja.raavi@nttdata.com
-----------------------------------------------------------------------------------------------------
20-09-2022 10:11:06
GetOTPData - Success -raviteja.raavi@nttdata.com
-----------------------------------------------------------------------------------------------------
20-09-2022 10:11:06
ValidateOTP - SUCCESS -raviteja.raavi@nttdata.com
-----------------------------------------------------------------------------------------------------
20-09-2022 10:12:06
SendOTP - START -raviteja.raavi@nttdata.com
-----------------------------------------------------------------------------------------------------
20-09-2022 10:12:06
CheckMail - START -raviteja.raavi@nttdata.com
-----------------------------------------------------------------------------------------------------
20-09-2022 10:12:07
InsertOTP - START -
-----------------------------------------------------------------------------------------------------
20-09-2022 10:12:07
InsertOTP - Success -raviteja.raavi@nttdata.com
-----------------------------------------------------------------------------------------------------
20-09-2022 10:12:07
SendOTP - SUCCESS -raviteja.raavi@nttdata.com
-----------------------------------------------------------------------------------------------------
20-09-2022 10:12:45
ValidateOTP - START -raviteja.raavi@nttdata.com
-----------------------------------------------------------------------------------------------------
20-09-2022 10:12:45
GetOTPData - START -raviteja.raavi@nttdata.com
-----------------------------------------------------------------------------------------------------
20-09-2022 10:12:45
GetOTPData - Success -raviteja.raavi@nttdata.com
-----------------------------------------------------------------------------------------------------
20-09-2022 10:12:45
ValidateOTP - SUCCESS -raviteja.raavi@nttdata.com
-----------------------------------------------------------------------------------------------------
20-09-2022 10:14:47
SendOTP - START -raviteja.raavi@nttdata.com
-----------------------------------------------------------------------------------------------------
20-09-2022 10:14:47
CheckMail - START -raviteja.raavi@nttdata.com
-----------------------------------------------------------------------------------------------------
20-09-2022 10:14:47
InsertOTP - START -
-----------------------------------------------------------------------------------------------------
20-09-2022 10:14:47
InsertOTP - Success -raviteja.raavi@nttdata.com
-----------------------------------------------------------------------------------------------------
20-09-2022 10:14:47
SendOTP - SUCCESS -raviteja.raavi@nttdata.com
-----------------------------------------------------------------------------------------------------
20-09-2022 10:15:33
ValidateOTP - START -raviteja.raavi@nttdata.com
-----------------------------------------------------------------------------------------------------
20-09-2022 10:15:33
GetOTPData - START -raviteja.raavi@nttdata.com
-----------------------------------------------------------------------------------------------------
20-09-2022 10:15:33
GetOTPData - Success -raviteja.raavi@nttdata.com
-----------------------------------------------------------------------------------------------------
20-09-2022 10:15:33
ValidateOTP - SUCCESS -raviteja.raavi@nttdata.com
-----------------------------------------------------------------------------------------------------
20-09-2022 10:17:08
SendOTP - START -raviteja.raavi@nttdata.com
-----------------------------------------------------------------------------------------------------
20-09-2022 10:17:08
CheckMail - START -raviteja.raavi@nttdata.com
-----------------------------------------------------------------------------------------------------
20-09-2022 10:17:08
InsertOTP - START -
-----------------------------------------------------------------------------------------------------
20-09-2022 10:17:08
InsertOTP - Success -raviteja.raavi@nttdata.com
-----------------------------------------------------------------------------------------------------
20-09-2022 10:17:08
SendOTP - SUCCESS -raviteja.raavi@nttdata.com
-----------------------------------------------------------------------------------------------------
20-09-2022 10:17:39
ValidateOTP - START -raviteja.raavi@nttdata.com
-----------------------------------------------------------------------------------------------------
20-09-2022 10:17:39
GetOTPData - START -raviteja.raavi@nttdata.com
-----------------------------------------------------------------------------------------------------
20-09-2022 10:17:39
GetOTPData - Success -raviteja.raavi@nttdata.com
-----------------------------------------------------------------------------------------------------
20-09-2022 10:17:39
ValidateOTP - SUCCESS -raviteja.raavi@nttdata.com
-----------------------------------------------------------------------------------------------------
20-09-2022 10:20:19
SendOTP - START -raviteja.raavi@nttdata.com
-----------------------------------------------------------------------------------------------------
20-09-2022 10:20:19
CheckMail - START -raviteja.raavi@nttdata.com
-----------------------------------------------------------------------------------------------------
20-09-2022 10:20:20
InsertOTP - START -
-----------------------------------------------------------------------------------------------------
20-09-2022 10:20:20
InsertOTP - Success -raviteja.raavi@nttdata.com
-----------------------------------------------------------------------------------------------------
20-09-2022 10:20:20
SendOTP - SUCCESS -raviteja.raavi@nttdata.com
-----------------------------------------------------------------------------------------------------
20-09-2022 10:20:55
ValidateOTP - START -raviteja.raavi@nttdata.com
-----------------------------------------------------------------------------------------------------
20-09-2022 10:20:55
GetOTPData - START -raviteja.raavi@nttdata.com
-----------------------------------------------------------------------------------------------------
20-09-2022 10:20:55
GetOTPData - Success -raviteja.raavi@nttdata.com
-----------------------------------------------------------------------------------------------------
20-09-2022 10:20:55
ValidateOTP - SUCCESS -raviteja.raavi@nttdata.com
-----------------------------------------------------------------------------------------------------
20-09-2022 10:32:09
SendOTP - START -raviteja.raavi@nttdata.com
-----------------------------------------------------------------------------------------------------
20-09-2022 10:32:09
CheckMail - START -raviteja.raavi@nttdata.com
-----------------------------------------------------------------------------------------------------
20-09-2022 10:32:09
InsertOTP - START -
-----------------------------------------------------------------------------------------------------
20-09-2022 10:32:09
InsertOTP - Success -raviteja.raavi@nttdata.com
-----------------------------------------------------------------------------------------------------
20-09-2022 10:32:09
SendOTP - SUCCESS -raviteja.raavi@nttdata.com
-----------------------------------------------------------------------------------------------------
20-09-2022 10:32:51
ValidateOTP - START -raviteja.raavi@nttdata.com
-----------------------------------------------------------------------------------------------------
20-09-2022 10:32:51
GetOTPData - START -raviteja.raavi@nttdata.com
-----------------------------------------------------------------------------------------------------
20-09-2022 10:32:51
GetOTPData - Success -raviteja.raavi@nttdata.com
-----------------------------------------------------------------------------------------------------
20-09-2022 10:32:51
ValidateOTP - SUCCESS -raviteja.raavi@nttdata.com
-----------------------------------------------------------------------------------------------------
20-09-2022 11:21:33
SendOTP - START -raviteja.raavi@nttdata.com
-----------------------------------------------------------------------------------------------------
20-09-2022 11:21:33
CheckMail - START -raviteja.raavi@nttdata.com
-----------------------------------------------------------------------------------------------------
20-09-2022 11:21:33
InsertOTP - START -
-----------------------------------------------------------------------------------------------------
20-09-2022 11:21:34
InsertOTP - Success -raviteja.raavi@nttdata.com
-----------------------------------------------------------------------------------------------------
20-09-2022 11:21:34
SendOTP - SUCCESS -raviteja.raavi@nttdata.com
-----------------------------------------------------------------------------------------------------
20-09-2022 11:22:16
ValidateOTP - START -raviteja.raavi@nttdata.com
-----------------------------------------------------------------------------------------------------
20-09-2022 11:22:16
GetOTPData - START -raviteja.raavi@nttdata.com
-----------------------------------------------------------------------------------------------------
20-09-2022 11:22:16
GetOTPData - Success -raviteja.raavi@nttdata.com
-----------------------------------------------------------------------------------------------------
20-09-2022 11:22:16
ValidateOTP - SUCCESS -raviteja.raavi@nttdata.com
-----------------------------------------------------------------------------------------------------
20-09-2022 11:41:48
SendOTP - START -raviteja.raavi@nttdata.com
-----------------------------------------------------------------------------------------------------
20-09-2022 11:41:48
CheckMail - START -raviteja.raavi@nttdata.com
-----------------------------------------------------------------------------------------------------
20-09-2022 11:41:48
InsertOTP - START -
-----------------------------------------------------------------------------------------------------
20-09-2022 11:41:48
InsertOTP - Success -raviteja.raavi@nttdata.com
-----------------------------------------------------------------------------------------------------
20-09-2022 11:41:48
SendOTP - SUCCESS -raviteja.raavi@nttdata.com
-----------------------------------------------------------------------------------------------------
20-09-2022 11:42:27
ValidateOTP - START -raviteja.raavi@nttdata.com
-----------------------------------------------------------------------------------------------------
20-09-2022 11:42:27
GetOTPData - START -raviteja.raavi@nttdata.com
-----------------------------------------------------------------------------------------------------
20-09-2022 11:42:27
GetOTPData - Success -raviteja.raavi@nttdata.com
-----------------------------------------------------------------------------------------------------
20-09-2022 11:42:27
ValidateOTP - SUCCESS -raviteja.raavi@nttdata.com
-----------------------------------------------------------------------------------------------------
20-09-2022 13:34:56
SendOTP - START -raviteja.raavi@nttdata.com
-----------------------------------------------------------------------------------------------------
20-09-2022 13:34:56
CheckMail - START -raviteja.raavi@nttdata.com
-----------------------------------------------------------------------------------------------------
20-09-2022 13:34:57
InsertOTP - START -
-----------------------------------------------------------------------------------------------------
20-09-2022 13:34:57
InsertOTP - Success -raviteja.raavi@nttdata.com
-----------------------------------------------------------------------------------------------------
20-09-2022 13:34:57
SendOTP - SUCCESS -raviteja.raavi@nttdata.com
-----------------------------------------------------------------------------------------------------
20-09-2022 13:35:32
ValidateOTP - START -raviteja.raavi@nttdata.com
-----------------------------------------------------------------------------------------------------
20-09-2022 13:35:32
GetOTPData - START -raviteja.raavi@nttdata.com
-----------------------------------------------------------------------------------------------------
20-09-2022 13:35:32
GetOTPData - Success -raviteja.raavi@nttdata.com
-----------------------------------------------------------------------------------------------------
20-09-2022 13:35:32
ValidateOTP - SUCCESS -raviteja.raavi@nttdata.com
-----------------------------------------------------------------------------------------------------
20-09-2022 13:40:05
SendOTP - START -raviteja.raavi@nttdata.com
-----------------------------------------------------------------------------------------------------
20-09-2022 13:40:05
CheckMail - START -raviteja.raavi@nttdata.com
-----------------------------------------------------------------------------------------------------
20-09-2022 13:40:05
InsertOTP - START -
-----------------------------------------------------------------------------------------------------
20-09-2022 13:40:05
InsertOTP - Success -raviteja.raavi@nttdata.com
-----------------------------------------------------------------------------------------------------
20-09-2022 13:40:05
SendOTP - SUCCESS -raviteja.raavi@nttdata.com
-----------------------------------------------------------------------------------------------------
20-09-2022 13:40:36
ValidateOTP - START -raviteja.raavi@nttdata.com
-----------------------------------------------------------------------------------------------------
20-09-2022 13:40:36
GetOTPData - START -raviteja.raavi@nttdata.com
-----------------------------------------------------------------------------------------------------
20-09-2022 13:40:36
GetOTPData - Success -raviteja.raavi@nttdata.com
-----------------------------------------------------------------------------------------------------
20-09-2022 13:40:36
ValidateOTP - SUCCESS -raviteja.raavi@nttdata.com
-----------------------------------------------------------------------------------------------------
20-09-2022 13:43:29
SendOTP - START -raviteja.raavi@nttdata.com
-----------------------------------------------------------------------------------------------------
20-09-2022 13:43:29
CheckMail - START -raviteja.raavi@nttdata.com
-----------------------------------------------------------------------------------------------------
20-09-2022 13:43:29
InsertOTP - START -
-----------------------------------------------------------------------------------------------------
20-09-2022 13:43:29
InsertOTP - Success -raviteja.raavi@nttdata.com
-----------------------------------------------------------------------------------------------------
20-09-2022 13:43:29
SendOTP - SUCCESS -raviteja.raavi@nttdata.com
-----------------------------------------------------------------------------------------------------
20-09-2022 13:44:01
ValidateOTP - START -raviteja.raavi@nttdata.com
-----------------------------------------------------------------------------------------------------
20-09-2022 13:44:01
GetOTPData - START -raviteja.raavi@nttdata.com
-----------------------------------------------------------------------------------------------------
20-09-2022 13:44:01
GetOTPData - Success -raviteja.raavi@nttdata.com
-----------------------------------------------------------------------------------------------------
20-09-2022 13:44:01
ValidateOTP - SUCCESS -raviteja.raavi@nttdata.com
-----------------------------------------------------------------------------------------------------
