22-08-2022 15:29:51
SendOTP - START -Ponni.kaliyamoorthy@nttdata.com
-----------------------------------------------------------------------------------------------------
22-08-2022 15:29:51
CheckMail - START -Ponni.kaliyamoorthy@nttdata.com
-----------------------------------------------------------------------------------------------------
22-08-2022 15:29:52
CheckEmailSAP - Success -PONNI.KALIYAMOORTHY@NTTDATA.COM
-----------------------------------------------------------------------------------------------------
22-08-2022 15:29:52
SendOTP - SUCCESS -Ponni.kaliyamoorthy@nttdata.com
-----------------------------------------------------------------------------------------------------
22-08-2022 15:29:53
InsertOTP - START -
-----------------------------------------------------------------------------------------------------
22-08-2022 15:29:54
InsertOTP - Success -Ponni.kaliyamoorthy@nttdata.com
-----------------------------------------------------------------------------------------------------
22-08-2022 15:29:54
SendOTP - SUCCESS -Ponni.kaliyamoorthy@nttdata.com
-----------------------------------------------------------------------------------------------------
22-08-2022 19:08:31
SendOTP - START -Ponni.kaliyamoorthy@nttdata.com
-----------------------------------------------------------------------------------------------------
22-08-2022 19:08:31
CheckMail - START -Ponni.kaliyamoorthy@nttdata.com
-----------------------------------------------------------------------------------------------------
22-08-2022 19:08:33
CheckEmailSAP - Success -PONNI.KALIYAMOORTHY@NTTDATA.COM
-----------------------------------------------------------------------------------------------------
22-08-2022 19:08:33
SendOTP - SUCCESS -Ponni.kaliyamoorthy@nttdata.com
-----------------------------------------------------------------------------------------------------
22-08-2022 19:08:34
InsertOTP - START -
-----------------------------------------------------------------------------------------------------
22-08-2022 19:08:34
InsertOTP - Success -Ponni.kaliyamoorthy@nttdata.com
-----------------------------------------------------------------------------------------------------
22-08-2022 19:08:34
SendOTP - SUCCESS -Ponni.kaliyamoorthy@nttdata.com
-----------------------------------------------------------------------------------------------------
22-08-2022 19:08:38
ValidateOTP - START -Ponni.kaliyamoorthy@nttdata.com
-----------------------------------------------------------------------------------------------------
22-08-2022 19:08:38
GetOTPData - START -Ponni.kaliyamoorthy@nttdata.com
-----------------------------------------------------------------------------------------------------
22-08-2022 19:08:38
GetOTPData - Success -Ponni.kaliyamoorthy@nttdata.com
-----------------------------------------------------------------------------------------------------
22-08-2022 23:04:27
SendOTP - START -Ponni.kaliyamoorthy@nttdata.com
-----------------------------------------------------------------------------------------------------
22-08-2022 23:04:27
CheckMail - START -Ponni.kaliyamoorthy@nttdata.com
-----------------------------------------------------------------------------------------------------
22-08-2022 23:04:28
CheckEmailSAP - Success -PONNI.KALIYAMOORTHY@NTTDATA.COM
-----------------------------------------------------------------------------------------------------
22-08-2022 23:04:28
SendOTP - SUCCESS -Ponni.kaliyamoorthy@nttdata.com
-----------------------------------------------------------------------------------------------------
22-08-2022 23:04:30
InsertOTP - START -
-----------------------------------------------------------------------------------------------------
22-08-2022 23:04:30
InsertOTP - Success -Ponni.kaliyamoorthy@nttdata.com
-----------------------------------------------------------------------------------------------------
22-08-2022 23:04:30
SendOTP - SUCCESS -Ponni.kaliyamoorthy@nttdata.com
-----------------------------------------------------------------------------------------------------
22-08-2022 23:04:48
ValidateOTP - START -Ponni.kaliyamoorthy@nttdata.com
-----------------------------------------------------------------------------------------------------
22-08-2022 23:04:48
GetOTPData - START -Ponni.kaliyamoorthy@nttdata.com
-----------------------------------------------------------------------------------------------------
22-08-2022 23:04:48
GetOTPData - Success -Ponni.kaliyamoorthy@nttdata.com
-----------------------------------------------------------------------------------------------------
22-08-2022 23:07:31
SendOTP - START -Ponni.kaliyamoorthy@nttdata.com
-----------------------------------------------------------------------------------------------------
22-08-2022 23:07:31
CheckMail - START -Ponni.kaliyamoorthy@nttdata.com
-----------------------------------------------------------------------------------------------------
22-08-2022 23:07:33
CheckEmailSAP - Success -PONNI.KALIYAMOORTHY@NTTDATA.COM
-----------------------------------------------------------------------------------------------------
22-08-2022 23:07:33
SendOTP - SUCCESS -Ponni.kaliyamoorthy@nttdata.com
-----------------------------------------------------------------------------------------------------
22-08-2022 23:07:35
InsertOTP - START -
-----------------------------------------------------------------------------------------------------
22-08-2022 23:07:36
InsertOTP - Success -Ponni.kaliyamoorthy@nttdata.com
-----------------------------------------------------------------------------------------------------
22-08-2022 23:07:36
SendOTP - SUCCESS -Ponni.kaliyamoorthy@nttdata.com
-----------------------------------------------------------------------------------------------------
22-08-2022 23:07:41
ValidateOTP - START -Ponni.kaliyamoorthy@nttdata.com
-----------------------------------------------------------------------------------------------------
22-08-2022 23:07:41
GetOTPData - START -Ponni.kaliyamoorthy@nttdata.com
-----------------------------------------------------------------------------------------------------
22-08-2022 23:07:41
GetOTPData - Success -Ponni.kaliyamoorthy@nttdata.com
-----------------------------------------------------------------------------------------------------
22-08-2022 23:21:25
SendOTP - START -Ponni.kaliyamoorthy@nttdata.com
-----------------------------------------------------------------------------------------------------
22-08-2022 23:21:25
CheckMail - START -Ponni.kaliyamoorthy@nttdata.com
-----------------------------------------------------------------------------------------------------
22-08-2022 23:21:26
CheckEmailSAP - Success -PONNI.KALIYAMOORTHY@NTTDATA.COM
-----------------------------------------------------------------------------------------------------
22-08-2022 23:21:26
SendOTP - SUCCESS -Ponni.kaliyamoorthy@nttdata.com
-----------------------------------------------------------------------------------------------------
22-08-2022 23:21:27
InsertOTP - START -
-----------------------------------------------------------------------------------------------------
22-08-2022 23:21:27
InsertOTP - Success -Ponni.kaliyamoorthy@nttdata.com
-----------------------------------------------------------------------------------------------------
22-08-2022 23:21:27
SendOTP - SUCCESS -Ponni.kaliyamoorthy@nttdata.com
-----------------------------------------------------------------------------------------------------
22-08-2022 23:21:41
ValidateOTP - START -Ponni.kaliyamoorthy@nttdata.com
-----------------------------------------------------------------------------------------------------
22-08-2022 23:21:41
GetOTPData - START -Ponni.kaliyamoorthy@nttdata.com
-----------------------------------------------------------------------------------------------------
22-08-2022 23:21:42
GetOTPData - Success -Ponni.kaliyamoorthy@nttdata.com
-----------------------------------------------------------------------------------------------------
22-08-2022 23:35:58
SendOTP - START -Ponni.kaliyamoorthy@nttdata.com
-----------------------------------------------------------------------------------------------------
22-08-2022 23:35:58
CheckMail - START -Ponni.kaliyamoorthy@nttdata.com
-----------------------------------------------------------------------------------------------------
22-08-2022 23:36:00
CheckEmailSAP - Success -PONNI.KALIYAMOORTHY@NTTDATA.COM
-----------------------------------------------------------------------------------------------------
22-08-2022 23:36:00
SendOTP - SUCCESS -Ponni.kaliyamoorthy@nttdata.com
-----------------------------------------------------------------------------------------------------
22-08-2022 23:36:01
InsertOTP - START -
-----------------------------------------------------------------------------------------------------
22-08-2022 23:36:01
InsertOTP - Success -Ponni.kaliyamoorthy@nttdata.com
-----------------------------------------------------------------------------------------------------
22-08-2022 23:36:01
SendOTP - SUCCESS -Ponni.kaliyamoorthy@nttdata.com
-----------------------------------------------------------------------------------------------------
22-08-2022 23:36:11
ValidateOTP - START -Ponni.kaliyamoorthy@nttdata.com
-----------------------------------------------------------------------------------------------------
22-08-2022 23:36:11
GetOTPData - START -Ponni.kaliyamoorthy@nttdata.com
-----------------------------------------------------------------------------------------------------
22-08-2022 23:36:11
GetOTPData - Success -Ponni.kaliyamoorthy@nttdata.com
-----------------------------------------------------------------------------------------------------
