23-08-2022 18:09:58
SendOTP - START -Ponni.kaliyamoorthy@nttdata.com
-----------------------------------------------------------------------------------------------------
23-08-2022 18:09:58
CheckMail - START -Ponni.kaliyamoorthy@nttdata.com
-----------------------------------------------------------------------------------------------------
23-08-2022 18:10:32
CheckEmailSAP - Success -PONNI.KALIYAMOORTHY@NTTDATA.COM
-----------------------------------------------------------------------------------------------------
23-08-2022 18:10:32
CheckMail - ERROR -Ponni.kaliyamoorthy@nttdata.com
-----------------------------------------------------------------------------------------------------
23-08-2022 18:12:30
SendOTP - START -Ponni.kaliyamoorthy@nttdata.com
-----------------------------------------------------------------------------------------------------
23-08-2022 18:12:30
CheckMail - START -Ponni.kaliyamoorthy@nttdata.com
-----------------------------------------------------------------------------------------------------
23-08-2022 18:12:31
CheckEmailSAP - Success -PONNI.KALIYAMOORTHY@NTTDATA.COM
-----------------------------------------------------------------------------------------------------
23-08-2022 18:12:31
SendOTP - SUCCESS -Ponni.kaliyamoorthy@nttdata.com
-----------------------------------------------------------------------------------------------------
23-08-2022 18:12:32
InsertOTP - START -
-----------------------------------------------------------------------------------------------------
23-08-2022 18:12:33
InsertOTP - Success -Ponni.kaliyamoorthy@nttdata.com
-----------------------------------------------------------------------------------------------------
23-08-2022 18:12:33
SendOTP - SUCCESS -Ponni.kaliyamoorthy@nttdata.com
-----------------------------------------------------------------------------------------------------
23-08-2022 19:03:30
SendOTP - START -Ponni.kaliyamoorthy@nttdata.com
-----------------------------------------------------------------------------------------------------
23-08-2022 19:03:34
CheckMail - START -Ponni.kaliyamoorthy@nttdata.com
-----------------------------------------------------------------------------------------------------
23-08-2022 19:03:40
CheckEmailSAP - Success -PONNI.KALIYAMOORTHY@NTTDATA.COM
-----------------------------------------------------------------------------------------------------
23-08-2022 19:03:40
SendOTP - SUCCESS -Ponni.kaliyamoorthy@nttdata.com
-----------------------------------------------------------------------------------------------------
23-08-2022 19:05:50
InsertOTP - START -
-----------------------------------------------------------------------------------------------------
23-08-2022 19:06:00
InsertOTP - Success -Ponni.kaliyamoorthy@nttdata.com
-----------------------------------------------------------------------------------------------------
23-08-2022 19:06:00
SendOTP - SUCCESS -Ponni.kaliyamoorthy@nttdata.com
-----------------------------------------------------------------------------------------------------
23-08-2022 19:08:24
ValidateOTP - START -Ponni.kaliyamoorthy@nttdata.com
-----------------------------------------------------------------------------------------------------
23-08-2022 19:08:24
GetOTPData - START -Ponni.kaliyamoorthy@nttdata.com
-----------------------------------------------------------------------------------------------------
23-08-2022 19:08:34
GetOTPData - Success -Ponni.kaliyamoorthy@nttdata.com
-----------------------------------------------------------------------------------------------------
23-08-2022 19:08:34
ValidateOTP - SUCCESS -Ponni.kaliyamoorthy@nttdata.com
-----------------------------------------------------------------------------------------------------
23-08-2022 21:18:16
SendOTP - START -Ponni.kaliyamoorthy@nttdata.com
-----------------------------------------------------------------------------------------------------
23-08-2022 21:18:16
CheckMail - START -Ponni.kaliyamoorthy@nttdata.com
-----------------------------------------------------------------------------------------------------
23-08-2022 21:18:20
CheckEmailSAP - Success -PONNI.KALIYAMOORTHY@NTTDATA.COM
-----------------------------------------------------------------------------------------------------
23-08-2022 21:18:20
SendOTP - SUCCESS -Ponni.kaliyamoorthy@nttdata.com
-----------------------------------------------------------------------------------------------------
23-08-2022 21:18:27
InsertOTP - START -
-----------------------------------------------------------------------------------------------------
23-08-2022 21:18:27
InsertOTP - Success -Ponni.kaliyamoorthy@nttdata.com
-----------------------------------------------------------------------------------------------------
23-08-2022 21:18:27
SendOTP - SUCCESS -Ponni.kaliyamoorthy@nttdata.com
-----------------------------------------------------------------------------------------------------
23-08-2022 21:19:00
ValidateOTP - START -Ponni.kaliyamoorthy@nttdata.com
-----------------------------------------------------------------------------------------------------
23-08-2022 21:19:00
GetOTPData - START -Ponni.kaliyamoorthy@nttdata.com
-----------------------------------------------------------------------------------------------------
23-08-2022 21:19:01
GetOTPData - Success -Ponni.kaliyamoorthy@nttdata.com
-----------------------------------------------------------------------------------------------------
23-08-2022 21:19:01
ValidateOTP - SUCCESS -Ponni.kaliyamoorthy@nttdata.com
-----------------------------------------------------------------------------------------------------
23-08-2022 22:46:12
SendOTP - START -Ponni.kaliyamoorthy@nttdata.com
-----------------------------------------------------------------------------------------------------
23-08-2022 22:46:12
CheckMail - START -Ponni.kaliyamoorthy@nttdata.com
-----------------------------------------------------------------------------------------------------
23-08-2022 22:46:15
CheckEmailSAP - Success -PONNI.KALIYAMOORTHY@NTTDATA.COM
-----------------------------------------------------------------------------------------------------
23-08-2022 22:46:15
SendOTP - SUCCESS -Ponni.kaliyamoorthy@nttdata.com
-----------------------------------------------------------------------------------------------------
23-08-2022 22:46:16
InsertOTP - START -
-----------------------------------------------------------------------------------------------------
23-08-2022 22:46:17
InsertOTP - Success -Ponni.kaliyamoorthy@nttdata.com
-----------------------------------------------------------------------------------------------------
23-08-2022 22:46:17
SendOTP - SUCCESS -Ponni.kaliyamoorthy@nttdata.com
-----------------------------------------------------------------------------------------------------
23-08-2022 22:47:30
ValidateOTP - START -Ponni.kaliyamoorthy@nttdata.com
-----------------------------------------------------------------------------------------------------
23-08-2022 22:47:30
GetOTPData - START -Ponni.kaliyamoorthy@nttdata.com
-----------------------------------------------------------------------------------------------------
23-08-2022 22:47:30
GetOTPData - Success -Ponni.kaliyamoorthy@nttdata.com
-----------------------------------------------------------------------------------------------------
23-08-2022 22:47:30
ValidateOTP - SUCCESS -Ponni.kaliyamoorthy@nttdata.com
-----------------------------------------------------------------------------------------------------
23-08-2022 23:01:42
SendOTP - START -Ponni.kaliyamoorthy@nttdata.com
-----------------------------------------------------------------------------------------------------
23-08-2022 23:01:42
CheckMail - START -Ponni.kaliyamoorthy@nttdata.com
-----------------------------------------------------------------------------------------------------
23-08-2022 23:01:43
CheckEmailSAP - Success -PONNI.KALIYAMOORTHY@NTTDATA.COM
-----------------------------------------------------------------------------------------------------
23-08-2022 23:01:43
SendOTP - SUCCESS -Ponni.kaliyamoorthy@nttdata.com
-----------------------------------------------------------------------------------------------------
23-08-2022 23:01:43
InsertOTP - START -
-----------------------------------------------------------------------------------------------------
23-08-2022 23:01:44
InsertOTP - Success -Ponni.kaliyamoorthy@nttdata.com
-----------------------------------------------------------------------------------------------------
23-08-2022 23:01:44
SendOTP - SUCCESS -Ponni.kaliyamoorthy@nttdata.com
-----------------------------------------------------------------------------------------------------
23-08-2022 23:02:24
ValidateOTP - START -Ponni.kaliyamoorthy@nttdata.com
-----------------------------------------------------------------------------------------------------
23-08-2022 23:02:24
GetOTPData - START -Ponni.kaliyamoorthy@nttdata.com
-----------------------------------------------------------------------------------------------------
23-08-2022 23:02:24
GetOTPData - Success -Ponni.kaliyamoorthy@nttdata.com
-----------------------------------------------------------------------------------------------------
23-08-2022 23:02:24
ValidateOTP - SUCCESS -Ponni.kaliyamoorthy@nttdata.com
-----------------------------------------------------------------------------------------------------
23-08-2022 23:33:00
SendOTP - START -Ponni.kaliyamoorthy@nttdata.com
-----------------------------------------------------------------------------------------------------
23-08-2022 23:33:00
CheckMail - START -Ponni.kaliyamoorthy@nttdata.com
-----------------------------------------------------------------------------------------------------
23-08-2022 23:33:00
CheckEmailSAP - Success -PONNI.KALIYAMOORTHY@NTTDATA.COM
-----------------------------------------------------------------------------------------------------
23-08-2022 23:33:00
SendOTP - SUCCESS -Ponni.kaliyamoorthy@nttdata.com
-----------------------------------------------------------------------------------------------------
23-08-2022 23:33:01
InsertOTP - START -
-----------------------------------------------------------------------------------------------------
23-08-2022 23:33:02
InsertOTP - Success -Ponni.kaliyamoorthy@nttdata.com
-----------------------------------------------------------------------------------------------------
23-08-2022 23:33:02
SendOTP - SUCCESS -Ponni.kaliyamoorthy@nttdata.com
-----------------------------------------------------------------------------------------------------
23-08-2022 23:34:10
ValidateOTP - START -Ponni.kaliyamoorthy@nttdata.com
-----------------------------------------------------------------------------------------------------
23-08-2022 23:34:10
GetOTPData - START -Ponni.kaliyamoorthy@nttdata.com
-----------------------------------------------------------------------------------------------------
23-08-2022 23:34:11
GetOTPData - Success -Ponni.kaliyamoorthy@nttdata.com
-----------------------------------------------------------------------------------------------------
23-08-2022 23:34:11
ValidateOTP - SUCCESS -Ponni.kaliyamoorthy@nttdata.com
-----------------------------------------------------------------------------------------------------
