26-08-2022 00:01:34
SendOTP - START -Ponni.kaliyamoorthy@nttdata.com
-----------------------------------------------------------------------------------------------------
26-08-2022 00:01:34
CheckMail - START -Ponni.kaliyamoorthy@nttdata.com
-----------------------------------------------------------------------------------------------------
26-08-2022 00:01:35
CheckEmailSAP - Success -PONNI.KALIYAMOORTHY@NTTDATA.COM
-----------------------------------------------------------------------------------------------------
26-08-2022 00:01:35
SendOTP - SUCCESS -Ponni.kaliyamoorthy@nttdata.com
-----------------------------------------------------------------------------------------------------
26-08-2022 00:01:36
InsertOTP - START -
-----------------------------------------------------------------------------------------------------
26-08-2022 00:01:37
InsertOTP - Success -Ponni.kaliyamoorthy@nttdata.com
-----------------------------------------------------------------------------------------------------
26-08-2022 00:01:37
SendOTP - SUCCESS -Ponni.kaliyamoorthy@nttdata.com
-----------------------------------------------------------------------------------------------------
26-08-2022 00:01:45
ValidateOTP - START -Ponni.kaliyamoorthy@nttdata.com
-----------------------------------------------------------------------------------------------------
26-08-2022 00:01:45
GetOTPData - START -Ponni.kaliyamoorthy@nttdata.com
-----------------------------------------------------------------------------------------------------
26-08-2022 00:01:45
GetOTPData - Success -Ponni.kaliyamoorthy@nttdata.com
-----------------------------------------------------------------------------------------------------
26-08-2022 13:46:38
SendOTP - START -Ponni.kaliyamoorthy@nttdata.com
-----------------------------------------------------------------------------------------------------
26-08-2022 13:46:38
CheckMail - START -Ponni.kaliyamoorthy@nttdata.com
-----------------------------------------------------------------------------------------------------
26-08-2022 13:46:40
CheckEmailSAP - Success -PONNI.KALIYAMOORTHY@NTTDATA.COM
-----------------------------------------------------------------------------------------------------
26-08-2022 13:46:40
SendOTP - SUCCESS -Ponni.kaliyamoorthy@nttdata.com
-----------------------------------------------------------------------------------------------------
26-08-2022 13:46:46
SendOTP - ERROR -Ponni.kaliyamoorthy@nttdata.com
-----------------------------------------------------------------------------------------------------
26-08-2022 13:47:19
SendOTP - START -Ponni.kaliyamoorthy@nttdata.com
-----------------------------------------------------------------------------------------------------
26-08-2022 13:47:19
CheckMail - START -Ponni.kaliyamoorthy@nttdata.com
-----------------------------------------------------------------------------------------------------
26-08-2022 13:47:19
CheckEmailSAP - Success -PONNI.KALIYAMOORTHY@NTTDATA.COM
-----------------------------------------------------------------------------------------------------
26-08-2022 13:47:19
SendOTP - SUCCESS -Ponni.kaliyamoorthy@nttdata.com
-----------------------------------------------------------------------------------------------------
26-08-2022 13:47:22
InsertOTP - START -
-----------------------------------------------------------------------------------------------------
26-08-2022 13:47:25
InsertOTP - Success -Ponni.kaliyamoorthy@nttdata.com
-----------------------------------------------------------------------------------------------------
26-08-2022 13:47:25
SendOTP - SUCCESS -Ponni.kaliyamoorthy@nttdata.com
-----------------------------------------------------------------------------------------------------
26-08-2022 14:03:23
ValidateOTP - START -Ponni.kaliyamoorthy@nttdata.com
-----------------------------------------------------------------------------------------------------
26-08-2022 14:03:23
GetOTPData - START -Ponni.kaliyamoorthy@nttdata.com
-----------------------------------------------------------------------------------------------------
26-08-2022 14:04:00
GetOTPData - Error -Ponni.kaliyamoorthy@nttdata.com
-----------------------------------------------------------------------------------------------------
26-08-2022 14:28:25
SendOTP - START -Ponni.kaliyamoorthy@nttdata.com
-----------------------------------------------------------------------------------------------------
26-08-2022 14:28:25
CheckMail - START -Ponni.kaliyamoorthy@nttdata.com
-----------------------------------------------------------------------------------------------------
26-08-2022 14:28:26
CheckEmailSAP - Success -PONNI.KALIYAMOORTHY@NTTDATA.COM
-----------------------------------------------------------------------------------------------------
26-08-2022 14:28:26
SendOTP - SUCCESS -Ponni.kaliyamoorthy@nttdata.com
-----------------------------------------------------------------------------------------------------
26-08-2022 14:28:27
InsertOTP - START -
-----------------------------------------------------------------------------------------------------
26-08-2022 14:28:28
InsertOTP - Success -Ponni.kaliyamoorthy@nttdata.com
-----------------------------------------------------------------------------------------------------
26-08-2022 14:28:28
SendOTP - SUCCESS -Ponni.kaliyamoorthy@nttdata.com
-----------------------------------------------------------------------------------------------------
26-08-2022 14:29:10
ValidateOTP - START -Ponni.kaliyamoorthy@nttdata.com
-----------------------------------------------------------------------------------------------------
26-08-2022 14:29:10
GetOTPData - START -Ponni.kaliyamoorthy@nttdata.com
-----------------------------------------------------------------------------------------------------
26-08-2022 14:29:10
GetOTPData - Success -Ponni.kaliyamoorthy@nttdata.com
-----------------------------------------------------------------------------------------------------
26-08-2022 14:29:10
ValidateOTP - SUCCESS -Ponni.kaliyamoorthy@nttdata.com
-----------------------------------------------------------------------------------------------------
26-08-2022 18:05:10
SendOTP - START -Ponni.kaliyamoorthy@nttdata.com
-----------------------------------------------------------------------------------------------------
26-08-2022 18:05:10
CheckMail - START -Ponni.kaliyamoorthy@nttdata.com
-----------------------------------------------------------------------------------------------------
26-08-2022 18:05:13
CheckEmailSAP - Success -PONNI.KALIYAMOORTHY@NTTDATA.COM
-----------------------------------------------------------------------------------------------------
26-08-2022 18:05:13
SendOTP - SUCCESS -Ponni.kaliyamoorthy@nttdata.com
-----------------------------------------------------------------------------------------------------
26-08-2022 18:05:14
InsertOTP - START -
-----------------------------------------------------------------------------------------------------
26-08-2022 18:05:15
InsertOTP - Success -Ponni.kaliyamoorthy@nttdata.com
-----------------------------------------------------------------------------------------------------
26-08-2022 18:05:15
SendOTP - SUCCESS -Ponni.kaliyamoorthy@nttdata.com
-----------------------------------------------------------------------------------------------------
26-08-2022 18:10:39
ValidateOTP - START -Ponni.kaliyamoorthy@nttdata.com
-----------------------------------------------------------------------------------------------------
26-08-2022 18:10:39
GetOTPData - START -Ponni.kaliyamoorthy@nttdata.com
-----------------------------------------------------------------------------------------------------
26-08-2022 18:10:40
GetOTPData - Success -Ponni.kaliyamoorthy@nttdata.com
-----------------------------------------------------------------------------------------------------
26-08-2022 18:50:08
SendOTP - START -Ponni.kaliyamoorthy@nttdata.com
-----------------------------------------------------------------------------------------------------
26-08-2022 18:50:08
CheckMail - START -Ponni.kaliyamoorthy@nttdata.com
-----------------------------------------------------------------------------------------------------
26-08-2022 18:50:10
CheckEmailSAP - Success -PONNI.KALIYAMOORTHY@NTTDATA.COM
-----------------------------------------------------------------------------------------------------
26-08-2022 18:50:10
SendOTP - SUCCESS -Ponni.kaliyamoorthy@nttdata.com
-----------------------------------------------------------------------------------------------------
26-08-2022 18:50:13
InsertOTP - START -
-----------------------------------------------------------------------------------------------------
26-08-2022 18:50:15
InsertOTP - Success -Ponni.kaliyamoorthy@nttdata.com
-----------------------------------------------------------------------------------------------------
26-08-2022 18:50:15
SendOTP - SUCCESS -Ponni.kaliyamoorthy@nttdata.com
-----------------------------------------------------------------------------------------------------
26-08-2022 18:50:31
ValidateOTP - START -Ponni.kaliyamoorthy@nttdata.com
-----------------------------------------------------------------------------------------------------
26-08-2022 18:50:31
GetOTPData - START -Ponni.kaliyamoorthy@nttdata.com
-----------------------------------------------------------------------------------------------------
26-08-2022 18:50:31
GetOTPData - Success -Ponni.kaliyamoorthy@nttdata.com
-----------------------------------------------------------------------------------------------------
26-08-2022 19:21:45
SendOTP - START -Ponni.kaliyamoorthy@nttdata.com
-----------------------------------------------------------------------------------------------------
26-08-2022 19:21:45
CheckMail - START -Ponni.kaliyamoorthy@nttdata.com
-----------------------------------------------------------------------------------------------------
26-08-2022 19:21:46
CheckEmailSAP - Success -PONNI.KALIYAMOORTHY@NTTDATA.COM
-----------------------------------------------------------------------------------------------------
26-08-2022 19:21:46
SendOTP - SUCCESS -Ponni.kaliyamoorthy@nttdata.com
-----------------------------------------------------------------------------------------------------
26-08-2022 19:21:47
InsertOTP - START -
-----------------------------------------------------------------------------------------------------
26-08-2022 19:21:48
InsertOTP - Success -Ponni.kaliyamoorthy@nttdata.com
-----------------------------------------------------------------------------------------------------
26-08-2022 19:21:48
SendOTP - SUCCESS -Ponni.kaliyamoorthy@nttdata.com
-----------------------------------------------------------------------------------------------------
26-08-2022 19:22:17
ValidateOTP - START -Ponni.kaliyamoorthy@nttdata.com
-----------------------------------------------------------------------------------------------------
26-08-2022 19:22:17
GetOTPData - START -Ponni.kaliyamoorthy@nttdata.com
-----------------------------------------------------------------------------------------------------
26-08-2022 19:22:17
GetOTPData - Success -Ponni.kaliyamoorthy@nttdata.com
-----------------------------------------------------------------------------------------------------
