28-08-2022 10:15:46
SendOTP - START -Ponni.kaliyamoorthy@nttdata.com
-----------------------------------------------------------------------------------------------------
28-08-2022 10:15:46
CheckMail - START -Ponni.kaliyamoorthy@nttdata.com
-----------------------------------------------------------------------------------------------------
28-08-2022 10:15:55
CheckEmailSAP - Success -PONNI.KALIYAMOORTHY@NTTDATA.COM
-----------------------------------------------------------------------------------------------------
28-08-2022 10:15:55
SendOTP - SUCCESS -Ponni.kaliyamoorthy@nttdata.com
-----------------------------------------------------------------------------------------------------
28-08-2022 10:16:01
InsertOTP - START -
-----------------------------------------------------------------------------------------------------
28-08-2022 10:16:03
InsertOTP - Success -Ponni.kaliyamoorthy@nttdata.com
-----------------------------------------------------------------------------------------------------
28-08-2022 10:16:03
SendOTP - SUCCESS -Ponni.kaliyamoorthy@nttdata.com
-----------------------------------------------------------------------------------------------------
28-08-2022 10:19:38
ValidateOTP - START -Ponni.kaliyamoorthy@nttdata.com
-----------------------------------------------------------------------------------------------------
28-08-2022 10:19:38
GetOTPData - START -Ponni.kaliyamoorthy@nttdata.com
-----------------------------------------------------------------------------------------------------
28-08-2022 10:19:38
GetOTPData - Success -Ponni.kaliyamoorthy@nttdata.com
-----------------------------------------------------------------------------------------------------
28-08-2022 10:44:02
SendOTP - START -Ponni.kaliyamoorthy@nttdata.com
-----------------------------------------------------------------------------------------------------
28-08-2022 10:44:02
CheckMail - START -Ponni.kaliyamoorthy@nttdata.com
-----------------------------------------------------------------------------------------------------
28-08-2022 10:44:25
CheckEmailSAP - Success -PONNI.KALIYAMOORTHY@NTTDATA.COM
-----------------------------------------------------------------------------------------------------
28-08-2022 10:44:25
CheckMail - ERROR -Ponni.kaliyamoorthy@nttdata.com
-----------------------------------------------------------------------------------------------------
28-08-2022 10:44:46
SendOTP - START -Ponni.kaliyamoorthy@nttdata.com
-----------------------------------------------------------------------------------------------------
28-08-2022 10:44:46
CheckMail - START -Ponni.kaliyamoorthy@nttdata.com
-----------------------------------------------------------------------------------------------------
28-08-2022 10:45:08
CheckEmailSAP - Success -PONNI.KALIYAMOORTHY@NTTDATA.COM
-----------------------------------------------------------------------------------------------------
28-08-2022 10:45:08
CheckMail - ERROR -Ponni.kaliyamoorthy@nttdata.com
-----------------------------------------------------------------------------------------------------
28-08-2022 10:46:18
SendOTP - START -Ponni.kaliyamoorthy@nttdata.com
-----------------------------------------------------------------------------------------------------
28-08-2022 10:46:18
CheckMail - START -Ponni.kaliyamoorthy@nttdata.com
-----------------------------------------------------------------------------------------------------
28-08-2022 10:46:40
CheckEmailSAP - Success -PONNI.KALIYAMOORTHY@NTTDATA.COM
-----------------------------------------------------------------------------------------------------
28-08-2022 10:46:40
CheckMail - ERROR -Ponni.kaliyamoorthy@nttdata.com
-----------------------------------------------------------------------------------------------------
28-08-2022 10:47:24
SendOTP - START -Ponni.kaliyamoorthy@nttdata.com
-----------------------------------------------------------------------------------------------------
28-08-2022 10:47:24
CheckMail - START -Ponni.kaliyamoorthy@nttdata.com
-----------------------------------------------------------------------------------------------------
28-08-2022 10:47:47
CheckEmailSAP - Success -PONNI.KALIYAMOORTHY@NTTDATA.COM
-----------------------------------------------------------------------------------------------------
28-08-2022 10:47:47
CheckMail - ERROR -Ponni.kaliyamoorthy@nttdata.com
-----------------------------------------------------------------------------------------------------
28-08-2022 10:48:02
SendOTP - START -Ponni.kaliyamoorthy@nttdata.com
-----------------------------------------------------------------------------------------------------
28-08-2022 10:48:02
CheckMail - START -Ponni.kaliyamoorthy@nttdata.com
-----------------------------------------------------------------------------------------------------
28-08-2022 10:48:23
CheckEmailSAP - Success -PONNI.KALIYAMOORTHY@NTTDATA.COM
-----------------------------------------------------------------------------------------------------
28-08-2022 10:48:23
CheckMail - ERROR -Ponni.kaliyamoorthy@nttdata.com
-----------------------------------------------------------------------------------------------------
28-08-2022 10:53:29
SendOTP - START -Ponni.kaliyamoorthy@nttdata.com
-----------------------------------------------------------------------------------------------------
28-08-2022 10:53:29
CheckMail - START -Ponni.kaliyamoorthy@nttdata.com
-----------------------------------------------------------------------------------------------------
28-08-2022 10:53:51
CheckEmailSAP - Success -PONNI.KALIYAMOORTHY@NTTDATA.COM
-----------------------------------------------------------------------------------------------------
28-08-2022 10:53:51
CheckMail - ERROR -Ponni.kaliyamoorthy@nttdata.com
-----------------------------------------------------------------------------------------------------
28-08-2022 11:03:20
SendOTP - START -Ponni.kaliyamoorthy@nttdata.com
-----------------------------------------------------------------------------------------------------
28-08-2022 11:03:20
CheckMail - START -Ponni.kaliyamoorthy@nttdata.com
-----------------------------------------------------------------------------------------------------
28-08-2022 11:03:41
CheckEmailSAP - Success -PONNI.KALIYAMOORTHY@NTTDATA.COM
-----------------------------------------------------------------------------------------------------
28-08-2022 11:03:41
CheckMail - ERROR -Ponni.kaliyamoorthy@nttdata.com
-----------------------------------------------------------------------------------------------------
28-08-2022 11:10:16
SendOTP - START -Ponni.kaliyamoorthy@nttdata.com
-----------------------------------------------------------------------------------------------------
28-08-2022 11:10:16
CheckMail - START -Ponni.kaliyamoorthy@nttdata.com
-----------------------------------------------------------------------------------------------------
28-08-2022 11:10:39
CheckEmailSAP - Success -PONNI.KALIYAMOORTHY@NTTDATA.COM
-----------------------------------------------------------------------------------------------------
28-08-2022 11:10:39
CheckMail - ERROR -Ponni.kaliyamoorthy@nttdata.com
-----------------------------------------------------------------------------------------------------
28-08-2022 11:12:21
SendOTP - START -Ponni.kaliyamoorthy@nttdata.com
-----------------------------------------------------------------------------------------------------
28-08-2022 11:12:21
CheckMail - START -Ponni.kaliyamoorthy@nttdata.com
-----------------------------------------------------------------------------------------------------
28-08-2022 11:12:43
CheckEmailSAP - Success -PONNI.KALIYAMOORTHY@NTTDATA.COM
-----------------------------------------------------------------------------------------------------
28-08-2022 11:12:43
CheckMail - ERROR -Ponni.kaliyamoorthy@nttdata.com
-----------------------------------------------------------------------------------------------------
28-08-2022 11:14:45
SendOTP - START -Ponni.kaliyamoorthy@nttdata.com
-----------------------------------------------------------------------------------------------------
28-08-2022 11:14:45
CheckMail - START -Ponni.kaliyamoorthy@nttdata.com
-----------------------------------------------------------------------------------------------------
28-08-2022 11:15:08
CheckEmailSAP - Success -PONNI.KALIYAMOORTHY@NTTDATA.COM
-----------------------------------------------------------------------------------------------------
28-08-2022 11:15:08
CheckMail - ERROR -Ponni.kaliyamoorthy@nttdata.com
-----------------------------------------------------------------------------------------------------
28-08-2022 11:15:29
SendOTP - START -Ponni.kaliyamoorthy@nttdata.com
-----------------------------------------------------------------------------------------------------
28-08-2022 11:15:29
CheckMail - START -Ponni.kaliyamoorthy@nttdata.com
-----------------------------------------------------------------------------------------------------
28-08-2022 11:15:51
CheckEmailSAP - Success -PONNI.KALIYAMOORTHY@NTTDATA.COM
-----------------------------------------------------------------------------------------------------
28-08-2022 11:15:51
CheckMail - ERROR -Ponni.kaliyamoorthy@nttdata.com
-----------------------------------------------------------------------------------------------------
28-08-2022 13:17:18
SendOTP - START -Ponni.kaliyamoorthy@nttdata.com
-----------------------------------------------------------------------------------------------------
28-08-2022 13:17:18
CheckMail - START -Ponni.kaliyamoorthy@nttdata.com
-----------------------------------------------------------------------------------------------------
28-08-2022 13:17:55
CheckEmailSAP - Success -PONNI.KALIYAMOORTHY@NTTDATA.COM
-----------------------------------------------------------------------------------------------------
28-08-2022 13:17:55
SendOTP - SUCCESS -Ponni.kaliyamoorthy@nttdata.com
-----------------------------------------------------------------------------------------------------
28-08-2022 13:18:21
InsertOTP - START -
-----------------------------------------------------------------------------------------------------
28-08-2022 13:18:23
InsertOTP - Success -Ponni.kaliyamoorthy@nttdata.com
-----------------------------------------------------------------------------------------------------
28-08-2022 13:18:23
SendOTP - SUCCESS -Ponni.kaliyamoorthy@nttdata.com
-----------------------------------------------------------------------------------------------------
28-08-2022 13:18:50
ValidateOTP - START -Ponni.kaliyamoorthy@nttdata.com
-----------------------------------------------------------------------------------------------------
28-08-2022 13:18:50
GetOTPData - START -Ponni.kaliyamoorthy@nttdata.com
-----------------------------------------------------------------------------------------------------
28-08-2022 13:18:50
GetOTPData - Success -Ponni.kaliyamoorthy@nttdata.com
-----------------------------------------------------------------------------------------------------
28-08-2022 13:24:17
SendOTP - START -Ponni.kaliyamoorthy@nttdata.com
-----------------------------------------------------------------------------------------------------
28-08-2022 13:24:17
CheckMail - START -Ponni.kaliyamoorthy@nttdata.com
-----------------------------------------------------------------------------------------------------
28-08-2022 13:24:19
CheckEmailSAP - Success -PONNI.KALIYAMOORTHY@NTTDATA.COM
-----------------------------------------------------------------------------------------------------
28-08-2022 13:24:19
SendOTP - SUCCESS -Ponni.kaliyamoorthy@nttdata.com
-----------------------------------------------------------------------------------------------------
28-08-2022 13:24:20
InsertOTP - START -
-----------------------------------------------------------------------------------------------------
28-08-2022 13:24:21
InsertOTP - Success -Ponni.kaliyamoorthy@nttdata.com
-----------------------------------------------------------------------------------------------------
28-08-2022 13:24:21
SendOTP - SUCCESS -Ponni.kaliyamoorthy@nttdata.com
-----------------------------------------------------------------------------------------------------
28-08-2022 13:24:48
ValidateOTP - START -Ponni.kaliyamoorthy@nttdata.com
-----------------------------------------------------------------------------------------------------
28-08-2022 13:24:48
GetOTPData - START -Ponni.kaliyamoorthy@nttdata.com
-----------------------------------------------------------------------------------------------------
28-08-2022 13:24:49
GetOTPData - Success -Ponni.kaliyamoorthy@nttdata.com
-----------------------------------------------------------------------------------------------------
28-08-2022 15:08:59
SendOTP - START -Ponni.kaliyamoorthy@nttdata.com
-----------------------------------------------------------------------------------------------------
28-08-2022 15:08:59
CheckMail - START -Ponni.kaliyamoorthy@nttdata.com
-----------------------------------------------------------------------------------------------------
28-08-2022 15:09:01
CheckEmailSAP - Success -PONNI.KALIYAMOORTHY@NTTDATA.COM
-----------------------------------------------------------------------------------------------------
28-08-2022 15:09:01
SendOTP - SUCCESS -Ponni.kaliyamoorthy@nttdata.com
-----------------------------------------------------------------------------------------------------
28-08-2022 15:09:03
InsertOTP - START -
-----------------------------------------------------------------------------------------------------
28-08-2022 15:09:03
InsertOTP - Success -Ponni.kaliyamoorthy@nttdata.com
-----------------------------------------------------------------------------------------------------
28-08-2022 15:09:03
SendOTP - SUCCESS -Ponni.kaliyamoorthy@nttdata.com
-----------------------------------------------------------------------------------------------------
28-08-2022 15:09:17
ValidateOTP - START -Ponni.kaliyamoorthy@nttdata.com
-----------------------------------------------------------------------------------------------------
28-08-2022 15:09:17
GetOTPData - START -Ponni.kaliyamoorthy@nttdata.com
-----------------------------------------------------------------------------------------------------
28-08-2022 15:09:17
GetOTPData - Success -Ponni.kaliyamoorthy@nttdata.com
-----------------------------------------------------------------------------------------------------
28-08-2022 15:12:48
SendOTP - START -Ponni.kaliyamoorthy@nttdata.com
-----------------------------------------------------------------------------------------------------
28-08-2022 15:12:48
CheckMail - START -Ponni.kaliyamoorthy@nttdata.com
-----------------------------------------------------------------------------------------------------
28-08-2022 15:12:49
CheckEmailSAP - Success -PONNI.KALIYAMOORTHY@NTTDATA.COM
-----------------------------------------------------------------------------------------------------
28-08-2022 15:12:49
SendOTP - SUCCESS -Ponni.kaliyamoorthy@nttdata.com
-----------------------------------------------------------------------------------------------------
28-08-2022 15:12:50
InsertOTP - START -
-----------------------------------------------------------------------------------------------------
28-08-2022 15:12:51
InsertOTP - Success -Ponni.kaliyamoorthy@nttdata.com
-----------------------------------------------------------------------------------------------------
28-08-2022 15:12:51
SendOTP - SUCCESS -Ponni.kaliyamoorthy@nttdata.com
-----------------------------------------------------------------------------------------------------
28-08-2022 15:13:13
ValidateOTP - START -Ponni.kaliyamoorthy@nttdata.com
-----------------------------------------------------------------------------------------------------
28-08-2022 15:13:13
GetOTPData - START -Ponni.kaliyamoorthy@nttdata.com
-----------------------------------------------------------------------------------------------------
28-08-2022 15:13:13
GetOTPData - Success -Ponni.kaliyamoorthy@nttdata.com
-----------------------------------------------------------------------------------------------------
28-08-2022 15:21:57
SendOTP - START -Ponni.kaliyamoorthy@nttdata.com
-----------------------------------------------------------------------------------------------------
28-08-2022 15:21:57
CheckMail - START -Ponni.kaliyamoorthy@nttdata.com
-----------------------------------------------------------------------------------------------------
28-08-2022 15:21:58
CheckEmailSAP - Success -PONNI.KALIYAMOORTHY@NTTDATA.COM
-----------------------------------------------------------------------------------------------------
28-08-2022 15:21:58
SendOTP - SUCCESS -Ponni.kaliyamoorthy@nttdata.com
-----------------------------------------------------------------------------------------------------
28-08-2022 15:21:59
InsertOTP - START -
-----------------------------------------------------------------------------------------------------
28-08-2022 15:22:00
InsertOTP - Success -Ponni.kaliyamoorthy@nttdata.com
-----------------------------------------------------------------------------------------------------
28-08-2022 15:22:00
SendOTP - SUCCESS -Ponni.kaliyamoorthy@nttdata.com
-----------------------------------------------------------------------------------------------------
28-08-2022 15:22:18
ValidateOTP - START -Ponni.kaliyamoorthy@nttdata.com
-----------------------------------------------------------------------------------------------------
28-08-2022 15:22:18
GetOTPData - START -Ponni.kaliyamoorthy@nttdata.com
-----------------------------------------------------------------------------------------------------
28-08-2022 15:22:19
GetOTPData - Success -Ponni.kaliyamoorthy@nttdata.com
-----------------------------------------------------------------------------------------------------
28-08-2022 15:29:23
SendOTP - START -Ponni.kaliyamoorthy@nttdata.com
-----------------------------------------------------------------------------------------------------
28-08-2022 15:29:23
CheckMail - START -Ponni.kaliyamoorthy@nttdata.com
-----------------------------------------------------------------------------------------------------
28-08-2022 15:29:24
CheckEmailSAP - Success -PONNI.KALIYAMOORTHY@NTTDATA.COM
-----------------------------------------------------------------------------------------------------
28-08-2022 15:29:24
SendOTP - SUCCESS -Ponni.kaliyamoorthy@nttdata.com
-----------------------------------------------------------------------------------------------------
28-08-2022 15:29:25
InsertOTP - START -
-----------------------------------------------------------------------------------------------------
28-08-2022 15:29:26
InsertOTP - Success -Ponni.kaliyamoorthy@nttdata.com
-----------------------------------------------------------------------------------------------------
28-08-2022 15:29:26
SendOTP - SUCCESS -Ponni.kaliyamoorthy@nttdata.com
-----------------------------------------------------------------------------------------------------
28-08-2022 15:30:28
ValidateOTP - START -Ponni.kaliyamoorthy@nttdata.com
-----------------------------------------------------------------------------------------------------
28-08-2022 15:30:28
GetOTPData - START -Ponni.kaliyamoorthy@nttdata.com
-----------------------------------------------------------------------------------------------------
28-08-2022 15:30:28
GetOTPData - Success -Ponni.kaliyamoorthy@nttdata.com
-----------------------------------------------------------------------------------------------------
28-08-2022 22:56:21
SendOTP - START -Ponni.kaliyamoorthy@nttdata.com
-----------------------------------------------------------------------------------------------------
28-08-2022 22:56:21
CheckMail - START -Ponni.kaliyamoorthy@nttdata.com
-----------------------------------------------------------------------------------------------------
28-08-2022 22:56:24
CheckEmailSAP - Success -PONNI.KALIYAMOORTHY@NTTDATA.COM
-----------------------------------------------------------------------------------------------------
28-08-2022 22:56:24
SendOTP - SUCCESS -Ponni.kaliyamoorthy@nttdata.com
-----------------------------------------------------------------------------------------------------
28-08-2022 22:56:25
InsertOTP - START -
-----------------------------------------------------------------------------------------------------
28-08-2022 22:56:26
InsertOTP - Success -Ponni.kaliyamoorthy@nttdata.com
-----------------------------------------------------------------------------------------------------
28-08-2022 22:56:26
SendOTP - SUCCESS -Ponni.kaliyamoorthy@nttdata.com
-----------------------------------------------------------------------------------------------------
28-08-2022 22:56:58
ValidateOTP - START -Ponni.kaliyamoorthy@nttdata.com
-----------------------------------------------------------------------------------------------------
28-08-2022 22:56:58
GetOTPData - START -Ponni.kaliyamoorthy@nttdata.com
-----------------------------------------------------------------------------------------------------
28-08-2022 22:56:58
GetOTPData - Success -Ponni.kaliyamoorthy@nttdata.com
-----------------------------------------------------------------------------------------------------
28-08-2022 23:00:15
SendOTP - START -Ponni.kaliyamoorthy@nttdata.com
-----------------------------------------------------------------------------------------------------
28-08-2022 23:00:15
CheckMail - START -Ponni.kaliyamoorthy@nttdata.com
-----------------------------------------------------------------------------------------------------
28-08-2022 23:00:52
CheckEmailSAP - Success -PONNI.KALIYAMOORTHY@NTTDATA.COM
-----------------------------------------------------------------------------------------------------
28-08-2022 23:00:52
SendOTP - SUCCESS -Ponni.kaliyamoorthy@nttdata.com
-----------------------------------------------------------------------------------------------------
28-08-2022 23:00:53
InsertOTP - START -
-----------------------------------------------------------------------------------------------------
28-08-2022 23:00:53
InsertOTP - Success -Ponni.kaliyamoorthy@nttdata.com
-----------------------------------------------------------------------------------------------------
28-08-2022 23:00:53
SendOTP - SUCCESS -Ponni.kaliyamoorthy@nttdata.com
-----------------------------------------------------------------------------------------------------
28-08-2022 23:01:10
ValidateOTP - START -Ponni.kaliyamoorthy@nttdata.com
-----------------------------------------------------------------------------------------------------
28-08-2022 23:01:10
GetOTPData - START -Ponni.kaliyamoorthy@nttdata.com
-----------------------------------------------------------------------------------------------------
28-08-2022 23:01:10
GetOTPData - Success -Ponni.kaliyamoorthy@nttdata.com
-----------------------------------------------------------------------------------------------------
28-08-2022 23:14:01
SendOTP - START -Ponni.kaliyamoorthy@nttdata.com
-----------------------------------------------------------------------------------------------------
28-08-2022 23:14:01
CheckMail - START -Ponni.kaliyamoorthy@nttdata.com
-----------------------------------------------------------------------------------------------------
28-08-2022 23:14:02
CheckEmailSAP - Success -PONNI.KALIYAMOORTHY@NTTDATA.COM
-----------------------------------------------------------------------------------------------------
28-08-2022 23:14:02
SendOTP - SUCCESS -Ponni.kaliyamoorthy@nttdata.com
-----------------------------------------------------------------------------------------------------
28-08-2022 23:14:03
InsertOTP - START -
-----------------------------------------------------------------------------------------------------
28-08-2022 23:14:03
InsertOTP - Success -Ponni.kaliyamoorthy@nttdata.com
-----------------------------------------------------------------------------------------------------
28-08-2022 23:14:03
SendOTP - SUCCESS -Ponni.kaliyamoorthy@nttdata.com
-----------------------------------------------------------------------------------------------------
28-08-2022 23:14:16
ValidateOTP - START -Ponni.kaliyamoorthy@nttdata.com
-----------------------------------------------------------------------------------------------------
28-08-2022 23:14:16
GetOTPData - START -Ponni.kaliyamoorthy@nttdata.com
-----------------------------------------------------------------------------------------------------
28-08-2022 23:14:16
GetOTPData - Success -Ponni.kaliyamoorthy@nttdata.com
-----------------------------------------------------------------------------------------------------
28-08-2022 23:21:45
SendOTP - START -Ponni.kaliyamoorthy@nttdata.com
-----------------------------------------------------------------------------------------------------
28-08-2022 23:21:45
CheckMail - START -Ponni.kaliyamoorthy@nttdata.com
-----------------------------------------------------------------------------------------------------
28-08-2022 23:21:46
CheckEmailSAP - Success -PONNI.KALIYAMOORTHY@NTTDATA.COM
-----------------------------------------------------------------------------------------------------
28-08-2022 23:21:46
SendOTP - SUCCESS -Ponni.kaliyamoorthy@nttdata.com
-----------------------------------------------------------------------------------------------------
28-08-2022 23:21:46
InsertOTP - START -
-----------------------------------------------------------------------------------------------------
28-08-2022 23:21:47
InsertOTP - Success -Ponni.kaliyamoorthy@nttdata.com
-----------------------------------------------------------------------------------------------------
28-08-2022 23:21:47
SendOTP - SUCCESS -Ponni.kaliyamoorthy@nttdata.com
-----------------------------------------------------------------------------------------------------
28-08-2022 23:22:41
ValidateOTP - START -Ponni.kaliyamoorthy@nttdata.com
-----------------------------------------------------------------------------------------------------
28-08-2022 23:22:41
GetOTPData - START -Ponni.kaliyamoorthy@nttdata.com
-----------------------------------------------------------------------------------------------------
28-08-2022 23:22:42
GetOTPData - Success -Ponni.kaliyamoorthy@nttdata.com
-----------------------------------------------------------------------------------------------------
28-08-2022 23:34:58
SendOTP - START -Ponni.kaliyamoorthy@nttdata.com
-----------------------------------------------------------------------------------------------------
28-08-2022 23:34:58
CheckMail - START -Ponni.kaliyamoorthy@nttdata.com
-----------------------------------------------------------------------------------------------------
28-08-2022 23:34:59
CheckEmailSAP - Success -PONNI.KALIYAMOORTHY@NTTDATA.COM
-----------------------------------------------------------------------------------------------------
28-08-2022 23:34:59
SendOTP - SUCCESS -Ponni.kaliyamoorthy@nttdata.com
-----------------------------------------------------------------------------------------------------
28-08-2022 23:35:00
InsertOTP - START -
-----------------------------------------------------------------------------------------------------
28-08-2022 23:35:00
InsertOTP - Success -Ponni.kaliyamoorthy@nttdata.com
-----------------------------------------------------------------------------------------------------
28-08-2022 23:35:00
SendOTP - SUCCESS -Ponni.kaliyamoorthy@nttdata.com
-----------------------------------------------------------------------------------------------------
28-08-2022 23:35:09
ValidateOTP - START -Ponni.kaliyamoorthy@nttdata.com
-----------------------------------------------------------------------------------------------------
28-08-2022 23:35:09
GetOTPData - START -Ponni.kaliyamoorthy@nttdata.com
-----------------------------------------------------------------------------------------------------
28-08-2022 23:35:09
GetOTPData - Success -Ponni.kaliyamoorthy@nttdata.com
-----------------------------------------------------------------------------------------------------
28-08-2022 23:41:32
SendOTP - START -Ponni.kaliyamoorthy@nttdata.com
-----------------------------------------------------------------------------------------------------
28-08-2022 23:41:32
CheckMail - START -Ponni.kaliyamoorthy@nttdata.com
-----------------------------------------------------------------------------------------------------
28-08-2022 23:41:33
CheckEmailSAP - Success -PONNI.KALIYAMOORTHY@NTTDATA.COM
-----------------------------------------------------------------------------------------------------
28-08-2022 23:41:33
SendOTP - SUCCESS -Ponni.kaliyamoorthy@nttdata.com
-----------------------------------------------------------------------------------------------------
28-08-2022 23:41:33
InsertOTP - START -
-----------------------------------------------------------------------------------------------------
28-08-2022 23:41:34
InsertOTP - Success -Ponni.kaliyamoorthy@nttdata.com
-----------------------------------------------------------------------------------------------------
28-08-2022 23:41:34
SendOTP - SUCCESS -Ponni.kaliyamoorthy@nttdata.com
-----------------------------------------------------------------------------------------------------
28-08-2022 23:41:40
ValidateOTP - START -Ponni.kaliyamoorthy@nttdata.com
-----------------------------------------------------------------------------------------------------
28-08-2022 23:41:40
GetOTPData - START -Ponni.kaliyamoorthy@nttdata.com
-----------------------------------------------------------------------------------------------------
28-08-2022 23:41:40
GetOTPData - Success -Ponni.kaliyamoorthy@nttdata.com
-----------------------------------------------------------------------------------------------------
28-08-2022 23:43:52
SendOTP - START -Ponni.kaliyamoorthy@nttdata.com
-----------------------------------------------------------------------------------------------------
28-08-2022 23:43:53
CheckMail - START -Ponni.kaliyamoorthy@nttdata.com
-----------------------------------------------------------------------------------------------------
28-08-2022 23:43:54
CheckEmailSAP - Success -PONNI.KALIYAMOORTHY@NTTDATA.COM
-----------------------------------------------------------------------------------------------------
28-08-2022 23:43:54
SendOTP - SUCCESS -Ponni.kaliyamoorthy@nttdata.com
-----------------------------------------------------------------------------------------------------
28-08-2022 23:43:54
InsertOTP - START -
-----------------------------------------------------------------------------------------------------
28-08-2022 23:43:55
InsertOTP - Success -Ponni.kaliyamoorthy@nttdata.com
-----------------------------------------------------------------------------------------------------
28-08-2022 23:43:55
SendOTP - SUCCESS -Ponni.kaliyamoorthy@nttdata.com
-----------------------------------------------------------------------------------------------------
28-08-2022 23:44:14
ValidateOTP - START -Ponni.kaliyamoorthy@nttdata.com
-----------------------------------------------------------------------------------------------------
28-08-2022 23:44:14
GetOTPData - START -Ponni.kaliyamoorthy@nttdata.com
-----------------------------------------------------------------------------------------------------
28-08-2022 23:44:14
GetOTPData - Success -Ponni.kaliyamoorthy@nttdata.com
-----------------------------------------------------------------------------------------------------
28-08-2022 23:51:31
SendOTP - START -Ponni.kaliyamoorthy@nttdata.com
-----------------------------------------------------------------------------------------------------
28-08-2022 23:51:31
CheckMail - START -Ponni.kaliyamoorthy@nttdata.com
-----------------------------------------------------------------------------------------------------
28-08-2022 23:51:32
CheckEmailSAP - Success -PONNI.KALIYAMOORTHY@NTTDATA.COM
-----------------------------------------------------------------------------------------------------
28-08-2022 23:51:32
SendOTP - SUCCESS -Ponni.kaliyamoorthy@nttdata.com
-----------------------------------------------------------------------------------------------------
28-08-2022 23:51:33
InsertOTP - START -
-----------------------------------------------------------------------------------------------------
28-08-2022 23:51:33
InsertOTP - Success -Ponni.kaliyamoorthy@nttdata.com
-----------------------------------------------------------------------------------------------------
28-08-2022 23:51:33
SendOTP - SUCCESS -Ponni.kaliyamoorthy@nttdata.com
-----------------------------------------------------------------------------------------------------
28-08-2022 23:51:45
ValidateOTP - START -Ponni.kaliyamoorthy@nttdata.com
-----------------------------------------------------------------------------------------------------
28-08-2022 23:51:45
GetOTPData - START -Ponni.kaliyamoorthy@nttdata.com
-----------------------------------------------------------------------------------------------------
28-08-2022 23:51:45
GetOTPData - Success -Ponni.kaliyamoorthy@nttdata.com
-----------------------------------------------------------------------------------------------------
28-08-2022 23:58:43
SendOTP - START -Ponni.kaliyamoorthy@nttdata.com
-----------------------------------------------------------------------------------------------------
28-08-2022 23:58:43
CheckMail - START -Ponni.kaliyamoorthy@nttdata.com
-----------------------------------------------------------------------------------------------------
28-08-2022 23:58:44
CheckEmailSAP - Success -PONNI.KALIYAMOORTHY@NTTDATA.COM
-----------------------------------------------------------------------------------------------------
28-08-2022 23:58:44
SendOTP - SUCCESS -Ponni.kaliyamoorthy@nttdata.com
-----------------------------------------------------------------------------------------------------
28-08-2022 23:58:45
InsertOTP - START -
-----------------------------------------------------------------------------------------------------
28-08-2022 23:58:45
InsertOTP - Success -Ponni.kaliyamoorthy@nttdata.com
-----------------------------------------------------------------------------------------------------
28-08-2022 23:58:45
SendOTP - SUCCESS -Ponni.kaliyamoorthy@nttdata.com
-----------------------------------------------------------------------------------------------------
28-08-2022 23:59:48
ValidateOTP - START -Ponni.kaliyamoorthy@nttdata.com
-----------------------------------------------------------------------------------------------------
28-08-2022 23:59:48
GetOTPData - START -Ponni.kaliyamoorthy@nttdata.com
-----------------------------------------------------------------------------------------------------
28-08-2022 23:59:48
GetOTPData - Success -Ponni.kaliyamoorthy@nttdata.com
-----------------------------------------------------------------------------------------------------
