3/22/2022 12:54:33 PM
Could not find a part of the path 'C:\inetpub\wwwroot\PartnerDeclarationPortal\Assets\mail-templates\OTP.html'.

   at System.IO.__Error.WinIOError(Int32 errorCode, String maybeFullPath)
   at System.IO.FileStream.Init(String path, FileMode mode, FileAccess access, Int32 rights, Boolean useRights, FileShare share, Int32 bufferSize, FileOptions options, SECURITY_ATTRIBUTES secAttrs, String msgPath, Boolean bFromProxy, Boolean useLongPath, Boolean checkHost)
   at System.IO.FileStream..ctor(String path, FileMode mode, FileAccess access, FileShare share, Int32 bufferSize, FileOptions options, String msgPath, Boolean bFromProxy, Boolean useLongPath, Boolean checkHost)
   at System.IO.StreamReader..ctor(String path, Encoding encoding, Boolean detectEncodingFromByteOrderMarks, Int32 bufferSize, Boolean checkHost)
   at System.IO.File.InternalReadAllText(String path, Encoding encoding, Boolean checkHost)
   at PartnerDeclarationPortal.Areas.api.Controllers.AccountController.SendMailToPartner(String MailID, String OTP, String Partner) in C:\Users\ramkumar\Desktop\PartnerDeclarationPortal\PartnerDeclarationPortal\Areas\api\Controllers\AccountController.cs:line 227
-----------------------------------------------------------------------------------------------------
3/22/2022 12:55:06 PM
Could not find a part of the path 'C:\inetpub\wwwroot\PartnerDeclarationPortal\Assets\mail-templates\OTP.html'.

   at System.IO.__Error.WinIOError(Int32 errorCode, String maybeFullPath)
   at System.IO.FileStream.Init(String path, FileMode mode, FileAccess access, Int32 rights, Boolean useRights, FileShare share, Int32 bufferSize, FileOptions options, SECURITY_ATTRIBUTES secAttrs, String msgPath, Boolean bFromProxy, Boolean useLongPath, Boolean checkHost)
   at System.IO.FileStream..ctor(String path, FileMode mode, FileAccess access, FileShare share, Int32 bufferSize, FileOptions options, String msgPath, Boolean bFromProxy, Boolean useLongPath, Boolean checkHost)
   at System.IO.StreamReader..ctor(String path, Encoding encoding, Boolean detectEncodingFromByteOrderMarks, Int32 bufferSize, Boolean checkHost)
   at System.IO.File.InternalReadAllText(String path, Encoding encoding, Boolean checkHost)
   at PartnerDeclarationPortal.Areas.api.Controllers.AccountController.SendMailToPartner(String MailID, String OTP, String Partner) in C:\Users\ramkumar\Desktop\PartnerDeclarationPortal\PartnerDeclarationPortal\Areas\api\Controllers\AccountController.cs:line 227
-----------------------------------------------------------------------------------------------------
